EESchema Schematic File Version 4
EELAYER 30 0
EELAYER END
$Descr A3 16535 11693
encoding utf-8
Sheet 3 3
Title "EuroPress - Analog board"
Date ""
Rev ""
Comp "LGR"
Comment1 ""
Comment2 ""
Comment3 ""
Comment4 ""
$EndDescr
Wire Wire Line
	5000 2900 5100 2900
Wire Wire Line
	5100 2950 5100 2900
Connection ~ 5100 2900
Wire Wire Line
	5100 2900 5450 2900
Wire Wire Line
	4100 2900 4500 2900
$Comp
L Device:R_Small R29
U 1 1 5D79B28C
P 11600 2450
F 0 "R29" V 11404 2450 50  0000 C CNN
F 1 "22k" V 11495 2450 50  0000 C CNN
F 2 "Resistor_SMD:R_0402_1005Metric" H 11600 2450 50  0001 C CNN
F 3 "~" H 11600 2450 50  0001 C CNN
F 4 "Resistor 22k 1% 62.5mW 0402" H 0   0   50  0001 C CNN "Description"
F 5 "UNI-ROYAL(Uniroyal Elec)" H 0   0   50  0001 C CNN "Manufacturer_Name"
F 6 "0402WGF2202TCE" H 0   0   50  0001 C CNN "Manufacturer_Part_Number"
F 7 "" H 0   0   50  0001 C CNN "Mouser Part Number"
F 8 "Mouser" H 0   0   50  0001 C CNN "Supplier"
F 9 "" H 0   0   50  0001 C CNN "Supplier_Ref"
F 10 "C25768" H 11600 2450 50  0001 C CNN "LCSC"
	1    11600 2450
	0    1    1    0   
$EndComp
$Comp
L Device:R_Small R30
U 1 1 5D79B9F3
P 11600 2650
F 0 "R30" V 11500 2650 50  0000 C CNN
F 1 "22k" V 11400 2650 50  0000 C CNN
F 2 "Resistor_SMD:R_0402_1005Metric" H 11600 2650 50  0001 C CNN
F 3 "~" H 11600 2650 50  0001 C CNN
F 4 "Resistor 22k 1% 62.5mW 0402" H 0   0   50  0001 C CNN "Description"
F 5 "UNI-ROYAL(Uniroyal Elec)" H 0   0   50  0001 C CNN "Manufacturer_Name"
F 6 "0402WGF2202TCE" H 0   0   50  0001 C CNN "Manufacturer_Part_Number"
F 7 "" H 0   0   50  0001 C CNN "Mouser Part Number"
F 8 "Mouser" H 0   0   50  0001 C CNN "Supplier"
F 9 "" H 0   0   50  0001 C CNN "Supplier_Ref"
F 10 "C25768" H 11600 2650 50  0001 C CNN "LCSC"
	1    11600 2650
	0    -1   -1   0   
$EndComp
Wire Wire Line
	11700 2450 11800 2450
$Comp
L Device:R_Small R35
U 1 1 5D7C40EA
P 12200 2250
F 0 "R35" V 12004 2250 50  0000 C CNN
F 1 "150k" V 12095 2250 50  0000 C CNN
F 2 "Resistor_SMD:R_0402_1005Metric" H 12200 2250 50  0001 C CNN
F 3 "~" H 12200 2250 50  0001 C CNN
F 4 "Resistor 150k 1% 62.5mW 0402" H 0   250 50  0001 C CNN "Description"
F 5 "UNI-ROYAL(Uniroyal Elec)" H 0   250 50  0001 C CNN "Manufacturer_Name"
F 6 "0402WGF1503TCE" H 0   250 50  0001 C CNN "Manufacturer_Part_Number"
F 7 "" H 0   250 50  0001 C CNN "Mouser Part Number"
F 8 "Mouser" H 0   250 50  0001 C CNN "Supplier"
F 9 "" H 0   250 50  0001 C CNN "Supplier_Ref"
F 10 "C25755" H 12200 2250 50  0001 C CNN "LCSC"
	1    12200 2250
	0    1    1    0   
$EndComp
Wire Wire Line
	12100 2250 11800 2250
Wire Wire Line
	11800 2250 11800 2450
Connection ~ 11800 2450
Wire Wire Line
	11800 2450 11900 2450
$Comp
L Device:R_Small R21
U 1 1 5D83283B
P 10500 2150
F 0 "R21" H 10441 2104 50  0000 R CNN
F 1 "6.8k" H 10441 2195 50  0000 R CNN
F 2 "Resistor_SMD:R_0402_1005Metric" H 10500 2150 50  0001 C CNN
F 3 "~" H 10500 2150 50  0001 C CNN
F 4 "Resistor 6.8k 1% 62.5mW 0402" H -100 -200 50  0001 C CNN "Description"
F 5 "UNI-ROYAL(Uniroyal Elec)" H -100 -200 50  0001 C CNN "Manufacturer_Name"
F 6 "0402WGF6801TCE" H -100 -200 50  0001 C CNN "Manufacturer_Part_Number"
F 7 "" H -100 -200 50  0001 C CNN "Mouser Part Number"
F 8 "Mouser" H -100 -200 50  0001 C CNN "Supplier"
F 9 "" H -100 -200 50  0001 C CNN "Supplier_Ref"
F 10 "C25917" H 10500 2150 50  0001 C CNN "LCSC"
	1    10500 2150
	-1   0    0    1   
$EndComp
$Comp
L Device:R_Small R22
U 1 1 5D83322E
P 10500 2750
F 0 "R22" H 10441 2704 50  0000 R CNN
F 1 "1.2k" H 10441 2795 50  0000 R CNN
F 2 "Resistor_SMD:R_0402_1005Metric" H 10500 2750 50  0001 C CNN
F 3 "~" H 10500 2750 50  0001 C CNN
F 4 "Resistor 1.2k 1% 62.5mW 0402" H -100 -200 50  0001 C CNN "Description"
F 5 "UNI-ROYAL(Uniroyal Elec)" H -100 -200 50  0001 C CNN "Manufacturer_Name"
F 6 "0402WGF1201TCE" H -100 -200 50  0001 C CNN "Manufacturer_Part_Number"
F 7 "" H -100 -200 50  0001 C CNN "Mouser Part Number"
F 8 "Mouser" H -100 -200 50  0001 C CNN "Supplier"
F 9 "" H -100 -200 50  0001 C CNN "Supplier_Ref"
F 10 "C25862" H 10500 2750 50  0001 C CNN "LCSC"
	1    10500 2750
	-1   0    0    1   
$EndComp
Wire Wire Line
	10500 2900 10500 2850
$Comp
L power:+3V3 #PWR083
U 1 1 5D861950
P 10500 2000
F 0 "#PWR083" H 10500 1850 50  0001 C CNN
F 1 "+3V3" H 10515 2173 50  0000 C CNN
F 2 "" H 10500 2000 50  0001 C CNN
F 3 "" H 10500 2000 50  0001 C CNN
	1    10500 2000
	1    0    0    -1  
$EndComp
Wire Wire Line
	10500 2000 10500 2050
$Comp
L Device:R_POT Rp1
U 1 1 5D86DE2C
P 10500 2450
F 0 "Rp1" H 10431 2496 50  0000 R CNN
F 1 "200" H 10431 2405 50  0000 R CNN
F 2 "Potentiometer_THT:Potentiometer_Bourns_3296W_Vertical" H 10500 2450 50  0001 C CNN
F 3 "https://www.mouser.fr/datasheet/2/54/296-776415.pdf" H 10500 2450 50  0001 C CNN
F 4 "Résistances ajustable - Trou débouchant 3/8IN 200 OHM Sealed Vertical Adjust" H -100 -200 50  0001 C CNN "Description"
F 5 "Bourns" H -100 -200 50  0001 C CNN "Manufacturer_Name"
F 6 "PV36W201C01B00" H -100 -200 50  0001 C CNN "Manufacturer_Part_Number"
F 7 "81-PV36W201C01B00" H -100 -200 50  0001 C CNN "Mouser Part Number"
F 8 "Mouser" H -100 -200 50  0001 C CNN "Supplier"
F 9 "81-PV36W201C01B00" H -100 -200 50  0001 C CNN "Supplier_Ref"
F 10 "--" H 10500 2450 50  0001 C CNN "LCSC"
	1    10500 2450
	1    0    0    -1  
$EndComp
Wire Wire Line
	10500 2300 10500 2250
Wire Wire Line
	10500 2650 10500 2600
$Comp
L Device:C_Small C34
U 1 1 5D8B3E9C
P 13800 3600
F 0 "C34" H 13708 3554 50  0000 R CNN
F 1 "0.1u" H 13708 3645 50  0000 R CNN
F 2 "Capacitor_SMD:C_0603_1608Metric" H 13800 3600 50  0001 C CNN
F 3 "~" H 13800 3600 50  0001 C CNN
F 4 "Capacitor MLCC 0.1u 50V 10% X7R 0603" H 150 -400 50  0001 C CNN "Description"
F 5 "Yageo" H 150 -400 50  0001 C CNN "Manufacturer_Name"
F 6 "CC0603KRX7R9BB104" H 150 -400 50  0001 C CNN "Manufacturer_Part_Number"
F 7 "" H 150 -400 50  0001 C CNN "Mouser Part Number"
F 8 "Mouser" H 150 -400 50  0001 C CNN "Supplier"
F 9 "" H 150 -400 50  0001 C CNN "Supplier_Ref"
F 10 "C14663" H 13800 3600 50  0001 C CNN "LCSC"
	1    13800 3600
	-1   0    0    1   
$EndComp
Wire Wire Line
	14250 4200 14250 4150
Connection ~ 14250 4150
Wire Wire Line
	14250 4150 14250 4100
Wire Wire Line
	13800 3500 13800 3450
Wire Wire Line
	13800 3450 14250 3450
Wire Wire Line
	14250 3450 14250 3500
$Comp
L power:+12VA #PWR097
U 1 1 5D8E632E
P 14250 3400
F 0 "#PWR097" H 14250 3250 50  0001 C CNN
F 1 "+12VA" H 14265 3573 50  0000 C CNN
F 2 "" H 14250 3400 50  0001 C CNN
F 3 "" H 14250 3400 50  0001 C CNN
	1    14250 3400
	1    0    0    -1  
$EndComp
$Comp
L power:+12VA #PWR0103
U 1 1 5D8E721F
P 15600 3400
F 0 "#PWR0103" H 15600 3250 50  0001 C CNN
F 1 "+12VA" H 15615 3573 50  0000 C CNN
F 2 "" H 15600 3400 50  0001 C CNN
F 3 "" H 15600 3400 50  0001 C CNN
	1    15600 3400
	1    0    0    -1  
$EndComp
Wire Wire Line
	14250 3400 14250 3450
Connection ~ 14250 3450
$Comp
L Device:C_Small C38
U 1 1 5D901C6F
P 15150 3600
F 0 "C38" H 15058 3554 50  0000 R CNN
F 1 "0.1u" H 15058 3645 50  0000 R CNN
F 2 "Capacitor_SMD:C_0603_1608Metric" H 15150 3600 50  0001 C CNN
F 3 "~" H 15150 3600 50  0001 C CNN
F 4 "Capacitor MLCC 0.1u 50V 10% X7R 0603" H 500 -450 50  0001 C CNN "Description"
F 5 "Yageo" H 500 -450 50  0001 C CNN "Manufacturer_Name"
F 6 "CC0603KRX7R9BB104" H 500 -450 50  0001 C CNN "Manufacturer_Part_Number"
F 7 "" H 500 -450 50  0001 C CNN "Mouser Part Number"
F 8 "Mouser" H 500 -450 50  0001 C CNN "Supplier"
F 9 "" H 500 -450 50  0001 C CNN "Supplier_Ref"
F 10 "C14663" H 15150 3600 50  0001 C CNN "LCSC"
	1    15150 3600
	-1   0    0    1   
$EndComp
Wire Wire Line
	15150 3500 15150 3450
Wire Wire Line
	15150 3450 15600 3450
Wire Wire Line
	15600 3450 15600 3400
Wire Wire Line
	15600 3500 15600 3450
Connection ~ 15600 3450
Wire Wire Line
	15600 4200 15600 4150
Connection ~ 15600 4150
Wire Wire Line
	15600 4150 15600 4100
$Comp
L Device:R_Small R31
U 1 1 5D979612
P 11600 5150
F 0 "R31" V 11404 5150 50  0000 C CNN
F 1 "22k" V 11495 5150 50  0000 C CNN
F 2 "Resistor_SMD:R_0402_1005Metric" H 11600 5150 50  0001 C CNN
F 3 "~" H 11600 5150 50  0001 C CNN
F 4 "Resistor 22k 1% 62.5mW 0402" H 0   0   50  0001 C CNN "Description"
F 5 "UNI-ROYAL(Uniroyal Elec)" H 0   0   50  0001 C CNN "Manufacturer_Name"
F 6 "0402WGF2202TCE" H 0   0   50  0001 C CNN "Manufacturer_Part_Number"
F 7 "" H 0   0   50  0001 C CNN "Mouser Part Number"
F 8 "Mouser" H 0   0   50  0001 C CNN "Supplier"
F 9 "" H 0   0   50  0001 C CNN "Supplier_Ref"
F 10 "C25768" H 11600 5150 50  0001 C CNN "LCSC"
	1    11600 5150
	0    1    1    0   
$EndComp
$Comp
L Device:R_Small R32
U 1 1 5D97961C
P 11600 5350
F 0 "R32" V 11500 5350 50  0000 C CNN
F 1 "22k" V 11400 5350 50  0000 C CNN
F 2 "Resistor_SMD:R_0402_1005Metric" H 11600 5350 50  0001 C CNN
F 3 "~" H 11600 5350 50  0001 C CNN
F 4 "Resistor 22k 1% 62.5mW 0402" H 0   0   50  0001 C CNN "Description"
F 5 "UNI-ROYAL(Uniroyal Elec)" H 0   0   50  0001 C CNN "Manufacturer_Name"
F 6 "0402WGF2202TCE" H 0   0   50  0001 C CNN "Manufacturer_Part_Number"
F 7 "" H 0   0   50  0001 C CNN "Mouser Part Number"
F 8 "Mouser" H 0   0   50  0001 C CNN "Supplier"
F 9 "" H 0   0   50  0001 C CNN "Supplier_Ref"
F 10 "C25768" H 11600 5350 50  0001 C CNN "LCSC"
	1    11600 5350
	0    -1   -1   0   
$EndComp
Wire Wire Line
	11700 5150 11800 5150
$Comp
L Device:R_Small R36
U 1 1 5D979629
P 12200 4900
F 0 "R36" V 12004 4900 50  0000 C CNN
F 1 "150k" V 12095 4900 50  0000 C CNN
F 2 "Resistor_SMD:R_0402_1005Metric" H 12200 4900 50  0001 C CNN
F 3 "~" H 12200 4900 50  0001 C CNN
F 4 "Resistor 150k 1% 62.5mW 0402" H 0   200 50  0001 C CNN "Description"
F 5 "UNI-ROYAL(Uniroyal Elec)" H 0   200 50  0001 C CNN "Manufacturer_Name"
F 6 "0402WGF1503TCE" H 0   200 50  0001 C CNN "Manufacturer_Part_Number"
F 7 "" H 0   200 50  0001 C CNN "Mouser Part Number"
F 8 "Mouser" H 0   200 50  0001 C CNN "Supplier"
F 9 "" H 0   200 50  0001 C CNN "Supplier_Ref"
F 10 "C25755" H 12200 4900 50  0001 C CNN "LCSC"
	1    12200 4900
	0    1    1    0   
$EndComp
Wire Wire Line
	12100 4900 11800 4900
Wire Wire Line
	11800 4900 11800 5150
Connection ~ 11800 5150
Wire Wire Line
	11800 5150 11900 5150
Wire Wire Line
	11200 5350 11050 5350
$Comp
L Device:R_Small R23
U 1 1 5D97965F
P 10500 4850
F 0 "R23" H 10441 4804 50  0000 R CNN
F 1 "6.8k" H 10441 4895 50  0000 R CNN
F 2 "Resistor_SMD:R_0402_1005Metric" H 10500 4850 50  0001 C CNN
F 3 "~" H 10500 4850 50  0001 C CNN
F 4 "Resistor 6.8k 1% 62.5mW 0402" H -100 -200 50  0001 C CNN "Description"
F 5 "UNI-ROYAL(Uniroyal Elec)" H -100 -200 50  0001 C CNN "Manufacturer_Name"
F 6 "0402WGF6801TCE" H -100 -200 50  0001 C CNN "Manufacturer_Part_Number"
F 7 "" H -100 -200 50  0001 C CNN "Mouser Part Number"
F 8 "Mouser" H -100 -200 50  0001 C CNN "Supplier"
F 9 "" H -100 -200 50  0001 C CNN "Supplier_Ref"
F 10 "C25917" H 10500 4850 50  0001 C CNN "LCSC"
	1    10500 4850
	-1   0    0    1   
$EndComp
$Comp
L Device:R_Small R24
U 1 1 5D979669
P 10500 5450
F 0 "R24" H 10441 5404 50  0000 R CNN
F 1 "1.2k" H 10441 5495 50  0000 R CNN
F 2 "Resistor_SMD:R_0402_1005Metric" H 10500 5450 50  0001 C CNN
F 3 "~" H 10500 5450 50  0001 C CNN
F 4 "Resistor 1.2k 1% 62.5mW 0402" H -100 -200 50  0001 C CNN "Description"
F 5 "UNI-ROYAL(Uniroyal Elec)" H -100 -200 50  0001 C CNN "Manufacturer_Name"
F 6 "0402WGF1201TCE" H -100 -200 50  0001 C CNN "Manufacturer_Part_Number"
F 7 "" H -100 -200 50  0001 C CNN "Mouser Part Number"
F 8 "Mouser" H -100 -200 50  0001 C CNN "Supplier"
F 9 "" H -100 -200 50  0001 C CNN "Supplier_Ref"
F 10 "C25862" H 10500 5450 50  0001 C CNN "LCSC"
	1    10500 5450
	-1   0    0    1   
$EndComp
Wire Wire Line
	10500 5600 10500 5550
$Comp
L power:+3V3 #PWR085
U 1 1 5D979695
P 10500 4700
F 0 "#PWR085" H 10500 4550 50  0001 C CNN
F 1 "+3V3" H 10515 4873 50  0000 C CNN
F 2 "" H 10500 4700 50  0001 C CNN
F 3 "" H 10500 4700 50  0001 C CNN
	1    10500 4700
	1    0    0    -1  
$EndComp
Wire Wire Line
	10500 4700 10500 4750
$Comp
L Device:R_POT Rp2
U 1 1 5D9796A0
P 10500 5150
F 0 "Rp2" H 10431 5196 50  0000 R CNN
F 1 "200" H 10431 5105 50  0000 R CNN
F 2 "Potentiometer_THT:Potentiometer_Bourns_3296W_Vertical" H 10500 5150 50  0001 C CNN
F 3 "https://www.mouser.fr/datasheet/2/54/296-776415.pdf" H 10500 5150 50  0001 C CNN
F 4 "Résistances ajustable - Trou débouchant 3/8IN 200 OHM Sealed Vertical Adjust" H -100 -200 50  0001 C CNN "Description"
F 5 "Bourns" H -100 -200 50  0001 C CNN "Manufacturer_Name"
F 6 "PV36W201C01B00" H -100 -200 50  0001 C CNN "Manufacturer_Part_Number"
F 7 "81-PV36W201C01B00" H -100 -200 50  0001 C CNN "Mouser Part Number"
F 8 "Mouser" H -100 -200 50  0001 C CNN "Supplier"
F 9 "81-PV36W201C01B00" H -100 -200 50  0001 C CNN "Supplier_Ref"
F 10 "--" H 10500 5150 50  0001 C CNN "LCSC"
	1    10500 5150
	1    0    0    -1  
$EndComp
Wire Wire Line
	10500 5000 10500 4950
Wire Wire Line
	10500 5350 10500 5300
Text Notes 10600 3650 0    50   ~ 0
Arduino Due analog output voltage range is [0.55; 2.75]V.\nThe differential amplifier is used to remove the 0.55V offset\nand to amplify the output signal to reach [0;10]V range.
Text Notes 10600 3950 0    50   ~ 0
Gain = 10 / (2.75 - 0.55) = 10 / 2.2 = 4.545\nG = R2 / R1 = 150000 / 33000 = 4.545
Wire Notes Line
	9400 500  9400 7000
Text Notes 600  650  0    60   ~ 0
ANALOG INPUTS
Text Notes 9600 650  0    60   ~ 0
ANALOG OUTPUTS
Wire Notes Line
	9550 700  10450 700 
Wire Notes Line
	10450 700  10450 500 
Wire Notes Line
	500  7000 16050 7000
$Comp
L Connector_Generic:Conn_02x06_Odd_Even J6
U 1 1 5DC951FC
P 9500 8100
F 0 "J6" H 9550 8517 50  0000 C CNN
F 1 "Analog_in_out" H 9550 8426 50  0000 C CNN
F 2 "Connector_PinHeader_2.54mm:PinHeader_2x06_P2.54mm_Vertical" H 9500 8100 50  0001 C CNN
F 3 "~" H 9500 8100 50  0001 C CNN
F 4 "Samtec" H 400 -200 50  0001 C CNN "Manufacturer_Name"
F 5 "Samtec" H 400 -200 50  0001 C CNN "Supplier"
F 6 "Embase male 2 rangées 6 positions" H -5050 -150 50  0001 C CNN "Description"
F 7 "IPL1-106-01-L-D-K" H -5050 -150 50  0001 C CNN "Manufacturer_Part_Number"
F 8 "Yes" H -5050 -150 50  0001 C CNN "Sample"
F 9 "IPL1-106-01-L-D-K" H -5050 -150 50  0001 C CNN "Supplier_Ref"
F 10 "--" H 9500 8100 50  0001 C CNN "LCSC"
	1    9500 8100
	1    0    0    -1  
$EndComp
$Comp
L power:+24V #PWR081
U 1 1 5DC965BF
P 9900 7750
F 0 "#PWR081" H 9900 7600 50  0001 C CNN
F 1 "+24V" H 9915 7923 50  0000 C CNN
F 2 "" H 9900 7750 50  0001 C CNN
F 3 "" H 9900 7750 50  0001 C CNN
	1    9900 7750
	1    0    0    -1  
$EndComp
Wire Wire Line
	9800 8100 9900 8100
Wire Wire Line
	9900 8100 9900 8000
Wire Wire Line
	9800 7900 9900 7900
Connection ~ 9900 7900
Wire Wire Line
	9900 7900 9900 7750
Wire Wire Line
	9800 8000 9900 8000
Connection ~ 9900 8000
Wire Wire Line
	9900 8000 9900 7900
Wire Wire Line
	9800 8200 9900 8200
Wire Wire Line
	9900 8200 9900 8300
Wire Wire Line
	9800 8300 9900 8300
Connection ~ 9900 8300
Wire Wire Line
	9900 8300 9900 8400
Wire Wire Line
	9800 8400 9900 8400
Connection ~ 9900 8400
Wire Wire Line
	9900 8400 9900 8500
Wire Wire Line
	8700 7900 9300 7900
Wire Wire Line
	8700 8000 9300 8000
Wire Wire Line
	8700 8200 9300 8200
Wire Wire Line
	8700 8300 9300 8300
Text Label 8700 8000 0    50   ~ 0
ANA_IN_CH2
Text Label 8700 7900 0    50   ~ 0
ANA_IN_CH1
Text Label 8700 8300 0    50   ~ 0
ANA_OUT_CH2
Text Label 8700 8200 0    50   ~ 0
ANA_OUT_CH1
Text Label 14250 2450 2    50   ~ 0
ANA_OUT_CH1
Text Label 14300 5150 2    50   ~ 0
ANA_OUT_CH2
Text Label 2800 2650 0    50   ~ 0
ANA_IN_CH1
Wire Wire Line
	2800 2650 3350 2650
NoConn ~ 9300 8100
NoConn ~ 9300 8400
Text Notes 10200 2600 2    50   ~ 0
Rp1 = 160R\npour U = 0.55V
Wire Wire Line
	8350 2350 8350 2400
Connection ~ 8350 2350
Wire Wire Line
	7900 2350 8350 2350
Wire Wire Line
	8350 2300 8350 2350
$Comp
L power:+12VA #PWR077
U 1 1 5D540FBA
P 8350 2300
F 0 "#PWR077" H 8350 2150 50  0001 C CNN
F 1 "+12VA" H 8365 2473 50  0000 C CNN
F 2 "" H 8350 2300 50  0001 C CNN
F 3 "" H 8350 2300 50  0001 C CNN
	1    8350 2300
	1    0    0    -1  
$EndComp
Wire Notes Line
	1400 700  1400 500 
Wire Notes Line
	500  700  1400 700 
$Comp
L Device:R_Small R25
U 1 1 615BC2E2
P 11300 2450
F 0 "R25" V 11104 2450 50  0000 C CNN
F 1 "10k" V 11195 2450 50  0000 C CNN
F 2 "Resistor_SMD:R_0402_1005Metric" H 11300 2450 50  0001 C CNN
F 3 "~" H 11300 2450 50  0001 C CNN
F 4 "Resistor 10k 1% 62.5mW 0402" H 11300 2450 50  0001 C CNN "Description"
F 5 "C25744" H 11300 2450 50  0001 C CNN "LCSC"
F 6 "UNI-ROYAL(Uniroyal Elec)" H 11300 2450 50  0001 C CNN "Manufacturer_Name"
F 7 "0402WGF1002TCE" H 11300 2450 50  0001 C CNN "Manufacturer_Part_Number"
	1    11300 2450
	0    1    1    0   
$EndComp
$Comp
L Device:R_Small R26
U 1 1 615BCCDA
P 11300 2650
F 0 "R26" V 11400 2650 50  0000 C CNN
F 1 "10k" V 11500 2650 50  0000 C CNN
F 2 "Resistor_SMD:R_0402_1005Metric" H 11300 2650 50  0001 C CNN
F 3 "~" H 11300 2650 50  0001 C CNN
F 4 "Resistor 10k 1% 62.5mW 0402" H 11300 2650 50  0001 C CNN "Description"
F 5 "C25744" H 11300 2650 50  0001 C CNN "LCSC"
F 6 "UNI-ROYAL(Uniroyal Elec)" H 11300 2650 50  0001 C CNN "Manufacturer_Name"
F 7 "0402WGF1002TCE" H 11300 2650 50  0001 C CNN "Manufacturer_Part_Number"
	1    11300 2650
	0    1    1    0   
$EndComp
Wire Wire Line
	11400 2650 11500 2650
Wire Wire Line
	11400 2450 11500 2450
$Comp
L Device:R_Small R27
U 1 1 615E737F
P 11300 5150
F 0 "R27" V 11104 5150 50  0000 C CNN
F 1 "10k" V 11195 5150 50  0000 C CNN
F 2 "Resistor_SMD:R_0402_1005Metric" H 11300 5150 50  0001 C CNN
F 3 "~" H 11300 5150 50  0001 C CNN
F 4 "Resistor 10k 1% 62.5mW 0402" H 11300 5150 50  0001 C CNN "Description"
F 5 "C25744" H 11300 5150 50  0001 C CNN "LCSC"
F 6 "UNI-ROYAL(Uniroyal Elec)" H 11300 5150 50  0001 C CNN "Manufacturer_Name"
F 7 "0402WGF1002TCE" H 11300 5150 50  0001 C CNN "Manufacturer_Part_Number"
	1    11300 5150
	0    1    1    0   
$EndComp
$Comp
L Device:R_Small R28
U 1 1 615E783F
P 11300 5350
F 0 "R28" V 11400 5350 50  0000 C CNN
F 1 "10k" V 11500 5350 50  0000 C CNN
F 2 "Resistor_SMD:R_0402_1005Metric" H 11300 5350 50  0001 C CNN
F 3 "~" H 11300 5350 50  0001 C CNN
F 4 "Resistor 10k 1% 62.5mW 0402" H 11300 5350 50  0001 C CNN "Description"
F 5 "C25744" H 11300 5350 50  0001 C CNN "LCSC"
F 6 "UNI-ROYAL(Uniroyal Elec)" H 11300 5350 50  0001 C CNN "Manufacturer_Name"
F 7 "0402WGF1002TCE" H 11300 5350 50  0001 C CNN "Manufacturer_Part_Number"
	1    11300 5350
	0    1    1    0   
$EndComp
Wire Wire Line
	11400 5350 11500 5350
Wire Wire Line
	11400 5150 11500 5150
Wire Wire Line
	13400 2450 13450 2450
Wire Wire Line
	12750 2150 13450 2150
Wire Wire Line
	13450 2150 13450 2450
Connection ~ 13450 2450
Wire Wire Line
	13450 2450 13600 2450
Wire Wire Line
	12750 2150 12750 2350
Wire Wire Line
	12750 2350 12800 2350
Wire Wire Line
	12500 2550 12550 2550
Wire Wire Line
	10650 2450 11200 2450
Wire Wire Line
	11700 2650 11800 2650
$Comp
L Device:R_Small R33
U 1 1 6165A3E5
P 11800 2900
F 0 "R33" H 11859 2946 50  0000 L CNN
F 1 "150k" H 11859 2855 50  0000 L CNN
F 2 "Resistor_SMD:R_0402_1005Metric" H 11800 2900 50  0001 C CNN
F 3 "~" H 11800 2900 50  0001 C CNN
F 4 "Resistor 150k 1% 62.5mW 0402" H 11800 2900 50  0001 C CNN "Description"
F 5 "C25755" H 11800 2900 50  0001 C CNN "LCSC"
F 6 "UNI-ROYAL(Uniroyal Elec)" H 11800 2900 50  0001 C CNN "Manufacturer_Name"
F 7 "0402WGF1503TCE" H 11800 2900 50  0001 C CNN "Manufacturer_Part_Number"
	1    11800 2900
	1    0    0    -1  
$EndComp
Wire Wire Line
	11800 2800 11800 2650
Connection ~ 11800 2650
Wire Wire Line
	11800 2650 11900 2650
Wire Wire Line
	12300 2250 12550 2250
Wire Wire Line
	12550 2250 12550 2550
Connection ~ 12550 2550
Wire Wire Line
	12550 2550 12800 2550
Wire Wire Line
	11050 2650 11200 2650
Wire Wire Line
	13400 5150 13450 5150
Wire Wire Line
	11700 5350 11800 5350
Wire Wire Line
	12500 5250 12550 5250
$Comp
L Device:R_Small R34
U 1 1 616A4D34
P 11800 5600
F 0 "R34" H 11859 5646 50  0000 L CNN
F 1 "150k" H 11859 5555 50  0000 L CNN
F 2 "Resistor_SMD:R_0402_1005Metric" H 11800 5600 50  0001 C CNN
F 3 "~" H 11800 5600 50  0001 C CNN
F 4 "Resistor 150k 1% 62.5mW 0402" H 11800 5600 50  0001 C CNN "Description"
F 5 "C25755" H 11800 5600 50  0001 C CNN "LCSC"
F 6 "UNI-ROYAL(Uniroyal Elec)" H 11800 5600 50  0001 C CNN "Manufacturer_Name"
F 7 "0402WGF1503TCE" H 11800 5600 50  0001 C CNN "Manufacturer_Part_Number"
	1    11800 5600
	1    0    0    -1  
$EndComp
Wire Wire Line
	11800 5500 11800 5350
Connection ~ 11800 5350
Wire Wire Line
	11800 5350 11900 5350
Wire Wire Line
	10650 5150 11200 5150
Wire Wire Line
	12300 4900 12550 4900
Wire Wire Line
	12550 4900 12550 5250
Connection ~ 12550 5250
Wire Wire Line
	12550 5250 12800 5250
Wire Wire Line
	12800 5050 12750 5050
Wire Wire Line
	12750 5050 12750 4800
Wire Wire Line
	12750 4800 13450 4800
Wire Wire Line
	13450 4800 13450 5150
Connection ~ 13450 5150
Wire Wire Line
	13450 5150 13650 5150
$Comp
L Device:C_Small C21
U 1 1 6172B789
P 5100 3050
F 0 "C21" H 5192 3096 50  0000 L CNN
F 1 "6.8n" H 5192 3005 50  0000 L CNN
F 2 "Capacitor_SMD:C_0603_1608Metric" H 5100 3050 50  0001 C CNN
F 3 "~" H 5100 3050 50  0001 C CNN
F 4 "MLCC Capacitor 6.8nF 50V 10% X7R 0603" H 5100 3050 50  0001 C CNN "Description"
F 5 "C1631" H 5100 3050 50  0001 C CNN "LCSC"
F 6 "FH(Guangdong Fenghua Advanced Tech)" H 5100 3050 50  0001 C CNN "Manufacturer_Name"
F 7 "0603B682K500NT" H 5100 3050 50  0001 C CNN "Manufacturer_Part_Number"
	1    5100 3050
	1    0    0    -1  
$EndComp
$Comp
L Device:R_Small R13
U 1 1 61728F36
P 4100 2750
F 0 "R13" H 4159 2796 50  0000 L CNN
F 1 "95.3k" H 4159 2705 50  0000 L CNN
F 2 "Resistor_SMD:R_0402_1005Metric" H 4100 2750 50  0001 C CNN
F 3 "~" H 4100 2750 50  0001 C CNN
F 4 "Resistor 95.3k 1% 62.5mW 0402" H 4100 2750 50  0001 C CNN "Description"
F 5 "C26990" H 4100 2750 50  0001 C CNN "LCSC"
F 6 "UNI-ROYAL(Uniroyal Elec)" H 4100 2750 50  0001 C CNN "Manufacturer_Name"
F 7 "0402WGF9532TCE" H 4100 2750 50  0001 C CNN "Manufacturer_Part_Number"
	1    4100 2750
	1    0    0    -1  
$EndComp
$Comp
L Device:R_Small R14
U 1 1 6173C42C
P 4100 3050
F 0 "R14" H 4159 3096 50  0000 L CNN
F 1 "47k" H 4159 3005 50  0000 L CNN
F 2 "Resistor_SMD:R_0402_1005Metric" H 4100 3050 50  0001 C CNN
F 3 "~" H 4100 3050 50  0001 C CNN
F 4 "Resistor 47k 1% 62.5mW 0402" H 4100 3050 50  0001 C CNN "Description"
F 5 "C25792" H 4100 3050 50  0001 C CNN "LCSC"
F 6 "UNI-ROYAL(Uniroyal Elec)" H 4100 3050 50  0001 C CNN "Manufacturer_Name"
F 7 "0402WGF4702TCE" H 4100 3050 50  0001 C CNN "Manufacturer_Part_Number"
	1    4100 3050
	1    0    0    -1  
$EndComp
Wire Wire Line
	4100 2900 4100 2950
Wire Wire Line
	4100 2550 4100 2650
$Comp
L Device:C_Small C29
U 1 1 617A6975
P 7900 3200
F 0 "C29" H 7992 3246 50  0000 L CNN
F 1 "0.1u" H 7992 3155 50  0000 L CNN
F 2 "Capacitor_SMD:C_0603_1608Metric" H 7900 3200 50  0001 C CNN
F 3 "~" H 7900 3200 50  0001 C CNN
F 4 "Capacitor MLCC 0.1u 50V 10% X7R 0603" H 7900 3200 50  0001 C CNN "Description"
F 5 "C14663" H 7900 3200 50  0001 C CNN "LCSC"
F 6 "Yageo" H 7900 3200 50  0001 C CNN "Manufacturer_Name"
F 7 "CC0603KRX7R9BB104" H 7900 3200 50  0001 C CNN "Manufacturer_Part_Number"
	1    7900 3200
	1    0    0    -1  
$EndComp
Wire Wire Line
	8400 5050 8400 5000
Connection ~ 8400 5050
Wire Wire Line
	7950 5050 8400 5050
Wire Wire Line
	8400 5100 8400 5050
$Comp
L power:+12VA #PWR079
U 1 1 617AE0EA
P 8400 4300
F 0 "#PWR079" H 8400 4150 50  0001 C CNN
F 1 "+12VA" H 8415 4473 50  0000 C CNN
F 2 "" H 8400 4300 50  0001 C CNN
F 3 "" H 8400 4300 50  0001 C CNN
	1    8400 4300
	1    0    0    -1  
$EndComp
$Comp
L Device:C_Small C30
U 1 1 617AE180
P 7950 4500
F 0 "C30" H 8042 4546 50  0000 L CNN
F 1 "0.1u" H 8042 4455 50  0000 L CNN
F 2 "Capacitor_SMD:C_0603_1608Metric" H 7950 4500 50  0001 C CNN
F 3 "~" H 7950 4500 50  0001 C CNN
F 4 "Capacitor MLCC 0.1u 50V 10% X7R 0603" H 7950 4500 50  0001 C CNN "Description"
F 5 "C14663" H 7950 4500 50  0001 C CNN "LCSC"
F 6 "Yageo" H 7950 4500 50  0001 C CNN "Manufacturer_Name"
F 7 "CC0603KRX7R9BB104" H 7950 4500 50  0001 C CNN "Manufacturer_Part_Number"
	1    7950 4500
	1    0    0    -1  
$EndComp
Wire Wire Line
	4100 2850 4100 2900
Connection ~ 4100 2900
Text Notes 9900 5250 0    50   ~ 0
C118940\nC124988\nC128076
Text Notes 2750 8050 0    118  ~ 0
Filtre sur l'alim 12V / 0V ?
$Comp
L power:-12VA #PWR078
U 1 1 618B4747
P 8350 3100
F 0 "#PWR078" H 8350 2950 50  0001 C CNN
F 1 "-12VA" H 8365 3273 50  0000 C CNN
F 2 "" H 8350 3100 50  0001 C CNN
F 3 "" H 8350 3100 50  0001 C CNN
	1    8350 3100
	-1   0    0    1   
$EndComp
$Comp
L power:-12VA #PWR080
U 1 1 618B58DF
P 8400 5100
F 0 "#PWR080" H 8400 4950 50  0001 C CNN
F 1 "-12VA" H 8415 5273 50  0000 C CNN
F 2 "" H 8400 5100 50  0001 C CNN
F 3 "" H 8400 5100 50  0001 C CNN
	1    8400 5100
	-1   0    0    1   
$EndComp
Wire Wire Line
	8350 3100 8350 3050
Wire Wire Line
	8350 3050 8350 3000
Connection ~ 8350 3050
Wire Wire Line
	7900 3050 8350 3050
Wire Wire Line
	8400 4300 8400 4350
Wire Wire Line
	8400 4350 8400 4400
Connection ~ 8400 4350
Wire Wire Line
	7950 4350 8400 4350
$Comp
L Device:C_Small C28
U 1 1 618B7D9A
P 7900 2500
F 0 "C28" H 7992 2546 50  0000 L CNN
F 1 "0.1u" H 7992 2455 50  0000 L CNN
F 2 "Capacitor_SMD:C_0603_1608Metric" H 7900 2500 50  0001 C CNN
F 3 "~" H 7900 2500 50  0001 C CNN
F 4 "Capacitor MLCC 0.1u 50V 10% X7R 0603" H 7900 2500 50  0001 C CNN "Description"
F 5 "C14663" H 7900 2500 50  0001 C CNN "LCSC"
F 6 "Yageo" H 7900 2500 50  0001 C CNN "Manufacturer_Name"
F 7 "CC0603KRX7R9BB104" H 7900 2500 50  0001 C CNN "Manufacturer_Part_Number"
	1    7900 2500
	1    0    0    -1  
$EndComp
$Comp
L Device:C_Small C31
U 1 1 618B84D4
P 7950 5200
F 0 "C31" H 8042 5246 50  0000 L CNN
F 1 "0.1u" H 8042 5155 50  0000 L CNN
F 2 "Capacitor_SMD:C_0603_1608Metric" H 7950 5200 50  0001 C CNN
F 3 "~" H 7950 5200 50  0001 C CNN
F 4 "Capacitor MLCC 0.1u 50V 10% X7R 0603" H 7950 5200 50  0001 C CNN "Description"
F 5 "C14663" H 7950 5200 50  0001 C CNN "LCSC"
F 6 "Yageo" H 7950 5200 50  0001 C CNN "Manufacturer_Name"
F 7 "CC0603KRX7R9BB104" H 7950 5200 50  0001 C CNN "Manufacturer_Part_Number"
	1    7950 5200
	1    0    0    -1  
$EndComp
Wire Wire Line
	7950 5050 7950 5100
Wire Wire Line
	7950 4350 7950 4400
Wire Wire Line
	7900 2350 7900 2400
Wire Wire Line
	7900 3050 7900 3100
$Comp
L Device:CP_Small C24
U 1 1 6193B550
P 7550 2500
F 0 "C24" H 7638 2546 50  0000 L CNN
F 1 "10u" H 7638 2455 50  0000 L CNN
F 2 "Capacitor_Tantalum_SMD:CP_EIA-3216-18_Kemet-A" H 7550 2500 50  0001 C CNN
F 3 "~" H 7550 2500 50  0001 C CNN
F 4 "Tantalum Capacitor 10uF 16V 10% EIA-3216-18" H 7550 2500 50  0001 C CNN "Description"
F 5 "C7171" H 7550 2500 50  0001 C CNN "LCSC"
F 6 "AVX" H 7550 2500 50  0001 C CNN "Manufacturer_Name"
F 7 "TAJA106K016RNJ" H 7550 2500 50  0001 C CNN "Manufacturer_Part_Number"
F 8 "0;0;180" H 7550 2500 50  0001 C CNN "JLCPCB_CORRECTION"
	1    7550 2500
	1    0    0    -1  
$EndComp
Wire Wire Line
	7550 2400 7550 2350
Wire Wire Line
	7550 2350 7900 2350
Connection ~ 7900 2350
$Comp
L Device:CP_Small C26
U 1 1 61948620
P 7600 4500
F 0 "C26" H 7688 4546 50  0000 L CNN
F 1 "10u" H 7688 4455 50  0000 L CNN
F 2 "Capacitor_Tantalum_SMD:CP_EIA-3216-18_Kemet-A" H 7600 4500 50  0001 C CNN
F 3 "~" H 7600 4500 50  0001 C CNN
F 4 "Tantalum Capacitor 10uF 16V 10% EIA-3216-18" H 7600 4500 50  0001 C CNN "Description"
F 5 "C7171" H 7600 4500 50  0001 C CNN "LCSC"
F 6 "AVX" H 7600 4500 50  0001 C CNN "Manufacturer_Name"
F 7 "TAJA106K016RNJ" H 7600 4500 50  0001 C CNN "Manufacturer_Part_Number"
F 8 "0;0;180" H 7600 4500 50  0001 C CNN "JLCPCB_CORRECTION"
	1    7600 4500
	1    0    0    -1  
$EndComp
Wire Wire Line
	7600 4400 7600 4350
Wire Wire Line
	7600 4350 7950 4350
Connection ~ 7950 4350
$Comp
L Device:CP_Small C32
U 1 1 61966020
P 13450 3600
F 0 "C32" H 13538 3646 50  0000 L CNN
F 1 "10u" H 13538 3555 50  0000 L CNN
F 2 "Capacitor_Tantalum_SMD:CP_EIA-3216-18_Kemet-A" H 13450 3600 50  0001 C CNN
F 3 "~" H 13450 3600 50  0001 C CNN
F 4 "Tantalum Capacitor 10uF 16V 10% EIA-3216-18" H 13450 3600 50  0001 C CNN "Description"
F 5 "C7171" H 13450 3600 50  0001 C CNN "LCSC"
F 6 "AVX" H 13450 3600 50  0001 C CNN "Manufacturer_Name"
F 7 "TAJA106K016RNJ" H 13450 3600 50  0001 C CNN "Manufacturer_Part_Number"
F 8 "0;0;180" H 13450 3600 50  0001 C CNN "JLCPCB_CORRECTION"
	1    13450 3600
	1    0    0    -1  
$EndComp
Wire Wire Line
	13450 3500 13450 3450
Wire Wire Line
	13450 3450 13800 3450
Connection ~ 13800 3450
$Comp
L Device:CP_Small C36
U 1 1 619994EC
P 14800 3600
F 0 "C36" H 14888 3646 50  0000 L CNN
F 1 "10u" H 14888 3555 50  0000 L CNN
F 2 "Capacitor_Tantalum_SMD:CP_EIA-3216-18_Kemet-A" H 14800 3600 50  0001 C CNN
F 3 "~" H 14800 3600 50  0001 C CNN
F 4 "Tantalum Capacitor 10uF 16V 10% EIA-3216-18" H 14800 3600 50  0001 C CNN "Description"
F 5 "C7171" H 14800 3600 50  0001 C CNN "LCSC"
F 6 "AVX" H 14800 3600 50  0001 C CNN "Manufacturer_Name"
F 7 "TAJA106K016RNJ" H 14800 3600 50  0001 C CNN "Manufacturer_Part_Number"
F 8 "0;0;180" H 14800 3600 50  0001 C CNN "JLCPCB_CORRECTION"
	1    14800 3600
	1    0    0    -1  
$EndComp
Wire Wire Line
	14800 3500 14800 3450
Wire Wire Line
	14800 3450 15150 3450
Connection ~ 15150 3450
$Comp
L Device:CP_Small C25
U 1 1 619B3476
P 7550 3200
F 0 "C25" H 7462 3154 50  0000 R CNN
F 1 "10u" H 7462 3245 50  0000 R CNN
F 2 "Capacitor_Tantalum_SMD:CP_EIA-3216-18_Kemet-A" H 7550 3200 50  0001 C CNN
F 3 "~" H 7550 3200 50  0001 C CNN
F 4 "Tantalum Capacitor 10uF 16V 10% EIA-3216-18" H 7550 3200 50  0001 C CNN "Description"
F 5 "C7171" H 7550 3200 50  0001 C CNN "LCSC"
F 6 "AVX" H 7550 3200 50  0001 C CNN "Manufacturer_Name"
F 7 "TAJA106K016RNJ" H 7550 3200 50  0001 C CNN "Manufacturer_Part_Number"
F 8 "0;0;180" H 7550 3200 50  0001 C CNN "JLCPCB_CORRECTION"
	1    7550 3200
	-1   0    0    1   
$EndComp
Wire Wire Line
	7550 3100 7550 3050
Wire Wire Line
	7550 3050 7900 3050
Connection ~ 7900 3050
$Comp
L Device:CP_Small C27
U 1 1 619CE190
P 7600 5200
F 0 "C27" H 7512 5154 50  0000 R CNN
F 1 "10u" H 7512 5245 50  0000 R CNN
F 2 "Capacitor_Tantalum_SMD:CP_EIA-3216-18_Kemet-A" H 7600 5200 50  0001 C CNN
F 3 "~" H 7600 5200 50  0001 C CNN
F 4 "Tantalum Capacitor 10uF 16V 10% EIA-3216-18" H 7600 5200 50  0001 C CNN "Description"
F 5 "C7171" H 7600 5200 50  0001 C CNN "LCSC"
F 6 "AVX" H 7600 5200 50  0001 C CNN "Manufacturer_Name"
F 7 "TAJA106K016RNJ" H 7600 5200 50  0001 C CNN "Manufacturer_Part_Number"
F 8 "0;0;180" H 7600 5200 50  0001 C CNN "JLCPCB_CORRECTION"
	1    7600 5200
	-1   0    0    1   
$EndComp
Wire Wire Line
	7600 5100 7600 5050
Wire Wire Line
	7600 5050 7950 5050
Connection ~ 7950 5050
Wire Wire Line
	3350 2450 3300 2450
Wire Wire Line
	3300 2450 3300 2250
Wire Wire Line
	3300 2250 3950 2250
Wire Wire Line
	3950 2250 3950 2550
Wire Wire Line
	4100 2550 3950 2550
Wire Wire Line
	4700 2900 4750 2900
$Comp
L Device:C_Small C18
U 1 1 614E651E
P 4750 2450
F 0 "C18" H 4842 2496 50  0000 L CNN
F 1 "6.8n" H 4842 2405 50  0000 L CNN
F 2 "Capacitor_SMD:C_0603_1608Metric" H 4750 2450 50  0001 C CNN
F 3 "~" H 4750 2450 50  0001 C CNN
F 4 "MLCC Capacitor 6.8nF 50V 10% X7R 0603" H 4750 2450 50  0001 C CNN "Description"
F 5 "C1631" H 4750 2450 50  0001 C CNN "LCSC"
F 6 "FH(Guangdong Fenghua Advanced Tech)" H 4750 2450 50  0001 C CNN "Manufacturer_Name"
F 7 "0603B682K500NT" H 4750 2450 50  0001 C CNN "Manufacturer_Part_Number"
	1    4750 2450
	1    0    0    -1  
$EndComp
$Comp
L Device:C_Small C20
U 1 1 614E6D43
P 5100 2450
F 0 "C20" H 5192 2496 50  0000 L CNN
F 1 "6.8n" H 5192 2405 50  0000 L CNN
F 2 "Capacitor_SMD:C_0603_1608Metric" H 5100 2450 50  0001 C CNN
F 3 "~" H 5100 2450 50  0001 C CNN
F 4 "MLCC Capacitor 6.8nF 50V 10% X7R 0603" H 5100 2450 50  0001 C CNN "Description"
F 5 "C1631" H 5100 2450 50  0001 C CNN "LCSC"
F 6 "FH(Guangdong Fenghua Advanced Tech)" H 5100 2450 50  0001 C CNN "Manufacturer_Name"
F 7 "0603B682K500NT" H 5100 2450 50  0001 C CNN "Manufacturer_Part_Number"
	1    5100 2450
	1    0    0    -1  
$EndComp
Wire Wire Line
	4750 2600 4750 2900
Connection ~ 4750 2900
Wire Wire Line
	4750 2900 4800 2900
Wire Wire Line
	4750 2550 4750 2600
Connection ~ 4750 2600
Wire Wire Line
	4750 2300 4750 2350
Wire Wire Line
	5450 2700 5400 2700
Wire Wire Line
	4750 2300 5100 2300
Wire Wire Line
	5400 2300 5400 2700
Wire Wire Line
	5400 2300 6050 2300
Wire Wire Line
	6050 2300 6050 2800
Connection ~ 5400 2300
Wire Wire Line
	4750 2600 5100 2600
Wire Wire Line
	5100 2600 5100 2550
Wire Wire Line
	5100 2350 5100 2300
Connection ~ 5100 2300
Wire Wire Line
	5100 2300 5400 2300
$Comp
L Device:R_Small R19
U 1 1 6172A06D
P 4900 2900
F 0 "R19" V 4704 2900 50  0000 C CNN
F 1 "33k" V 4795 2900 50  0000 C CNN
F 2 "Resistor_SMD:R_0402_1005Metric" H 4900 2900 50  0001 C CNN
F 3 "~" H 4900 2900 50  0001 C CNN
F 4 "Resistor 33k 1% 62.5mW 0402" H 4900 2900 50  0001 C CNN "Description"
F 5 "C25779" H 4900 2900 50  0001 C CNN "LCSC"
F 6 "UNI-ROYAL(Uniroyal Elec)" H 4900 2900 50  0001 C CNN "Manufacturer_Name"
F 7 "0402WGF3302TCE" H 4900 2900 50  0001 C CNN "Manufacturer_Part_Number"
	1    4900 2900
	0    1    1    0   
$EndComp
$Comp
L Device:R_Small R17
U 1 1 6172B2B9
P 4600 2900
F 0 "R17" V 4404 2900 50  0000 C CNN
F 1 "1.6k" V 4495 2900 50  0000 C CNN
F 2 "Resistor_SMD:R_0402_1005Metric" H 4600 2900 50  0001 C CNN
F 3 "~" H 4600 2900 50  0001 C CNN
F 4 "Resistor 1.6k 1% 62.5mW 0402" H 4600 2900 50  0001 C CNN "Description"
F 5 "C4908" H 4600 2900 50  0001 C CNN "LCSC"
F 6 "UNI-ROYAL(Uniroyal Elec)" H 4600 2900 50  0001 C CNN "Manufacturer_Name"
F 7 "0402WGF1601TCE" H 4600 2900 50  0001 C CNN "Manufacturer_Part_Number"
	1    4600 2900
	0    1    1    0   
$EndComp
Connection ~ 6250 2800
Wire Wire Line
	6250 2800 6550 2800
Wire Wire Line
	6250 2850 6250 2800
$Comp
L Device:D_Schottky_Small D6
U 1 1 61920375
P 6250 2950
F 0 "D6" V 6204 3020 50  0000 L CNN
F 1 "B5819W" V 6295 3020 50  0000 L CNN
F 2 "Diode_SMD:D_SOD-123" V 6250 2950 50  0001 C CNN
F 3 "https://datasheet.lcsc.com/lcsc/1809140216_Changjiang-Electronics-Tech--CJ-B5819W-SL_C8598.pdf" V 6250 2950 50  0001 C CNN
F 4 "40V 1A 600mV @ 1A SOD-123 Schottky Barrier Diode" H 6250 2950 50  0001 C CNN "Description"
F 5 "C8598" H 6250 2950 50  0001 C CNN "LCSC"
F 6 "Changjiang Electronics Tech" H 6250 2950 50  0001 C CNN "Manufacturer_Name"
F 7 "B5819W SL" H 6250 2950 50  0001 C CNN "Manufacturer_Part_Number"
	1    6250 2950
	0    1    1    0   
$EndComp
Wire Wire Line
	5000 4950 5100 4950
Wire Wire Line
	5100 5000 5100 4950
Connection ~ 5100 4950
Wire Wire Line
	5100 4950 5450 4950
Wire Wire Line
	4100 4950 4500 4950
Text Label 2800 4700 0    50   ~ 0
ANA_IN_CH2
Wire Wire Line
	2800 4700 3350 4700
$Comp
L Device:C_Small C23
U 1 1 615A6F83
P 5100 5100
F 0 "C23" H 5192 5146 50  0000 L CNN
F 1 "6.8n" H 5192 5055 50  0000 L CNN
F 2 "Capacitor_SMD:C_0603_1608Metric" H 5100 5100 50  0001 C CNN
F 3 "~" H 5100 5100 50  0001 C CNN
F 4 "MLCC Capacitor 6.8nF 50V 10% X7R 0603" H 5100 5100 50  0001 C CNN "Description"
F 5 "C1631" H 5100 5100 50  0001 C CNN "LCSC"
F 6 "FH(Guangdong Fenghua Advanced Tech)" H 5100 5100 50  0001 C CNN "Manufacturer_Name"
F 7 "0603B682K500NT" H 5100 5100 50  0001 C CNN "Manufacturer_Part_Number"
	1    5100 5100
	1    0    0    -1  
$EndComp
$Comp
L Device:R_Small R15
U 1 1 615A6F91
P 4100 4800
F 0 "R15" H 4159 4846 50  0000 L CNN
F 1 "95.3k" H 4159 4755 50  0000 L CNN
F 2 "Resistor_SMD:R_0402_1005Metric" H 4100 4800 50  0001 C CNN
F 3 "~" H 4100 4800 50  0001 C CNN
F 4 "Resistor 95.3k 1% 62.5mW 0402" H 4100 4800 50  0001 C CNN "Description"
F 5 "C26990" H 4100 4800 50  0001 C CNN "LCSC"
F 6 "UNI-ROYAL(Uniroyal Elec)" H 4100 4800 50  0001 C CNN "Manufacturer_Name"
F 7 "0402WGF9532TCE" H 4100 4800 50  0001 C CNN "Manufacturer_Part_Number"
	1    4100 4800
	1    0    0    -1  
$EndComp
$Comp
L Device:R_Small R16
U 1 1 615A6F9F
P 4100 5100
F 0 "R16" H 4159 5146 50  0000 L CNN
F 1 "47k" H 4159 5055 50  0000 L CNN
F 2 "Resistor_SMD:R_0402_1005Metric" H 4100 5100 50  0001 C CNN
F 3 "~" H 4100 5100 50  0001 C CNN
F 4 "Resistor 47k 1% 62.5mW 0402" H 4100 5100 50  0001 C CNN "Description"
F 5 "C25792" H 4100 5100 50  0001 C CNN "LCSC"
F 6 "UNI-ROYAL(Uniroyal Elec)" H 4100 5100 50  0001 C CNN "Manufacturer_Name"
F 7 "0402WGF4702TCE" H 4100 5100 50  0001 C CNN "Manufacturer_Part_Number"
	1    4100 5100
	1    0    0    -1  
$EndComp
Wire Wire Line
	4100 4950 4100 5000
Wire Wire Line
	4100 4600 4100 4700
Wire Wire Line
	4100 4900 4100 4950
Connection ~ 4100 4950
Wire Wire Line
	3350 4500 3300 4500
Wire Wire Line
	3300 4500 3300 4300
Wire Wire Line
	3300 4300 3950 4300
Wire Wire Line
	3950 4300 3950 4600
Wire Wire Line
	4100 4600 3950 4600
Wire Wire Line
	4700 4950 4750 4950
$Comp
L Device:C_Small C19
U 1 1 615A6FE4
P 4750 4500
F 0 "C19" H 4842 4546 50  0000 L CNN
F 1 "6.8n" H 4842 4455 50  0000 L CNN
F 2 "Capacitor_SMD:C_0603_1608Metric" H 4750 4500 50  0001 C CNN
F 3 "~" H 4750 4500 50  0001 C CNN
F 4 "MLCC Capacitor 6.8nF 50V 10% X7R 0603" H 4750 4500 50  0001 C CNN "Description"
F 5 "C1631" H 4750 4500 50  0001 C CNN "LCSC"
F 6 "FH(Guangdong Fenghua Advanced Tech)" H 4750 4500 50  0001 C CNN "Manufacturer_Name"
F 7 "0603B682K500NT" H 4750 4500 50  0001 C CNN "Manufacturer_Part_Number"
	1    4750 4500
	1    0    0    -1  
$EndComp
$Comp
L Device:C_Small C22
U 1 1 615A6FF2
P 5100 4500
F 0 "C22" H 5192 4546 50  0000 L CNN
F 1 "6.8n" H 5192 4455 50  0000 L CNN
F 2 "Capacitor_SMD:C_0603_1608Metric" H 5100 4500 50  0001 C CNN
F 3 "~" H 5100 4500 50  0001 C CNN
F 4 "MLCC Capacitor 6.8nF 50V 10% X7R 0603" H 5100 4500 50  0001 C CNN "Description"
F 5 "C1631" H 5100 4500 50  0001 C CNN "LCSC"
F 6 "FH(Guangdong Fenghua Advanced Tech)" H 5100 4500 50  0001 C CNN "Manufacturer_Name"
F 7 "0603B682K500NT" H 5100 4500 50  0001 C CNN "Manufacturer_Part_Number"
	1    5100 4500
	1    0    0    -1  
$EndComp
Wire Wire Line
	4750 4650 4750 4950
Connection ~ 4750 4950
Wire Wire Line
	4750 4950 4800 4950
Wire Wire Line
	4750 4600 4750 4650
Connection ~ 4750 4650
Wire Wire Line
	4750 4350 4750 4400
Wire Wire Line
	5450 4750 5400 4750
Wire Wire Line
	4750 4350 5100 4350
Wire Wire Line
	5400 4350 5400 4750
Wire Wire Line
	5400 4350 6050 4350
Wire Wire Line
	6050 4350 6050 4850
Connection ~ 5400 4350
Wire Wire Line
	4750 4650 5100 4650
Wire Wire Line
	5100 4650 5100 4600
Wire Wire Line
	5100 4400 5100 4350
Connection ~ 5100 4350
Wire Wire Line
	5100 4350 5400 4350
$Comp
L Device:R_Small R20
U 1 1 615A7098
P 4900 4950
F 0 "R20" V 4704 4950 50  0000 C CNN
F 1 "33k" V 4795 4950 50  0000 C CNN
F 2 "Resistor_SMD:R_0402_1005Metric" H 4900 4950 50  0001 C CNN
F 3 "~" H 4900 4950 50  0001 C CNN
F 4 "Resistor 33k 1% 62.5mW 0402" H 4900 4950 50  0001 C CNN "Description"
F 5 "C25779" H 4900 4950 50  0001 C CNN "LCSC"
F 6 "UNI-ROYAL(Uniroyal Elec)" H 4900 4950 50  0001 C CNN "Manufacturer_Name"
F 7 "0402WGF3302TCE" H 4900 4950 50  0001 C CNN "Manufacturer_Part_Number"
	1    4900 4950
	0    1    1    0   
$EndComp
$Comp
L Device:R_Small R18
U 1 1 615A70A6
P 4600 4950
F 0 "R18" V 4404 4950 50  0000 C CNN
F 1 "1.6k" V 4495 4950 50  0000 C CNN
F 2 "Resistor_SMD:R_0402_1005Metric" H 4600 4950 50  0001 C CNN
F 3 "~" H 4600 4950 50  0001 C CNN
F 4 "Resistor 1.6k 1% 62.5mW 0402" H 4600 4950 50  0001 C CNN "Description"
F 5 "C4908" H 4600 4950 50  0001 C CNN "LCSC"
F 6 "UNI-ROYAL(Uniroyal Elec)" H 4600 4950 50  0001 C CNN "Manufacturer_Name"
F 7 "0402WGF1601TCE" H 4600 4950 50  0001 C CNN "Manufacturer_Part_Number"
	1    4600 4950
	0    1    1    0   
$EndComp
Connection ~ 6250 4850
Wire Wire Line
	6250 4850 6550 4850
Wire Wire Line
	6250 4900 6250 4850
$Comp
L Device:D_Schottky_Small D7
U 1 1 615A70C5
P 6250 5000
F 0 "D7" V 6204 5070 50  0000 L CNN
F 1 "B5819W" V 6295 5070 50  0000 L CNN
F 2 "Diode_SMD:D_SOD-123" V 6250 5000 50  0001 C CNN
F 3 "https://datasheet.lcsc.com/lcsc/1809140216_Changjiang-Electronics-Tech--CJ-B5819W-SL_C8598.pdf" V 6250 5000 50  0001 C CNN
F 4 "40V 1A 600mV @ 1A SOD-123 Schottky Barrier Diode" H 6250 5000 50  0001 C CNN "Description"
F 5 "C8598" H 6250 5000 50  0001 C CNN "LCSC"
F 6 "Changjiang Electronics Tech" H 6250 5000 50  0001 C CNN "Manufacturer_Name"
F 7 "B5819W SL" H 6250 5000 50  0001 C CNN "Manufacturer_Part_Number"
	1    6250 5000
	0    1    1    0   
$EndComp
Wire Wire Line
	6050 4850 6250 4850
Wire Wire Line
	6050 2800 6250 2800
$Comp
L EuroPress:LT1490A U9
U 3 1 5D536753
P 15700 3800
F 0 "U9" H 15658 3846 50  0000 L CNN
F 1 "LM358" H 15658 3755 50  0000 L CNN
F 2 "Package_SO:SOIC-8_3.9x4.9mm_P1.27mm" H 15700 3800 50  0001 C CNN
F 3 "https://datasheet.lcsc.com/lcsc/1811100911_ON-Semiconductor-LM358DR2G_C7950.pdf" H 15700 3800 50  0001 C CNN
F 4 "Dual Operational Amplifier 1MHz, Rail-Rail, 3-32V" H 600 -200 50  0001 C CNN "Description"
F 5 "ON Semiconductor" H 600 -200 50  0001 C CNN "Manufacturer_Name"
F 6 "LM358DR2G" H 600 -200 50  0001 C CNN "Manufacturer_Part_Number"
F 7 "" H 600 -200 50  0001 C CNN "Mouser Part Number"
F 8 "Mouser" H 600 -200 50  0001 C CNN "Supplier"
F 9 "" H 600 -200 50  0001 C CNN "Supplier_Ref"
F 10 "C7950" H 15700 3800 50  0001 C CNN "LCSC"
F 11 "0;0;-90" H 15700 3800 50  0001 C CNN "JLCPCB_CORRECTION"
	3    15700 3800
	1    0    0    -1  
$EndComp
$Comp
L EuroPress:LT1490A U9
U 2 1 5D979608
P 12200 5250
F 0 "U9" H 12300 5350 50  0000 L CNN
F 1 "LM358" H 12300 5450 50  0000 L CNN
F 2 "Package_SO:SOIC-8_3.9x4.9mm_P1.27mm" H 12200 5250 50  0001 C CNN
F 3 "https://datasheet.lcsc.com/lcsc/1811100911_ON-Semiconductor-LM358DR2G_C7950.pdf" H 12200 5250 50  0001 C CNN
F 4 "Dual Operational Amplifier 1MHz, Rail-Rail, 3-32V" H -900 -100 50  0001 C CNN "Description"
F 5 "ON Semiconductor" H -900 -100 50  0001 C CNN "Manufacturer_Name"
F 6 "LM358DR2G" H -900 -100 50  0001 C CNN "Manufacturer_Part_Number"
F 7 "" H -900 -100 50  0001 C CNN "Mouser Part Number"
F 8 "Mouser" H -900 -100 50  0001 C CNN "Supplier"
F 9 "" H -900 -100 50  0001 C CNN "Supplier_Ref"
F 10 "C7950" H 12200 5250 50  0001 C CNN "LCSC"
F 11 "0;0;-90" H 12200 5250 50  0001 C CNN "JLCPCB_CORRECTION"
	2    12200 5250
	1    0    0    1   
$EndComp
$Comp
L EuroPress:LT1490A U9
U 1 1 5D9795FE
P 13100 5150
F 0 "U9" H 13100 5300 50  0000 L CNN
F 1 "LM358" H 13100 5400 50  0000 L CNN
F 2 "Package_SO:SOIC-8_3.9x4.9mm_P1.27mm" H 13100 5150 50  0001 C CNN
F 3 "https://datasheet.lcsc.com/lcsc/1811100911_ON-Semiconductor-LM358DR2G_C7950.pdf" H 13100 5150 50  0001 C CNN
F 4 "Dual Operational Amplifier 1MHz, Rail-Rail, 3-32V" H 900 -100 50  0001 C CNN "Description"
F 5 "ON Semiconductor" H 900 -100 50  0001 C CNN "Manufacturer_Name"
F 6 "LM358DR2G" H 900 -100 50  0001 C CNN "Manufacturer_Part_Number"
F 7 "" H 900 -100 50  0001 C CNN "Mouser Part Number"
F 8 "Mouser" H 900 -100 50  0001 C CNN "Supplier"
F 9 "" H 900 -100 50  0001 C CNN "Supplier_Ref"
F 10 "C7950" H 13100 5150 50  0001 C CNN "LCSC"
F 11 "0;0;-90" H 13100 5150 50  0001 C CNN "JLCPCB_CORRECTION"
	1    13100 5150
	1    0    0    1   
$EndComp
$Comp
L EuroPress:LT1490A U8
U 3 1 5D5343C8
P 14350 3800
F 0 "U8" H 14308 3846 50  0000 L CNN
F 1 "LM358" H 14308 3755 50  0000 L CNN
F 2 "Package_SO:SOIC-8_3.9x4.9mm_P1.27mm" H 14350 3800 50  0001 C CNN
F 3 "https://datasheet.lcsc.com/lcsc/1811100911_ON-Semiconductor-LM358DR2G_C7950.pdf" H 14350 3800 50  0001 C CNN
F 4 "Dual Operational Amplifier 1MHz, Rail-Rail, 3-32V" H 250 -200 50  0001 C CNN "Description"
F 5 "ON Semiconductor" H 250 -200 50  0001 C CNN "Manufacturer_Name"
F 6 "LM358DR2G" H 250 -200 50  0001 C CNN "Manufacturer_Part_Number"
F 7 "" H 250 -200 50  0001 C CNN "Mouser Part Number"
F 8 "Mouser" H 250 -200 50  0001 C CNN "Supplier"
F 9 "" H 250 -200 50  0001 C CNN "Supplier_Ref"
F 10 "C7950" H 14350 3800 50  0001 C CNN "LCSC"
F 11 "0;0;-90" H 14350 3800 50  0001 C CNN "JLCPCB_CORRECTION"
	3    14350 3800
	1    0    0    -1  
$EndComp
$Comp
L EuroPress:LT1490A U8
U 2 1 5D533B33
P 12200 2550
F 0 "U8" H 12250 2700 50  0000 L CNN
F 1 "LM358" H 12250 2800 50  0000 L CNN
F 2 "Package_SO:SOIC-8_3.9x4.9mm_P1.27mm" H 12200 2550 50  0001 C CNN
F 3 "https://datasheet.lcsc.com/lcsc/1811100911_ON-Semiconductor-LM358DR2G_C7950.pdf" H 12200 2550 50  0001 C CNN
F 4 "Dual Operational Amplifier 1MHz, Rail-Rail, 3-32V" H -900 -100 50  0001 C CNN "Description"
F 5 "ON Semiconductor" H -900 -100 50  0001 C CNN "Manufacturer_Name"
F 6 "LM358DR2G" H -900 -100 50  0001 C CNN "Manufacturer_Part_Number"
F 7 "" H -900 -100 50  0001 C CNN "Mouser Part Number"
F 8 "Mouser" H -900 -100 50  0001 C CNN "Supplier"
F 9 "" H -900 -100 50  0001 C CNN "Supplier_Ref"
F 10 "C7950" H 12200 2550 50  0001 C CNN "LCSC"
F 11 "0;0;-90" H 12200 2550 50  0001 C CNN "JLCPCB_CORRECTION"
	2    12200 2550
	1    0    0    1   
$EndComp
$Comp
L EuroPress:LT1490A U8
U 1 1 5D533230
P 13100 2450
F 0 "U8" H 13150 2600 50  0000 L CNN
F 1 "LM358" H 13150 2700 50  0000 L CNN
F 2 "Package_SO:SOIC-8_3.9x4.9mm_P1.27mm" H 13100 2450 50  0001 C CNN
F 3 "https://datasheet.lcsc.com/lcsc/1811100911_ON-Semiconductor-LM358DR2G_C7950.pdf" H 13100 2450 50  0001 C CNN
F 4 "Dual Operational Amplifier 1MHz, Rail-Rail, 3-32V" H 900 -100 50  0001 C CNN "Description"
F 5 "ON Semiconductor" H 900 -100 50  0001 C CNN "Manufacturer_Name"
F 6 "LM358DR2G" H 900 -100 50  0001 C CNN "Manufacturer_Part_Number"
F 7 "" H 900 -100 50  0001 C CNN "Mouser Part Number"
F 8 "Mouser" H 900 -100 50  0001 C CNN "Supplier"
F 9 "" H 900 -100 50  0001 C CNN "Supplier_Ref"
F 10 "C7950" H 13100 2450 50  0001 C CNN "LCSC"
F 11 "0;0;-90" H 13100 2450 50  0001 C CNN "JLCPCB_CORRECTION"
	1    13100 2450
	1    0    0    1   
$EndComp
$Comp
L EuroPress:LT1490A U7
U 3 1 614D8102
P 8500 4700
F 0 "U7" H 8458 4746 50  0000 L CNN
F 1 "LM358" H 8458 4655 50  0000 L CNN
F 2 "Package_SO:SOIC-8_3.9x4.9mm_P1.27mm" H 8500 4700 50  0001 C CNN
F 3 "https://datasheet.lcsc.com/lcsc/1811100911_ON-Semiconductor-LM358DR2G_C7950.pdf" H 8500 4700 50  0001 C CNN
F 4 "Dual Operational Amplifier 1MHz, Rail-Rail, 3-32V" H -5600 700 50  0001 C CNN "Description"
F 5 "ON Semiconductor" H -5600 700 50  0001 C CNN "Manufacturer_Name"
F 6 "LM358DR2G" H -5600 700 50  0001 C CNN "Manufacturer_Part_Number"
F 7 "" H -5600 700 50  0001 C CNN "Mouser Part Number"
F 8 "Mouser" H -5600 700 50  0001 C CNN "Supplier"
F 9 "" H -5600 700 50  0001 C CNN "Supplier_Ref"
F 10 "C7950" H 8500 4700 50  0001 C CNN "LCSC"
F 11 "0;0;-90" H 8500 4700 50  0001 C CNN "JLCPCB_CORRECTION"
	3    8500 4700
	1    0    0    -1  
$EndComp
Connection ~ 6050 4850
$Comp
L EuroPress:LT1490A U7
U 2 1 614C33E5
P 5750 4850
F 0 "U7" H 5800 5000 50  0000 L CNN
F 1 "LM358" H 5800 5100 50  0000 L CNN
F 2 "Package_SO:SOIC-8_3.9x4.9mm_P1.27mm" H 5750 4850 50  0001 C CNN
F 3 "https://datasheet.lcsc.com/lcsc/1811100911_ON-Semiconductor-LM358DR2G_C7950.pdf" H 5750 4850 50  0001 C CNN
F 4 "Dual Operational Amplifier 1MHz, Rail-Rail, 3-32V" H -7350 2200 50  0001 C CNN "Description"
F 5 "ON Semiconductor" H -7350 2200 50  0001 C CNN "Manufacturer_Name"
F 6 "LM358DR2G" H -7350 2200 50  0001 C CNN "Manufacturer_Part_Number"
F 7 "" H -7350 2200 50  0001 C CNN "Mouser Part Number"
F 8 "Mouser" H -7350 2200 50  0001 C CNN "Supplier"
F 9 "" H -7350 2200 50  0001 C CNN "Supplier_Ref"
F 10 "C7950" H 5750 4850 50  0001 C CNN "LCSC"
F 11 "0;0;-90" H 5750 4850 50  0001 C CNN "JLCPCB_CORRECTION"
	2    5750 4850
	1    0    0    1   
$EndComp
Connection ~ 3950 4600
$Comp
L EuroPress:LT1490A U7
U 1 1 615A6FBE
P 3650 4600
F 0 "U7" H 3700 4750 50  0000 L CNN
F 1 "LM358" H 3700 4850 50  0000 L CNN
F 2 "Package_SO:SOIC-8_3.9x4.9mm_P1.27mm" H 3650 4600 50  0001 C CNN
F 3 "https://datasheet.lcsc.com/lcsc/1811100911_ON-Semiconductor-LM358DR2G_C7950.pdf" H 3650 4600 50  0001 C CNN
F 4 "Dual Operational Amplifier 1MHz, Rail-Rail, 3-32V" H -8550 2050 50  0001 C CNN "Description"
F 5 "ON Semiconductor" H -8550 2050 50  0001 C CNN "Manufacturer_Name"
F 6 "LM358DR2G" H -8550 2050 50  0001 C CNN "Manufacturer_Part_Number"
F 7 "" H -8550 2050 50  0001 C CNN "Mouser Part Number"
F 8 "Mouser" H -8550 2050 50  0001 C CNN "Supplier"
F 9 "" H -8550 2050 50  0001 C CNN "Supplier_Ref"
F 10 "C7950" H 3650 4600 50  0001 C CNN "LCSC"
F 11 "0;0;-90" H 3650 4600 50  0001 C CNN "JLCPCB_CORRECTION"
	1    3650 4600
	1    0    0    1   
$EndComp
$Comp
L EuroPress:LT1490A U6
U 3 1 614D6BED
P 8450 2700
F 0 "U6" H 8408 2746 50  0000 L CNN
F 1 "LM358" H 8408 2655 50  0000 L CNN
F 2 "Package_SO:SOIC-8_3.9x4.9mm_P1.27mm" H 8450 2700 50  0001 C CNN
F 3 "https://datasheet.lcsc.com/lcsc/1811100911_ON-Semiconductor-LM358DR2G_C7950.pdf" H 8450 2700 50  0001 C CNN
F 4 "Dual Operational Amplifier 1MHz, Rail-Rail, 3-32V" H -5650 -1300 50  0001 C CNN "Description"
F 5 "ON Semiconductor" H -5650 -1300 50  0001 C CNN "Manufacturer_Name"
F 6 "LM358DR2G" H -5650 -1300 50  0001 C CNN "Manufacturer_Part_Number"
F 7 "" H -5650 -1300 50  0001 C CNN "Mouser Part Number"
F 8 "Mouser" H -5650 -1300 50  0001 C CNN "Supplier"
F 9 "" H -5650 -1300 50  0001 C CNN "Supplier_Ref"
F 10 "C7950" H 8450 2700 50  0001 C CNN "LCSC"
F 11 "0;0;-90" H 8450 2700 50  0001 C CNN "JLCPCB_CORRECTION"
	3    8450 2700
	1    0    0    -1  
$EndComp
Connection ~ 6050 2800
$Comp
L EuroPress:LT1490A U6
U 2 1 614C1F7E
P 5750 2800
F 0 "U6" H 5800 2950 50  0000 L CNN
F 1 "LM358" H 5800 3050 50  0000 L CNN
F 2 "Package_SO:SOIC-8_3.9x4.9mm_P1.27mm" H 5750 2800 50  0001 C CNN
F 3 "https://datasheet.lcsc.com/lcsc/1811100911_ON-Semiconductor-LM358DR2G_C7950.pdf" H 5750 2800 50  0001 C CNN
F 4 "Dual Operational Amplifier 1MHz, Rail-Rail, 3-32V" H -7350 150 50  0001 C CNN "Description"
F 5 "ON Semiconductor" H -7350 150 50  0001 C CNN "Manufacturer_Name"
F 6 "LM358DR2G" H -7350 150 50  0001 C CNN "Manufacturer_Part_Number"
F 7 "" H -7350 150 50  0001 C CNN "Mouser Part Number"
F 8 "Mouser" H -7350 150 50  0001 C CNN "Supplier"
F 9 "" H -7350 150 50  0001 C CNN "Supplier_Ref"
F 10 "C7950" H 5750 2800 50  0001 C CNN "LCSC"
F 11 "0;0;-90" H 5750 2800 50  0001 C CNN "JLCPCB_CORRECTION"
	2    5750 2800
	1    0    0    1   
$EndComp
Connection ~ 3950 2550
$Comp
L EuroPress:LT1490A U6
U 1 1 614AE82B
P 3650 2550
F 0 "U6" H 3700 2700 50  0000 L CNN
F 1 "LM358" H 3700 2800 50  0000 L CNN
F 2 "Package_SO:SOIC-8_3.9x4.9mm_P1.27mm" H 3650 2550 50  0001 C CNN
F 3 "https://datasheet.lcsc.com/lcsc/1811100911_ON-Semiconductor-LM358DR2G_C7950.pdf" H 3650 2550 50  0001 C CNN
F 4 "Dual Operational Amplifier 1MHz, Rail-Rail, 3-32V" H -8550 0   50  0001 C CNN "Description"
F 5 "ON Semiconductor" H -8550 0   50  0001 C CNN "Manufacturer_Name"
F 6 "LM358DR2G" H -8550 0   50  0001 C CNN "Manufacturer_Part_Number"
F 7 "" H -8550 0   50  0001 C CNN "Mouser Part Number"
F 8 "Mouser" H -8550 0   50  0001 C CNN "Supplier"
F 9 "" H -8550 0   50  0001 C CNN "Supplier_Ref"
F 10 "C7950" H 3650 2550 50  0001 C CNN "LCSC"
F 11 "0;0;-90" H 3650 2550 50  0001 C CNN "JLCPCB_CORRECTION"
	1    3650 2550
	1    0    0    1   
$EndComp
Text Notes 3950 3150 2    50   ~ 0
Resistor divider 0-10V => 0-3V3\nEquivalent impedance = 1/(1/95300 + 1/47000) = 31476
Text Notes 4750 2150 0    50   ~ 0
Low-pass active filter (Sallen & Key)\nFc = Fe / 2 = 500Hz\nFc = sqrt(2) / (4 * pi * R * C2)\nC1 = 2*C2
Text Notes 2800 2100 0    50   ~ 0
Follower for high impedance input
Text Notes 5850 3450 0    50   ~ 0
Protection diode\n(Clamp negative voltage to 0V)
Text Notes 7500 2000 0    50   ~ 0
AOP input voltage\n=>Limited output voltage\n=> ADC input protection
Wire Wire Line
	13450 4150 13800 4150
Wire Wire Line
	14800 4150 15150 4150
$Comp
L Device:C_Small C39
U 1 1 615323B8
P 15150 4300
F 0 "C39" H 15242 4346 50  0000 L CNN
F 1 "0.1u" H 15242 4255 50  0000 L CNN
F 2 "Capacitor_SMD:C_0603_1608Metric" H 15150 4300 50  0001 C CNN
F 3 "~" H 15150 4300 50  0001 C CNN
F 4 "Capacitor MLCC 0.1u 50V 10% X7R 0603" H 15150 4300 50  0001 C CNN "Description"
F 5 "C14663" H 15150 4300 50  0001 C CNN "LCSC"
F 6 "Yageo" H 15150 4300 50  0001 C CNN "Manufacturer_Name"
F 7 "CC0603KRX7R9BB104" H 15150 4300 50  0001 C CNN "Manufacturer_Part_Number"
	1    15150 4300
	1    0    0    -1  
$EndComp
Wire Wire Line
	15150 4150 15150 4200
$Comp
L Device:CP_Small C37
U 1 1 61532B49
P 14800 4300
F 0 "C37" H 14712 4254 50  0000 R CNN
F 1 "10u" H 14712 4345 50  0000 R CNN
F 2 "Capacitor_Tantalum_SMD:CP_EIA-3216-18_Kemet-A" H 14800 4300 50  0001 C CNN
F 3 "~" H 14800 4300 50  0001 C CNN
F 4 "Tantalum Capacitor 10uF 16V 10% EIA-3216-18" H 14800 4300 50  0001 C CNN "Description"
F 5 "C7171" H 14800 4300 50  0001 C CNN "LCSC"
F 6 "AVX" H 14800 4300 50  0001 C CNN "Manufacturer_Name"
F 7 "TAJA106K016RNJ" H 14800 4300 50  0001 C CNN "Manufacturer_Part_Number"
F 8 "0;0;180" H 14800 4300 50  0001 C CNN "JLCPCB_CORRECTION"
	1    14800 4300
	-1   0    0    1   
$EndComp
Wire Wire Line
	14800 4200 14800 4150
Connection ~ 15150 4150
Wire Wire Line
	15150 4150 15600 4150
$Comp
L Device:C_Small C35
U 1 1 61551505
P 13800 4300
F 0 "C35" H 13892 4346 50  0000 L CNN
F 1 "0.1u" H 13892 4255 50  0000 L CNN
F 2 "Capacitor_SMD:C_0603_1608Metric" H 13800 4300 50  0001 C CNN
F 3 "~" H 13800 4300 50  0001 C CNN
F 4 "Capacitor MLCC 0.1u 50V 10% X7R 0603" H 13800 4300 50  0001 C CNN "Description"
F 5 "C14663" H 13800 4300 50  0001 C CNN "LCSC"
F 6 "Yageo" H 13800 4300 50  0001 C CNN "Manufacturer_Name"
F 7 "CC0603KRX7R9BB104" H 13800 4300 50  0001 C CNN "Manufacturer_Part_Number"
	1    13800 4300
	1    0    0    -1  
$EndComp
Wire Wire Line
	13800 4150 13800 4200
$Comp
L Device:CP_Small C33
U 1 1 61551CD6
P 13450 4300
F 0 "C33" H 13362 4254 50  0000 R CNN
F 1 "10u" H 13362 4345 50  0000 R CNN
F 2 "Capacitor_Tantalum_SMD:CP_EIA-3216-18_Kemet-A" H 13450 4300 50  0001 C CNN
F 3 "~" H 13450 4300 50  0001 C CNN
F 4 "Tantalum Capacitor 10uF 16V 10% EIA-3216-18" H 13450 4300 50  0001 C CNN "Description"
F 5 "C7171" H 13450 4300 50  0001 C CNN "LCSC"
F 6 "AVX" H 13450 4300 50  0001 C CNN "Manufacturer_Name"
F 7 "TAJA106K016RNJ" H 13450 4300 50  0001 C CNN "Manufacturer_Part_Number"
F 8 "0;0;180" H 13450 4300 50  0001 C CNN "JLCPCB_CORRECTION"
	1    13450 4300
	-1   0    0    1   
$EndComp
Wire Wire Line
	13450 4200 13450 4150
Connection ~ 13800 4150
Wire Wire Line
	13800 4150 14250 4150
$Comp
L Connector:TestPoint TP1
U 1 1 6157E8EE
P 9900 6350
F 0 "TP1" H 9958 6468 50  0000 L CNN
F 1 "TestPoint" H 9958 6377 50  0000 L CNN
F 2 "TestPoint:TestPoint_Pad_1.0x1.0mm" H 10100 6350 50  0001 C CNN
F 3 "~" H 10100 6350 50  0001 C CNN
F 4 "--" H 9900 6350 50  0001 C CNN "LCSC"
F 5 "--" H 9900 6350 50  0001 C CNN "Manufacturer_Name"
F 6 "--" H 9900 6350 50  0001 C CNN "Manufacturer_Part_Number"
	1    9900 6350
	1    0    0    -1  
$EndComp
$Comp
L Connector:TestPoint TP2
U 1 1 6157F447
P 10500 6350
F 0 "TP2" H 10558 6468 50  0000 L CNN
F 1 "TestPoint" H 10558 6377 50  0000 L CNN
F 2 "TestPoint:TestPoint_Pad_1.0x1.0mm" H 10700 6350 50  0001 C CNN
F 3 "~" H 10700 6350 50  0001 C CNN
F 4 "--" H 10500 6350 50  0001 C CNN "LCSC"
F 5 "--" H 10500 6350 50  0001 C CNN "Manufacturer_Name"
F 6 "--" H 10500 6350 50  0001 C CNN "Manufacturer_Part_Number"
	1    10500 6350
	1    0    0    -1  
$EndComp
Text Label 9900 6350 3    50   ~ 0
DAC1
Text Label 10500 6350 3    50   ~ 0
DAC2
Wire Wire Line
	13600 2450 14250 2450
Wire Wire Line
	13650 5150 14300 5150
$Comp
L Device:D_Schottky_Small D8
U 1 1 61583C0A
P 13600 2600
F 0 "D8" V 13554 2670 50  0000 L CNN
F 1 "B5819W" V 13645 2670 50  0000 L CNN
F 2 "Diode_SMD:D_SOD-123" V 13600 2600 50  0001 C CNN
F 3 "https://datasheet.lcsc.com/lcsc/1809140216_Changjiang-Electronics-Tech--CJ-B5819W-SL_C8598.pdf" V 13600 2600 50  0001 C CNN
F 4 "40V 1A 600mV @ 1A SOD-123 Schottky Barrier Diode" H 13600 2600 50  0001 C CNN "Description"
F 5 "C8598" H 13600 2600 50  0001 C CNN "LCSC"
F 6 "Changjiang Electronics Tech" H 13600 2600 50  0001 C CNN "Manufacturer_Name"
F 7 "B5819W SL" H 13600 2600 50  0001 C CNN "Manufacturer_Part_Number"
	1    13600 2600
	0    1    1    0   
$EndComp
$Comp
L Device:D_Schottky_Small D9
U 1 1 61585313
P 13650 5300
F 0 "D9" V 13604 5370 50  0000 L CNN
F 1 "B5819W" V 13695 5370 50  0000 L CNN
F 2 "Diode_SMD:D_SOD-123" V 13650 5300 50  0001 C CNN
F 3 "https://datasheet.lcsc.com/lcsc/1809140216_Changjiang-Electronics-Tech--CJ-B5819W-SL_C8598.pdf" V 13650 5300 50  0001 C CNN
F 4 "40V 1A 600mV @ 1A SOD-123 Schottky Barrier Diode" H 13650 5300 50  0001 C CNN "Description"
F 5 "C8598" H 13650 5300 50  0001 C CNN "LCSC"
F 6 "Changjiang Electronics Tech" H 13650 5300 50  0001 C CNN "Manufacturer_Name"
F 7 "B5819W SL" H 13650 5300 50  0001 C CNN "Manufacturer_Part_Number"
	1    13650 5300
	0    1    1    0   
$EndComp
Wire Wire Line
	13600 2500 13600 2450
Wire Wire Line
	13650 5150 13650 5200
Connection ~ 13600 2450
Connection ~ 13650 5150
$Comp
L power:-12VA #PWR098
U 1 1 615CE29B
P 14250 4200
F 0 "#PWR098" H 14250 4050 50  0001 C CNN
F 1 "-12VA" H 14265 4373 50  0000 C CNN
F 2 "" H 14250 4200 50  0001 C CNN
F 3 "" H 14250 4200 50  0001 C CNN
	1    14250 4200
	-1   0    0    1   
$EndComp
$Comp
L power:-12VA #PWR0104
U 1 1 615CE970
P 15600 4200
F 0 "#PWR0104" H 15600 4050 50  0001 C CNN
F 1 "-12VA" H 15615 4373 50  0000 C CNN
F 2 "" H 15600 4200 50  0001 C CNN
F 3 "" H 15600 4200 50  0001 C CNN
	1    15600 4200
	-1   0    0    1   
$EndComp
$Comp
L Connector:TestPoint TP3
U 1 1 61547527
P 11200 6350
F 0 "TP3" H 11258 6468 50  0000 L CNN
F 1 "TestPoint" H 11258 6377 50  0000 L CNN
F 2 "TestPoint:TestPoint_Pad_1.0x1.0mm" H 11400 6350 50  0001 C CNN
F 3 "~" H 11400 6350 50  0001 C CNN
F 4 "--" H 11200 6350 50  0001 C CNN "LCSC"
F 5 "--" H 11200 6350 50  0001 C CNN "Manufacturer_Name"
F 6 "--" H 11200 6350 50  0001 C CNN "Manufacturer_Part_Number"
	1    11200 6350
	1    0    0    -1  
$EndComp
$Comp
L Connector:TestPoint TP4
U 1 1 61547DC5
P 11800 6350
F 0 "TP4" H 11858 6468 50  0000 L CNN
F 1 "TestPoint" H 11858 6377 50  0000 L CNN
F 2 "TestPoint:TestPoint_Pad_1.0x1.0mm" H 12000 6350 50  0001 C CNN
F 3 "~" H 12000 6350 50  0001 C CNN
F 4 "--" H 11800 6350 50  0001 C CNN "LCSC"
F 5 "--" H 11800 6350 50  0001 C CNN "Manufacturer_Name"
F 6 "--" H 11800 6350 50  0001 C CNN "Manufacturer_Part_Number"
	1    11800 6350
	1    0    0    -1  
$EndComp
Text Label 11200 6350 3    50   ~ 0
ANA_OUT_CH1
Text Label 11800 6350 3    50   ~ 0
ANA_OUT_CH2
Text GLabel 6550 2800 2    50   Output ~ 0
ADC1
Text GLabel 6550 4850 2    50   Output ~ 0
ADC2
Text GLabel 11050 2650 0    50   Input ~ 0
DAC1
Text GLabel 11050 5350 0    50   Input ~ 0
DAC2
$Comp
L power:GNDA #PWR063
U 1 1 614FB8ED
P 4100 3150
F 0 "#PWR063" H 4100 2900 50  0001 C CNN
F 1 "GNDA" H 4105 2977 50  0000 C CNN
F 2 "" H 4100 3150 50  0001 C CNN
F 3 "" H 4100 3150 50  0001 C CNN
	1    4100 3150
	1    0    0    -1  
$EndComp
$Comp
L power:GNDA #PWR065
U 1 1 614FC7D8
P 5100 3150
F 0 "#PWR065" H 5100 2900 50  0001 C CNN
F 1 "GNDA" H 5105 2977 50  0000 C CNN
F 2 "" H 5100 3150 50  0001 C CNN
F 3 "" H 5100 3150 50  0001 C CNN
	1    5100 3150
	1    0    0    -1  
$EndComp
$Comp
L power:GNDA #PWR067
U 1 1 614FD1F7
P 6250 3050
F 0 "#PWR067" H 6250 2800 50  0001 C CNN
F 1 "GNDA" H 6255 2877 50  0000 C CNN
F 2 "" H 6250 3050 50  0001 C CNN
F 3 "" H 6250 3050 50  0001 C CNN
	1    6250 3050
	1    0    0    -1  
$EndComp
$Comp
L power:GNDA #PWR069
U 1 1 614FD62D
P 7550 2600
F 0 "#PWR069" H 7550 2350 50  0001 C CNN
F 1 "GNDA" H 7555 2427 50  0000 C CNN
F 2 "" H 7550 2600 50  0001 C CNN
F 3 "" H 7550 2600 50  0001 C CNN
	1    7550 2600
	1    0    0    -1  
$EndComp
$Comp
L power:GNDA #PWR073
U 1 1 614FDC80
P 7900 2600
F 0 "#PWR073" H 7900 2350 50  0001 C CNN
F 1 "GNDA" H 7905 2427 50  0000 C CNN
F 2 "" H 7900 2600 50  0001 C CNN
F 3 "" H 7900 2600 50  0001 C CNN
	1    7900 2600
	1    0    0    -1  
$EndComp
$Comp
L power:GNDA #PWR070
U 1 1 614FDF19
P 7550 3300
F 0 "#PWR070" H 7550 3050 50  0001 C CNN
F 1 "GNDA" H 7555 3127 50  0000 C CNN
F 2 "" H 7550 3300 50  0001 C CNN
F 3 "" H 7550 3300 50  0001 C CNN
	1    7550 3300
	1    0    0    -1  
$EndComp
$Comp
L power:GNDA #PWR074
U 1 1 614FE334
P 7900 3300
F 0 "#PWR074" H 7900 3050 50  0001 C CNN
F 1 "GNDA" H 7905 3127 50  0000 C CNN
F 2 "" H 7900 3300 50  0001 C CNN
F 3 "" H 7900 3300 50  0001 C CNN
	1    7900 3300
	1    0    0    -1  
$EndComp
$Comp
L power:GNDA #PWR071
U 1 1 614FE5C9
P 7600 4600
F 0 "#PWR071" H 7600 4350 50  0001 C CNN
F 1 "GNDA" H 7605 4427 50  0000 C CNN
F 2 "" H 7600 4600 50  0001 C CNN
F 3 "" H 7600 4600 50  0001 C CNN
	1    7600 4600
	1    0    0    -1  
$EndComp
$Comp
L power:GNDA #PWR075
U 1 1 614FED64
P 7950 4600
F 0 "#PWR075" H 7950 4350 50  0001 C CNN
F 1 "GNDA" H 7955 4427 50  0000 C CNN
F 2 "" H 7950 4600 50  0001 C CNN
F 3 "" H 7950 4600 50  0001 C CNN
	1    7950 4600
	1    0    0    -1  
$EndComp
$Comp
L power:GNDA #PWR072
U 1 1 614FF07D
P 7600 5300
F 0 "#PWR072" H 7600 5050 50  0001 C CNN
F 1 "GNDA" H 7605 5127 50  0000 C CNN
F 2 "" H 7600 5300 50  0001 C CNN
F 3 "" H 7600 5300 50  0001 C CNN
	1    7600 5300
	1    0    0    -1  
$EndComp
$Comp
L power:GNDA #PWR076
U 1 1 614FF3EB
P 7950 5300
F 0 "#PWR076" H 7950 5050 50  0001 C CNN
F 1 "GNDA" H 7955 5127 50  0000 C CNN
F 2 "" H 7950 5300 50  0001 C CNN
F 3 "" H 7950 5300 50  0001 C CNN
	1    7950 5300
	1    0    0    -1  
$EndComp
$Comp
L power:GNDA #PWR064
U 1 1 614FF675
P 4100 5200
F 0 "#PWR064" H 4100 4950 50  0001 C CNN
F 1 "GNDA" H 4105 5027 50  0000 C CNN
F 2 "" H 4100 5200 50  0001 C CNN
F 3 "" H 4100 5200 50  0001 C CNN
	1    4100 5200
	1    0    0    -1  
$EndComp
$Comp
L power:GNDA #PWR066
U 1 1 614FFD80
P 5100 5200
F 0 "#PWR066" H 5100 4950 50  0001 C CNN
F 1 "GNDA" H 5105 5027 50  0000 C CNN
F 2 "" H 5100 5200 50  0001 C CNN
F 3 "" H 5100 5200 50  0001 C CNN
	1    5100 5200
	1    0    0    -1  
$EndComp
$Comp
L power:GNDA #PWR068
U 1 1 6150006C
P 6250 5100
F 0 "#PWR068" H 6250 4850 50  0001 C CNN
F 1 "GNDA" H 6255 4927 50  0000 C CNN
F 2 "" H 6250 5100 50  0001 C CNN
F 3 "" H 6250 5100 50  0001 C CNN
	1    6250 5100
	1    0    0    -1  
$EndComp
$Comp
L power:GNDA #PWR084
U 1 1 6150088A
P 10500 2900
F 0 "#PWR084" H 10500 2650 50  0001 C CNN
F 1 "GNDA" H 10505 2727 50  0000 C CNN
F 2 "" H 10500 2900 50  0001 C CNN
F 3 "" H 10500 2900 50  0001 C CNN
	1    10500 2900
	1    0    0    -1  
$EndComp
$Comp
L power:GNDA #PWR088
U 1 1 61500ED8
P 11800 3000
F 0 "#PWR088" H 11800 2750 50  0001 C CNN
F 1 "GNDA" H 11805 2827 50  0000 C CNN
F 2 "" H 11800 3000 50  0001 C CNN
F 3 "" H 11800 3000 50  0001 C CNN
	1    11800 3000
	1    0    0    -1  
$EndComp
$Comp
L power:GNDA #PWR093
U 1 1 615012A2
P 13600 2700
F 0 "#PWR093" H 13600 2450 50  0001 C CNN
F 1 "GNDA" H 13605 2527 50  0000 C CNN
F 2 "" H 13600 2700 50  0001 C CNN
F 3 "" H 13600 2700 50  0001 C CNN
	1    13600 2700
	1    0    0    -1  
$EndComp
$Comp
L power:GNDA #PWR091
U 1 1 6150173B
P 13450 3700
F 0 "#PWR091" H 13450 3450 50  0001 C CNN
F 1 "GNDA" H 13455 3527 50  0000 C CNN
F 2 "" H 13450 3700 50  0001 C CNN
F 3 "" H 13450 3700 50  0001 C CNN
	1    13450 3700
	1    0    0    -1  
$EndComp
$Comp
L power:GNDA #PWR095
U 1 1 61501B82
P 13800 3700
F 0 "#PWR095" H 13800 3450 50  0001 C CNN
F 1 "GNDA" H 13805 3527 50  0000 C CNN
F 2 "" H 13800 3700 50  0001 C CNN
F 3 "" H 13800 3700 50  0001 C CNN
	1    13800 3700
	1    0    0    -1  
$EndComp
$Comp
L power:GNDA #PWR092
U 1 1 61501DCA
P 13450 4400
F 0 "#PWR092" H 13450 4150 50  0001 C CNN
F 1 "GNDA" H 13455 4227 50  0000 C CNN
F 2 "" H 13450 4400 50  0001 C CNN
F 3 "" H 13450 4400 50  0001 C CNN
	1    13450 4400
	1    0    0    -1  
$EndComp
$Comp
L power:GNDA #PWR096
U 1 1 615021D2
P 13800 4400
F 0 "#PWR096" H 13800 4150 50  0001 C CNN
F 1 "GNDA" H 13805 4227 50  0000 C CNN
F 2 "" H 13800 4400 50  0001 C CNN
F 3 "" H 13800 4400 50  0001 C CNN
	1    13800 4400
	1    0    0    -1  
$EndComp
$Comp
L power:GNDA #PWR0100
U 1 1 615024D4
P 14800 4400
F 0 "#PWR0100" H 14800 4150 50  0001 C CNN
F 1 "GNDA" H 14805 4227 50  0000 C CNN
F 2 "" H 14800 4400 50  0001 C CNN
F 3 "" H 14800 4400 50  0001 C CNN
	1    14800 4400
	1    0    0    -1  
$EndComp
$Comp
L power:GNDA #PWR0102
U 1 1 615029AE
P 15150 4400
F 0 "#PWR0102" H 15150 4150 50  0001 C CNN
F 1 "GNDA" H 15155 4227 50  0000 C CNN
F 2 "" H 15150 4400 50  0001 C CNN
F 3 "" H 15150 4400 50  0001 C CNN
	1    15150 4400
	1    0    0    -1  
$EndComp
$Comp
L power:GNDA #PWR099
U 1 1 61502C11
P 14800 3700
F 0 "#PWR099" H 14800 3450 50  0001 C CNN
F 1 "GNDA" H 14805 3527 50  0000 C CNN
F 2 "" H 14800 3700 50  0001 C CNN
F 3 "" H 14800 3700 50  0001 C CNN
	1    14800 3700
	1    0    0    -1  
$EndComp
$Comp
L power:GNDA #PWR0101
U 1 1 6150302C
P 15150 3700
F 0 "#PWR0101" H 15150 3450 50  0001 C CNN
F 1 "GNDA" H 15155 3527 50  0000 C CNN
F 2 "" H 15150 3700 50  0001 C CNN
F 3 "" H 15150 3700 50  0001 C CNN
	1    15150 3700
	1    0    0    -1  
$EndComp
$Comp
L power:GNDA #PWR086
U 1 1 61503252
P 10500 5600
F 0 "#PWR086" H 10500 5350 50  0001 C CNN
F 1 "GNDA" H 10505 5427 50  0000 C CNN
F 2 "" H 10500 5600 50  0001 C CNN
F 3 "" H 10500 5600 50  0001 C CNN
	1    10500 5600
	1    0    0    -1  
$EndComp
$Comp
L power:GNDA #PWR089
U 1 1 61503A68
P 11800 5700
F 0 "#PWR089" H 11800 5450 50  0001 C CNN
F 1 "GNDA" H 11805 5527 50  0000 C CNN
F 2 "" H 11800 5700 50  0001 C CNN
F 3 "" H 11800 5700 50  0001 C CNN
	1    11800 5700
	1    0    0    -1  
$EndComp
$Comp
L power:GNDA #PWR094
U 1 1 61503E68
P 13650 5400
F 0 "#PWR094" H 13650 5150 50  0001 C CNN
F 1 "GNDA" H 13655 5227 50  0000 C CNN
F 2 "" H 13650 5400 50  0001 C CNN
F 3 "" H 13650 5400 50  0001 C CNN
	1    13650 5400
	1    0    0    -1  
$EndComp
$Comp
L power:GND #PWR087
U 1 1 615043C7
P 11200 8200
F 0 "#PWR087" H 11200 7950 50  0001 C CNN
F 1 "GND" H 11205 8027 50  0000 C CNN
F 2 "" H 11200 8200 50  0001 C CNN
F 3 "" H 11200 8200 50  0001 C CNN
	1    11200 8200
	1    0    0    -1  
$EndComp
$Comp
L power:GNDA #PWR082
U 1 1 615046FB
P 9900 8500
F 0 "#PWR082" H 9900 8250 50  0001 C CNN
F 1 "GNDA" H 9905 8327 50  0000 C CNN
F 2 "" H 9900 8500 50  0001 C CNN
F 3 "" H 9900 8500 50  0001 C CNN
	1    9900 8500
	1    0    0    -1  
$EndComp
$Comp
L power:GNDA #PWR090
U 1 1 61504E0E
P 11900 8200
F 0 "#PWR090" H 11900 7950 50  0001 C CNN
F 1 "GNDA" H 11905 8027 50  0000 C CNN
F 2 "" H 11900 8200 50  0001 C CNN
F 3 "" H 11900 8200 50  0001 C CNN
	1    11900 8200
	1    0    0    -1  
$EndComp
$Comp
L Device:Net-Tie_2 NT1
U 1 1 61505B35
P 11550 8050
F 0 "NT1" H 11550 8231 50  0000 C CNN
F 1 "Net-Tie_2" H 11550 8140 50  0000 C CNN
F 2 "NetTie:NetTie-2_SMD_Pad0.5mm" H 11550 8050 50  0001 C CNN
F 3 "~" H 11550 8050 50  0001 C CNN
F 4 "--" H 11550 8050 50  0001 C CNN "LCSC"
F 5 "--" H 11550 8050 50  0001 C CNN "Manufacturer_Name"
F 6 "--" H 11550 8050 50  0001 C CNN "Manufacturer_Part_Number"
	1    11550 8050
	1    0    0    -1  
$EndComp
Wire Wire Line
	11200 8200 11200 8050
Wire Wire Line
	11200 8050 11450 8050
Wire Wire Line
	11900 8200 11900 8050
Wire Wire Line
	11900 8050 11650 8050
$EndSCHEMATC
