Comment,Designator,Footprint,LCSC
SN74LVC573APW,"U1,U3",Package_SO:TSSOP-20_4.4x6.5mm_P0.65mm,C113280
TLP290-4,"Q3,Q4,Q9,Q10",Package_SO:SOP-16_4.55x10.3mm_P1.27mm,C39031
G6K-2F-DC24,K1,Relay_SMD:Relay_DPDT_Omron_G6K-2F,---
0.1uF,"C1,C2",Capacitor_SMD:C_0603_1608Metric,C14663
10k,"RN1,RN2",Resistor_THT:R_Array_SIP9,---
Digital outputs,J1,Connector_PinHeader_2.54mm:PinHeader_2x12_P2.54mm_Vertical,--
EuroPress_OutputsBoard,XA1,EuroPress:EuroPress_OutputsBoard,---
2.2k,"R1,R2,R3,R4,R5,R6,R7,R8,R9,R10,R11,R12,R13,R14,R15,R16",Resistor_SMD:R_0402_1005Metric,C25879
TSR_1-2490,U2,Converter_DCDC:Converter_DCDC_TRACO_TSR-1_THT,---
APM4953KC-TRG,"Q1,Q2,Q5,Q6,Q7,Q8,Q11,Q12",Package_SO:SOIC-8_3.9x4.9mm_P1.27mm,C20897
D_Schottky_Small,"D1,D2,D3,D4,D5,D6,D7,D8,D9,D10,D11,D12,D13,D14,D15,D16",Diode_SMD:D_SOD-123,C8598
