Comment,Designator,Footprint,LCSC
Encoder,J1,Connector_PinHeader_2.54mm:PinHeader_2x04_P2.54mm_Vertical,---
EuroPress_EncoderBoard,XA1,EuroPress:EuroPress_EncoderBoard,---
20k,"R1,R2,R3,R4",Resistor_SMD:R_0805_2012Metric,C4328
0.1u,"C1,C2",Capacitor_SMD:C_0402_1005Metric,C1525
TLP290-4,U1,Package_SO:SOP-16_4.55x10.3mm_P1.27mm,C39031
MAX3283E,"U2,U3",Package_TO_SOT_SMD:SOT-23-6,C122570
1k,RN1,Resistor_THT:R_Array_SIP5,---
