(module Arduino_Due_Shield_Reversed_WithoutMountingHoles (layer F.Cu) (tedit 5C854B3D)
  (descr https://store.arduino.cc/arduino-due)
  (fp_text reference XA** (at 43.86 -28.656) (layer F.SilkS)
    (effects (font (size 1 1) (thickness 0.15)))
  )
  (fp_text value Arduino_Due_Shield_Reversed_WithoutMountingHoles (at 30.906 -28.656) (layer F.Fab)
    (effects (font (size 1 1) (thickness 0.15)))
  )
  (fp_line (start 46.4 -27.64) (end -51.136 -27.64) (layer F.SilkS) (width 0.15))
  (fp_line (start 46.4 25.7) (end -52.66 25.7) (layer F.SilkS) (width 0.15))
  (fp_line (start -51.136 -27.64) (end -52.66 -26.116) (layer F.SilkS) (width 0.15))
  (fp_line (start -52.66 25.7) (end -52.66 24.43) (layer F.SilkS) (width 0.15))
  (fp_line (start -52.66 24.43) (end -55.2 21.89) (layer F.SilkS) (width 0.15))
  (fp_line (start -55.2 21.89) (end -55.2 -12.4) (layer F.SilkS) (width 0.15))
  (fp_line (start -55.2 -12.4) (end -52.66 -14.94) (layer F.SilkS) (width 0.15))
  (fp_line (start -52.66 -14.94) (end -52.66 -26.116) (layer F.SilkS) (width 0.15))
  (fp_line (start 46.4 -27.64) (end 46.4 25.7) (layer F.SilkS) (width 0.15))
  (fp_line (start 48.305 13.635) (end 34.97 13.635) (layer B.CrtYd) (width 0.15))
  (fp_line (start 48.305 13.635) (end 48.305 22.525) (layer B.CrtYd) (width 0.15))
  (fp_line (start 48.305 22.525) (end 34.97 22.525) (layer B.CrtYd) (width 0.15))
  (fp_line (start 34.97 13.635) (end 34.97 22.525) (layer B.CrtYd) (width 0.15))
  (fp_text user . (at -16.084 -6.304) (layer F.SilkS)
    (effects (font (size 1 1) (thickness 0.15)))
  )
  (pad MISO thru_hole oval (at -17.227 -4.78) (size 1.7272 1.7272) (drill 1.016) (layers *.Cu *.Mask))
  (pad GND6 thru_hole oval (at -50.12 18.08) (size 1.7272 1.7272) (drill 1.016) (layers *.Cu *.Mask))
  (pad GND5 thru_hole oval (at -47.58 18.08) (size 1.7272 1.7272) (drill 1.016) (layers *.Cu *.Mask))
  (pad D53 thru_hole oval (at -50.12 15.54) (size 1.7272 1.7272) (drill 1.016) (layers *.Cu *.Mask))
  (pad D52 thru_hole oval (at -47.58 15.54) (size 1.7272 1.7272) (drill 1.016) (layers *.Cu *.Mask))
  (pad D51 thru_hole oval (at -50.12 13) (size 1.7272 1.7272) (drill 1.016) (layers *.Cu *.Mask))
  (pad D50 thru_hole oval (at -47.58 13) (size 1.7272 1.7272) (drill 1.016) (layers *.Cu *.Mask))
  (pad D49 thru_hole oval (at -50.12 10.46) (size 1.7272 1.7272) (drill 1.016) (layers *.Cu *.Mask))
  (pad D48 thru_hole oval (at -47.58 10.46) (size 1.7272 1.7272) (drill 1.016) (layers *.Cu *.Mask))
  (pad D47 thru_hole oval (at -50.12 7.92) (size 1.7272 1.7272) (drill 1.016) (layers *.Cu *.Mask))
  (pad D46 thru_hole oval (at -47.58 7.92) (size 1.7272 1.7272) (drill 1.016) (layers *.Cu *.Mask))
  (pad D45 thru_hole oval (at -50.12 5.38) (size 1.7272 1.7272) (drill 1.016) (layers *.Cu *.Mask))
  (pad D44 thru_hole oval (at -47.58 5.38) (size 1.7272 1.7272) (drill 1.016) (layers *.Cu *.Mask))
  (pad D43 thru_hole oval (at -50.12 2.84) (size 1.7272 1.7272) (drill 1.016) (layers *.Cu *.Mask))
  (pad D42 thru_hole oval (at -47.58 2.84) (size 1.7272 1.7272) (drill 1.016) (layers *.Cu *.Mask))
  (pad D41 thru_hole oval (at -50.12 0.3) (size 1.7272 1.7272) (drill 1.016) (layers *.Cu *.Mask))
  (pad D40 thru_hole oval (at -47.58 0.3) (size 1.7272 1.7272) (drill 1.016) (layers *.Cu *.Mask))
  (pad D39 thru_hole oval (at -50.12 -2.24) (size 1.7272 1.7272) (drill 1.016) (layers *.Cu *.Mask))
  (pad D38 thru_hole oval (at -47.58 -2.24) (size 1.7272 1.7272) (drill 1.016) (layers *.Cu *.Mask))
  (pad D37 thru_hole oval (at -50.12 -4.78) (size 1.7272 1.7272) (drill 1.016) (layers *.Cu *.Mask))
  (pad D36 thru_hole oval (at -47.58 -4.78) (size 1.7272 1.7272) (drill 1.016) (layers *.Cu *.Mask))
  (pad D35 thru_hole oval (at -50.12 -7.32) (size 1.7272 1.7272) (drill 1.016) (layers *.Cu *.Mask))
  (pad D34 thru_hole oval (at -47.58 -7.32) (size 1.7272 1.7272) (drill 1.016) (layers *.Cu *.Mask))
  (pad D33 thru_hole oval (at -50.12 -9.86) (size 1.7272 1.7272) (drill 1.016) (layers *.Cu *.Mask))
  (pad D32 thru_hole oval (at -47.58 -9.86) (size 1.7272 1.7272) (drill 1.016) (layers *.Cu *.Mask))
  (pad D31 thru_hole oval (at -50.12 -12.4) (size 1.7272 1.7272) (drill 1.016) (layers *.Cu *.Mask))
  (pad D30 thru_hole oval (at -47.58 -12.4) (size 1.7272 1.7272) (drill 1.016) (layers *.Cu *.Mask))
  (pad D29 thru_hole oval (at -50.12 -14.94) (size 1.7272 1.7272) (drill 1.016) (layers *.Cu *.Mask))
  (pad D28 thru_hole oval (at -47.58 -14.94) (size 1.7272 1.7272) (drill 1.016) (layers *.Cu *.Mask))
  (pad D27 thru_hole oval (at -50.12 -17.48) (size 1.7272 1.7272) (drill 1.016) (layers *.Cu *.Mask))
  (pad D26 thru_hole oval (at -47.58 -17.48) (size 1.7272 1.7272) (drill 1.016) (layers *.Cu *.Mask))
  (pad D25 thru_hole oval (at -50.12 -20.02) (size 1.7272 1.7272) (drill 1.016) (layers *.Cu *.Mask))
  (pad D24 thru_hole oval (at -47.58 -20.02) (size 1.7272 1.7272) (drill 1.016) (layers *.Cu *.Mask))
  (pad D23 thru_hole oval (at -50.12 -22.56) (size 1.7272 1.7272) (drill 1.016) (layers *.Cu *.Mask))
  (pad D22 thru_hole oval (at -47.58 -22.56) (size 1.7272 1.7272) (drill 1.016) (layers *.Cu *.Mask))
  (pad 5V4 thru_hole oval (at -50.12 -25.1) (size 1.7272 1.7272) (drill 1.016) (layers *.Cu *.Mask))
  (pad 5V3 thru_hole oval (at -47.58 -25.1) (size 1.7272 1.7272) (drill 1.016) (layers *.Cu *.Mask))
  (pad CANT thru_hole oval (at -45.04 23.16) (size 1.7272 1.7272) (drill 1.016) (layers *.Cu *.Mask))
  (pad CANR thru_hole oval (at -42.5 23.16) (size 1.7272 1.7272) (drill 1.016) (layers *.Cu *.Mask))
  (pad DAC1 thru_hole oval (at -39.96 23.16) (size 1.7272 1.7272) (drill 1.016) (layers *.Cu *.Mask))
  (pad DAC0 thru_hole oval (at -37.42 23.16) (size 1.7272 1.7272) (drill 1.016) (layers *.Cu *.Mask))
  (pad A11 thru_hole oval (at -34.88 23.16) (size 1.7272 1.7272) (drill 1.016) (layers *.Cu *.Mask))
  (pad A10 thru_hole oval (at -32.34 23.16) (size 1.7272 1.7272) (drill 1.016) (layers *.Cu *.Mask))
  (pad A9 thru_hole oval (at -29.8 23.16) (size 1.7272 1.7272) (drill 1.016) (layers *.Cu *.Mask))
  (pad A8 thru_hole oval (at -27.26 23.16) (size 1.7272 1.7272) (drill 1.016) (layers *.Cu *.Mask))
  (pad A7 thru_hole oval (at -22.18 23.16) (size 1.7272 1.7272) (drill 1.016) (layers *.Cu *.Mask))
  (pad A6 thru_hole oval (at -19.64 23.16) (size 1.7272 1.7272) (drill 1.016) (layers *.Cu *.Mask))
  (pad A5 thru_hole oval (at -17.1 23.16) (size 1.7272 1.7272) (drill 1.016) (layers *.Cu *.Mask))
  (pad A4 thru_hole oval (at -14.56 23.16) (size 1.7272 1.7272) (drill 1.016) (layers *.Cu *.Mask))
  (pad A3 thru_hole oval (at -12.02 23.16) (size 1.7272 1.7272) (drill 1.016) (layers *.Cu *.Mask))
  (pad A2 thru_hole oval (at -9.48 23.16) (size 1.7272 1.7272) (drill 1.016) (layers *.Cu *.Mask))
  (pad A1 thru_hole oval (at -6.94 23.16) (size 1.7272 1.7272) (drill 1.016) (layers *.Cu *.Mask))
  (pad "" thru_hole oval (at 18.46 23.16) (size 1.7272 1.7272) (drill 1.016) (layers *.Cu *.Mask))
  (pad D11 thru_hole oval (at 12.364 -25.1) (size 1.7272 1.7272) (drill 1.016) (layers *.Cu *.Mask))
  (pad D12 thru_hole oval (at 14.904 -25.1) (size 1.7272 1.7272) (drill 1.016) (layers *.Cu *.Mask))
  (pad D13 thru_hole oval (at 17.444 -25.1) (size 1.7272 1.7272) (drill 1.016) (layers *.Cu *.Mask))
  (pad AREF thru_hole oval (at 22.524 -25.1) (size 1.7272 1.7272) (drill 1.016) (layers *.Cu *.Mask))
  (pad SDA1 thru_hole oval (at 25.064 -25.1) (size 1.7272 1.7272) (drill 1.016) (layers *.Cu *.Mask))
  (pad SCL1 thru_hole oval (at 27.604 -25.1) (size 1.7272 1.7272) (drill 1.016) (layers *.Cu *.Mask))
  (pad D10 thru_hole oval (at 9.824 -25.1) (size 1.7272 1.7272) (drill 1.016) (layers *.Cu *.Mask))
  (pad D9 thru_hole oval (at 7.284 -25.1) (size 1.7272 1.7272) (drill 1.016) (layers *.Cu *.Mask))
  (pad D8 thru_hole oval (at 4.744 -25.1) (size 1.7272 1.7272) (drill 1.016) (layers *.Cu *.Mask))
  (pad GND1 thru_hole oval (at 19.984 -25.1) (size 1.7272 1.7272) (drill 1.016) (layers *.Cu *.Mask))
  (pad D7 thru_hole oval (at 0.68 -25.1) (size 1.7272 1.7272) (drill 1.016) (layers *.Cu *.Mask))
  (pad D6 thru_hole oval (at -1.86 -25.1) (size 1.7272 1.7272) (drill 1.016) (layers *.Cu *.Mask))
  (pad D5 thru_hole oval (at -4.4 -25.1) (size 1.7272 1.7272) (drill 1.016) (layers *.Cu *.Mask))
  (pad D4 thru_hole oval (at -6.94 -25.1) (size 1.7272 1.7272) (drill 1.016) (layers *.Cu *.Mask))
  (pad D3 thru_hole oval (at -9.48 -25.1) (size 1.7272 1.7272) (drill 1.016) (layers *.Cu *.Mask))
  (pad D2 thru_hole oval (at -12.02 -25.1) (size 1.7272 1.7272) (drill 1.016) (layers *.Cu *.Mask))
  (pad D1 thru_hole oval (at -14.56 -25.1) (size 1.7272 1.7272) (drill 1.016) (layers *.Cu *.Mask))
  (pad D0 thru_hole oval (at -17.1 -25.1) (size 1.7272 1.7272) (drill 1.016) (layers *.Cu *.Mask))
  (pad D14 thru_hole oval (at -22.18 -25.1) (size 1.7272 1.7272) (drill 1.016) (layers *.Cu *.Mask))
  (pad D15 thru_hole oval (at -24.72 -25.1) (size 1.7272 1.7272) (drill 1.016) (layers *.Cu *.Mask))
  (pad D16 thru_hole oval (at -27.26 -25.1) (size 1.7272 1.7272) (drill 1.016) (layers *.Cu *.Mask))
  (pad D17 thru_hole oval (at -29.8 -25.1) (size 1.7272 1.7272) (drill 1.016) (layers *.Cu *.Mask))
  (pad D18 thru_hole oval (at -32.34 -25.1) (size 1.7272 1.7272) (drill 1.016) (layers *.Cu *.Mask))
  (pad D19 thru_hole oval (at -34.88 -25.1) (size 1.7272 1.7272) (drill 1.016) (layers *.Cu *.Mask))
  (pad D20 thru_hole oval (at -37.42 -25.1) (size 1.7272 1.7272) (drill 1.016) (layers *.Cu *.Mask))
  (pad D21 thru_hole oval (at -39.96 -25.1) (size 1.7272 1.7272) (drill 1.016) (layers *.Cu *.Mask))
  (pad IORF thru_hole oval (at 15.92 23.16) (size 1.7272 1.7272) (drill 1.016) (layers *.Cu *.Mask))
  (pad RST1 thru_hole oval (at 13.38 23.16) (size 1.7272 1.7272) (drill 1.016) (layers *.Cu *.Mask))
  (pad 3V3 thru_hole oval (at 10.84 23.16) (size 1.7272 1.7272) (drill 1.016) (layers *.Cu *.Mask))
  (pad 5V1 thru_hole oval (at 8.3 23.16) (size 1.7272 1.7272) (drill 1.016) (layers *.Cu *.Mask))
  (pad GND2 thru_hole oval (at 5.76 23.16) (size 1.7272 1.7272) (drill 1.016) (layers *.Cu *.Mask))
  (pad GND3 thru_hole oval (at 3.22 23.16) (size 1.7272 1.7272) (drill 1.016) (layers *.Cu *.Mask))
  (pad VIN thru_hole oval (at 0.68 23.16) (size 1.7272 1.7272) (drill 1.016) (layers *.Cu *.Mask))
  (pad A0 thru_hole oval (at -4.4 23.16) (size 1.7272 1.7272) (drill 1.016) (layers *.Cu *.Mask))
  (pad 5V2 thru_hole oval (at -19.767 -4.78) (size 1.7272 1.7272) (drill 1.016) (layers *.Cu *.Mask))
  (pad SCK thru_hole oval (at -17.227 -2.24) (size 1.7272 1.7272) (drill 1.016) (layers *.Cu *.Mask))
  (pad MOSI thru_hole oval (at -19.767 -2.24) (size 1.7272 1.7272) (drill 1.016) (layers *.Cu *.Mask))
  (pad GND4 thru_hole oval (at -19.767 0.3) (size 1.7272 1.7272) (drill 1.016) (layers *.Cu *.Mask))
  (pad RST2 thru_hole oval (at -17.227 0.3) (size 1.7272 1.7272) (drill 1.016) (layers *.Cu *.Mask))
)
