EESchema Schematic File Version 4
EELAYER 30 0
EELAYER END
$Descr A3 16535 11693
encoding utf-8
Sheet 1 2
Title "EuroPress"
Date "2019-01-06"
Rev "2.2"
Comp "LGR"
Comment1 ""
Comment2 ""
Comment3 ""
Comment4 ""
$EndDescr
Wire Wire Line
	5350 8600 5450 8600
Wire Wire Line
	5350 8700 5450 8700
Wire Wire Line
	5350 8800 5450 8800
Wire Wire Line
	5350 8900 5450 8900
Wire Wire Line
	5350 9000 5450 9000
Wire Wire Line
	5350 9100 5450 9100
Wire Wire Line
	5350 9200 5450 9200
Wire Wire Line
	5350 9300 5450 9300
Wire Wire Line
	5350 9500 5450 9500
Text Notes 550  7350 0    60   ~ 0
DIGITAL INPUTS
Wire Notes Line
	500  7400 1400 7400
Wire Notes Line
	1400 7400 1400 7200
Text Notes 4550 7350 0    60   ~ 0
DIGITAL OUTPUTS
Wire Notes Line
	4500 7400 5400 7400
Wire Notes Line
	5400 7400 5400 7200
Text Notes 8100 7350 0    60   ~ 0
ENCODER INPUTS
Wire Notes Line
	8000 7400 9000 7400
Wire Notes Line
	9000 7400 9000 7200
Text Notes 4900 9300 1    50   ~ 0
From MCU\n(I/O shared pins)
$Sheet
S 16650 1650 1150 750 
U 5CC2A4AE
F0 "AnalogInterfaces" 50
F1 "AnalogInterfaces.sch" 50
$EndSheet
$Comp
L power:GND #PWR016
U 1 1 5C4904D7
P 8650 6900
F 0 "#PWR016" H 8650 6650 50  0001 C CNN
F 1 "GND" H 8655 6727 50  0000 C CNN
F 2 "" H 8650 6900 50  0001 C CNN
F 3 "" H 8650 6900 50  0001 C CNN
	1    8650 6900
	1    0    0    -1  
$EndComp
$Comp
L power:+3V3 #PWR015
U 1 1 5C4DCF61
P 8650 4400
F 0 "#PWR015" H 8650 4250 50  0001 C CNN
F 1 "+3V3" H 8665 4573 50  0000 C CNN
F 2 "" H 8650 4400 50  0001 C CNN
F 3 "" H 8650 4400 50  0001 C CNN
	1    8650 4400
	1    0    0    -1  
$EndComp
Wire Wire Line
	8650 6850 8650 6900
$Comp
L Device:C_Small C5
U 1 1 5C577165
P 10800 4700
F 0 "C5" H 10892 4746 50  0000 L CNN
F 1 "0.1uF" H 10892 4655 50  0000 L CNN
F 2 "Capacitor_SMD:C_0603_1608Metric_Pad1.05x0.95mm_HandSolder" H 10800 4700 50  0001 C CNN
F 3 "~" H 10800 4700 50  0001 C CNN
F 4 "Condensateur céramique multicouches MLCC - CMS 50V 0.1uF 0603 X7R 10%" H 2900 -3300 50  0001 C CNN "Description"
F 5 "Kemet" H 2900 -3300 50  0001 C CNN "Manufacturer_Name"
F 6 "C0603X104K5RACTU" H 2900 -3300 50  0001 C CNN "Manufacturer_Part_Number"
F 7 "80-C0603X104K5R" H 2900 -3300 50  0001 C CNN "Mouser Part Number"
F 8 "Mouser" H 2900 -3300 50  0001 C CNN "Supplier"
F 9 "80-C0603X104K5R" H 2900 -3300 50  0001 C CNN "SupplierRef"
	1    10800 4700
	1    0    0    -1  
$EndComp
$Comp
L power:GND #PWR028
U 1 1 5C577352
P 10800 4850
F 0 "#PWR028" H 10800 4600 50  0001 C CNN
F 1 "GND" H 10805 4677 50  0000 C CNN
F 2 "" H 10800 4850 50  0001 C CNN
F 3 "" H 10800 4850 50  0001 C CNN
	1    10800 4850
	1    0    0    -1  
$EndComp
Wire Wire Line
	10800 4800 10800 4850
Wire Wire Line
	10800 4600 10800 4550
$Comp
L Device:C_Small C1
U 1 1 5C795150
P 7600 4900
F 0 "C1" H 7692 4946 50  0000 L CNN
F 1 "0.1uF" H 7692 4855 50  0000 L CNN
F 2 "Capacitor_SMD:C_0603_1608Metric_Pad1.05x0.95mm_HandSolder" H 7600 4900 50  0001 C CNN
F 3 "~" H 7600 4900 50  0001 C CNN
F 4 "Condensateur céramique multicouches MLCC - CMS 50V 0.1uF 0603 X7R 10%" H 1100 -3750 50  0001 C CNN "Description"
F 5 "Kemet" H 1100 -3750 50  0001 C CNN "Manufacturer_Name"
F 6 "C0603X104K5RACTU" H 1100 -3750 50  0001 C CNN "Manufacturer_Part_Number"
F 7 "80-C0603X104K5R" H 1100 -3750 50  0001 C CNN "Mouser Part Number"
F 8 "Mouser" H 1100 -3750 50  0001 C CNN "Supplier"
F 9 "80-C0603X104K5R" H 1100 -3750 50  0001 C CNN "SupplierRef"
	1    7600 4900
	1    0    0    -1  
$EndComp
$Comp
L Device:C_Small C2
U 1 1 5C7951D0
P 9550 4900
F 0 "C2" H 9642 4946 50  0000 L CNN
F 1 "0.1uF" H 9642 4855 50  0000 L CNN
F 2 "Capacitor_SMD:C_0603_1608Metric_Pad1.05x0.95mm_HandSolder" H 9550 4900 50  0001 C CNN
F 3 "~" H 9550 4900 50  0001 C CNN
F 4 "Condensateur céramique multicouches MLCC - CMS 50V 0.1uF 0603 X7R 10%" H 1050 -3750 50  0001 C CNN "Description"
F 5 "Kemet" H 1050 -3750 50  0001 C CNN "Manufacturer_Name"
F 6 "C0603X104K5RACTU" H 1050 -3750 50  0001 C CNN "Manufacturer_Part_Number"
F 7 "80-C0603X104K5R" H 1050 -3750 50  0001 C CNN "Mouser Part Number"
F 8 "Mouser" H 1050 -3750 50  0001 C CNN "Supplier"
F 9 "80-C0603X104K5R" H 1050 -3750 50  0001 C CNN "SupplierRef"
	1    9550 4900
	1    0    0    -1  
$EndComp
Wire Wire Line
	7850 4750 7600 4750
Wire Wire Line
	7600 4750 7600 4800
Wire Wire Line
	7850 5050 7600 5050
Wire Wire Line
	7600 5050 7600 5000
Wire Wire Line
	9450 4750 9550 4750
Wire Wire Line
	9550 4750 9550 4800
Wire Wire Line
	9450 5050 9550 5050
Wire Wire Line
	9550 5050 9550 5000
$Comp
L Device:C_Small C3
U 1 1 5C8D3E16
P 9700 5250
F 0 "C3" V 9600 5150 50  0000 C CNN
F 1 "0.1uF" V 9600 5400 50  0000 C CNN
F 2 "Capacitor_SMD:C_0603_1608Metric_Pad1.05x0.95mm_HandSolder" H 9700 5250 50  0001 C CNN
F 3 "~" H 9700 5250 50  0001 C CNN
F 4 "Condensateur céramique multicouches MLCC - CMS 50V 0.1uF 0603 X7R 10%" H 1050 -3750 50  0001 C CNN "Description"
F 5 "Kemet" H 1050 -3750 50  0001 C CNN "Manufacturer_Name"
F 6 "C0603X104K5RACTU" H 1050 -3750 50  0001 C CNN "Manufacturer_Part_Number"
F 7 "80-C0603X104K5R" H 1050 -3750 50  0001 C CNN "Mouser Part Number"
F 8 "Mouser" H 1050 -3750 50  0001 C CNN "Supplier"
F 9 "80-C0603X104K5R" H 1050 -3750 50  0001 C CNN "SupplierRef"
	1    9700 5250
	0    1    1    0   
$EndComp
$Comp
L power:GND #PWR024
U 1 1 5C8D411F
P 9950 5250
F 0 "#PWR024" H 9950 5000 50  0001 C CNN
F 1 "GND" V 9955 5122 50  0000 R CNN
F 2 "" H 9950 5250 50  0001 C CNN
F 3 "" H 9950 5250 50  0001 C CNN
	1    9950 5250
	0    -1   -1   0   
$EndComp
Wire Wire Line
	9450 5250 9600 5250
Wire Wire Line
	9800 5250 9950 5250
$Comp
L Device:C_Small C4
U 1 1 5C9C851D
P 9700 5550
F 0 "C4" V 9600 5450 50  0000 C CNN
F 1 "0.1uF" V 9600 5700 50  0000 C CNN
F 2 "Capacitor_SMD:C_0603_1608Metric_Pad1.05x0.95mm_HandSolder" H 9700 5550 50  0001 C CNN
F 3 "~" H 9700 5550 50  0001 C CNN
F 4 "Condensateur céramique multicouches MLCC - CMS 50V 0.1uF 0603 X7R 10%" H 1050 -3750 50  0001 C CNN "Description"
F 5 "Kemet" H 1050 -3750 50  0001 C CNN "Manufacturer_Name"
F 6 "C0603X104K5RACTU" H 1050 -3750 50  0001 C CNN "Manufacturer_Part_Number"
F 7 "80-C0603X104K5R" H 1050 -3750 50  0001 C CNN "Mouser Part Number"
F 8 "Mouser" H 1050 -3750 50  0001 C CNN "Supplier"
F 9 "80-C0603X104K5R" H 1050 -3750 50  0001 C CNN "SupplierRef"
	1    9700 5550
	0    1    1    0   
$EndComp
Wire Wire Line
	9450 5550 9600 5550
Wire Wire Line
	9800 5550 9950 5550
Wire Wire Line
	7700 5750 7850 5750
Wire Wire Line
	7700 6150 7850 6150
$Comp
L EuroPress:SP3232E U1
U 1 1 5E178F6E
P 8650 5650
F 0 "U1" H 8950 4550 50  0000 L CNN
F 1 "SP3232E" H 8950 4450 50  0000 L CNN
F 2 "Package_SO:SSOP-16_5.3x6.2mm_P0.65mm" H 8700 4600 50  0001 L CNN
F 3 "https://www.exar.com/ds/sp3222e_sp3232e.pdf" H 8650 5750 50  0001 C CNN
F 4 "Yes" H 1050 -3750 50  0001 C CNN "Sample"
F 5 "MaxLinear" H 1050 -3750 50  0001 C CNN "Manufacturer_Name"
F 6 "SP3232ECA-L" H 1050 -3750 50  0001 C CNN "Manufacturer_Part_Number"
F 7 "701-SP3232ECA-L" H 1050 -3750 50  0001 C CNN "Mouser Part Number"
F 8 "Mouser" H 1050 -3750 50  0001 C CNN "Supplier"
F 9 "701-SP3232ECA-L" H 1050 -3750 50  0001 C CNN "SupplierRef"
F 10 "+3.0V to +5.5V RS-232 Transceivers" H 1050 -3750 50  0001 C CNN "Description"
	1    8650 5650
	1    0    0    -1  
$EndComp
Text Notes 11400 4050 0    60   ~ 0
ARDUINO DUE MAPPING
$Comp
L Device:C_Small C6
U 1 1 600A6946
P 10950 10450
F 0 "C6" H 11042 10496 50  0000 L CNN
F 1 "0.1uF" H 11042 10405 50  0000 L CNN
F 2 "Capacitor_SMD:C_0603_1608Metric_Pad1.05x0.95mm_HandSolder" H 10950 10450 50  0001 C CNN
F 3 "~" H 10950 10450 50  0001 C CNN
F 4 "Condensateur céramique multicouches MLCC - CMS 50V 0.1uF 0603 X7R 10%" H -3950 1600 50  0001 C CNN "Description"
F 5 "Kemet" H -3950 1600 50  0001 C CNN "Manufacturer_Name"
F 6 "C0603X104K5RACTU" H -3950 1600 50  0001 C CNN "Manufacturer_Part_Number"
F 7 "80-C0603X104K5R" H -3950 1600 50  0001 C CNN "Mouser Part Number"
F 8 "Mouser" H -3950 1600 50  0001 C CNN "Supplier"
F 9 "80-C0603X104K5R" H -3950 1600 50  0001 C CNN "SupplierRef"
	1    10950 10450
	1    0    0    -1  
$EndComp
Wire Wire Line
	10950 10350 10950 10300
Wire Wire Line
	10950 10550 10950 10600
Text Notes 8050 9900 0    60   ~ 0
MEMORY
Wire Notes Line
	8000 9950 8500 9950
Wire Notes Line
	8500 9950 8500 9750
Text GLabel 5350 8600 0    50   Input ~ 0
PP_OUT0
Text GLabel 5350 8700 0    50   Input ~ 0
PP_OUT1
Text GLabel 5350 8800 0    50   Input ~ 0
PP_OUT2
Text GLabel 5350 8900 0    50   Input ~ 0
PP_OUT3
Text GLabel 5350 9000 0    50   Input ~ 0
PP_OUT4
Text GLabel 5350 9100 0    50   Input ~ 0
PP_OUT5
Text GLabel 5350 9200 0    50   Input ~ 0
PP_OUT6
Text GLabel 5350 9300 0    50   Input ~ 0
PP_OUT7
Text GLabel 3450 8550 2    50   Output ~ 0
PP_IN0
Text GLabel 3450 8650 2    50   Output ~ 0
PP_IN1
Text GLabel 3450 8750 2    50   Output ~ 0
PP_IN2
Text GLabel 3450 8850 2    50   Output ~ 0
PP_IN3
Text GLabel 3450 8950 2    50   Output ~ 0
PP_IN4
Text GLabel 3450 9050 2    50   Output ~ 0
PP_IN5
Text GLabel 3450 9150 2    50   Output ~ 0
PP_IN6
Text GLabel 3450 9250 2    50   Output ~ 0
PP_IN7
Text GLabel 15300 8600 2    50   Input ~ 0
PP_IN14
Text GLabel 15300 8500 2    50   Input ~ 0
PP_IN15
Text GLabel 15300 8400 2    50   Input ~ 0
PP_IN12
Text GLabel 15300 8300 2    50   Input ~ 0
PP_IN13
Text GLabel 15300 8200 2    50   Input ~ 0
PP_IN10
Text GLabel 15300 8100 2    50   Input ~ 0
PP_IN11
Text GLabel 15300 8000 2    50   Input ~ 0
PP_IN8
Text GLabel 15300 7900 2    50   Input ~ 0
PP_IN9
Text GLabel 15300 7800 2    50   Input ~ 0
PP_IN6
Text GLabel 15300 7700 2    50   Input ~ 0
PP_IN7
Text GLabel 15300 7600 2    50   Input ~ 0
PP_IN4
Text GLabel 15300 7500 2    50   Input ~ 0
PP_IN5
Text GLabel 15300 7400 2    50   Input ~ 0
PP_IN2
Text GLabel 15300 7300 2    50   Input ~ 0
PP_IN3
Text GLabel 15300 7200 2    50   Input ~ 0
PP_IN0
Text GLabel 15300 7100 2    50   Input ~ 0
PP_IN1
Text GLabel 15300 6600 2    50   Output ~ 0
ADC_CONVST
Text GLabel 15300 6500 2    50   Input ~ 0
ADC_BUSY
Text GLabel 12400 6600 0    50   Output ~ 0
DAC1
Text GLabel 12400 6700 0    50   Output ~ 0
DAC2
Text GLabel 12400 6800 0    50   Input ~ 0
ADC1
Text GLabel 6200 8000 0    50   Input ~ 0
24V_OUT
$Comp
L arduino:Arduino_Due_Shield XA5
U 1 1 5CBF9196
P 13800 7250
F 0 "XA5" H 13800 4870 60  0000 C CNN
F 1 "Arduino_Due_Shield" H 13800 4764 60  0000 C CNN
F 2 "EuroPress:Arduino_Due_Shield_Reversed_WithoutMountingHoles" H 14500 10000 60  0001 C CNN
F 3 "https://store.arduino.cc/arduino-due" H 14500 10000 60  0001 C CNN
F 4 "Arduino Due" H 0   0   50  0001 C CNN "Description"
F 5 "Arduino" H 0   0   50  0001 C CNN "Manufacturer_Name"
F 6 "A000062" H 0   0   50  0001 C CNN "Manufacturer_Part_Number"
F 7 "782-A000062" H 0   0   50  0001 C CNN "Mouser Part Number"
F 8 "No" H 0   0   50  0001 C CNN "Sample"
F 9 "Mouser" H 0   0   50  0001 C CNN "Supplier"
F 10 "782-A000062" H 0   0   50  0001 C CNN "SupplierRef"
	1    13800 7250
	1    0    0    -1  
$EndComp
$Comp
L power:+9V #PWR031
U 1 1 5CC6DF7F
P 12150 9400
F 0 "#PWR031" H 12150 9250 50  0001 C CNN
F 1 "+9V" V 12165 9528 50  0000 L CNN
F 2 "" H 12150 9400 50  0001 C CNN
F 3 "" H 12150 9400 50  0001 C CNN
	1    12150 9400
	0    -1   -1   0   
$EndComp
Wire Wire Line
	12150 9400 12200 9400
$Comp
L power:GND #PWR033
U 1 1 5CE39D87
P 12400 8600
F 0 "#PWR033" H 12400 8350 50  0001 C CNN
F 1 "GND" V 12405 8472 50  0000 R CNN
F 2 "" H 12400 8600 50  0001 C CNN
F 3 "" H 12400 8600 50  0001 C CNN
	1    12400 8600
	0    1    1    0   
$EndComp
Wire Wire Line
	12400 8500 12500 8500
Wire Wire Line
	12500 6600 12400 6600
Wire Wire Line
	12400 6700 12500 6700
Wire Wire Line
	12500 6800 12400 6800
Wire Wire Line
	12100 5600 12500 5600
Wire Wire Line
	12100 5500 12500 5500
Wire Wire Line
	13550 4500 13550 4650
Wire Wire Line
	13650 4500 13650 4650
Wire Wire Line
	13750 4500 13750 4650
Wire Wire Line
	15300 6800 15100 6800
Wire Wire Line
	15300 6500 15100 6500
Wire Wire Line
	15300 6600 15100 6600
Wire Wire Line
	15300 6700 15100 6700
Wire Wire Line
	15100 6900 15300 6900
Wire Wire Line
	15300 7000 15100 7000
Wire Wire Line
	15300 7100 15100 7100
Wire Wire Line
	15300 7200 15100 7200
Wire Wire Line
	15300 7300 15100 7300
Wire Wire Line
	15300 7400 15100 7400
Wire Wire Line
	15300 7500 15100 7500
Wire Wire Line
	15300 7600 15100 7600
Wire Wire Line
	15300 7700 15100 7700
Wire Wire Line
	15300 7800 15100 7800
Wire Wire Line
	15300 7900 15100 7900
Wire Wire Line
	15300 8000 15100 8000
Wire Wire Line
	15300 8100 15100 8100
Wire Wire Line
	15300 8200 15100 8200
Wire Wire Line
	15300 8300 15100 8300
Wire Wire Line
	15300 8400 15100 8400
Wire Wire Line
	15300 8500 15100 8500
Wire Wire Line
	15300 8600 15100 8600
Wire Wire Line
	15300 5100 15100 5100
Wire Wire Line
	15300 6200 15100 6200
$Comp
L power:GND #PWR035
U 1 1 5E62BEAD
P 12400 8800
F 0 "#PWR035" H 12400 8550 50  0001 C CNN
F 1 "GND" V 12405 8672 50  0000 R CNN
F 2 "" H 12400 8800 50  0001 C CNN
F 3 "" H 12400 8800 50  0001 C CNN
	1    12400 8800
	0    1    1    0   
$EndComp
$Comp
L power:GND #PWR036
U 1 1 5E62BF1E
P 12400 8900
F 0 "#PWR036" H 12400 8650 50  0001 C CNN
F 1 "GND" V 12405 8772 50  0000 R CNN
F 2 "" H 12400 8900 50  0001 C CNN
F 3 "" H 12400 8900 50  0001 C CNN
	1    12400 8900
	0    1    1    0   
$EndComp
Wire Wire Line
	12400 8800 12500 8800
Wire Wire Line
	12500 8900 12400 8900
$Comp
L power:GND #PWR034
U 1 1 5E6DE967
P 12400 8700
F 0 "#PWR034" H 12400 8450 50  0001 C CNN
F 1 "GND" V 12405 8572 50  0000 R CNN
F 2 "" H 12400 8700 50  0001 C CNN
F 3 "" H 12400 8700 50  0001 C CNN
	1    12400 8700
	0    1    1    0   
$EndComp
Wire Wire Line
	12400 8600 12500 8600
Wire Wire Line
	12500 8700 12400 8700
$Comp
L power:GND #PWR032
U 1 1 5E7923E7
P 12400 8500
F 0 "#PWR032" H 12400 8250 50  0001 C CNN
F 1 "GND" V 12405 8372 50  0000 R CNN
F 2 "" H 12400 8500 50  0001 C CNN
F 3 "" H 12400 8500 50  0001 C CNN
	1    12400 8500
	0    1    1    0   
$EndComp
$Comp
L power:GND #PWR038
U 1 1 5E79341D
P 13950 4500
F 0 "#PWR038" H 13950 4250 50  0001 C CNN
F 1 "GND" H 13955 4327 50  0000 C CNN
F 2 "" H 13950 4500 50  0001 C CNN
F 3 "" H 13950 4500 50  0001 C CNN
	1    13950 4500
	-1   0    0    1   
$EndComp
Wire Wire Line
	13950 4500 13950 4650
Wire Notes Line
	11350 4100 12500 4100
Wire Notes Line
	12500 4100 12500 3900
Text GLabel 13550 4500 1    50   Input ~ 0
SPI_MISO
Text GLabel 13650 4500 1    50   Output ~ 0
SPI_MOSI
Text GLabel 13750 4500 1    50   Output ~ 0
SPI_SCK
Text GLabel 10050 10350 2    50   Input ~ 0
SPI_SCK
Text GLabel 10050 10450 2    50   Input ~ 0
SPI_MOSI
Text GLabel 10050 10550 2    50   Output ~ 0
SPI_MISO
$Comp
L Device:D_Small D1
U 1 1 5C999247
P 12300 9400
F 0 "D1" H 12300 9287 50  0000 C CNN
F 1 "D_Small" H 12300 9286 50  0001 C CNN
F 2 "Diode_SMD:D_SMB_Handsoldering" V 12300 9400 50  0001 C CNN
F 3 "https://www.vishay.com/docs/95722/vs-10bq015hm3.pdf" V 12300 9400 50  0001 C CNN
F 4 "High Performance Schottky Rectifier, If=1.0 A, Vf=0.21V, Vr=15V, SMB package" H 350 1600 50  0001 C CNN "Description"
F 5 "Vishay semiconductor" H 350 1600 50  0001 C CNN "Manufacturer_Name"
F 6 "VS-10BQ015HM3/5BT" H 350 1600 50  0001 C CNN "Manufacturer_Part_Number"
F 7 "78-VS-10BQ015HM35BT" H 350 1600 50  0001 C CNN "Mouser Part Number"
F 8 "Mouser" H 350 1600 50  0001 C CNN "Supplier"
F 9 "78-VS-10BQ015HM35BT" H 350 1600 50  0001 C CNN "SupplierRef"
	1    12300 9400
	-1   0    0    1   
$EndComp
Text Notes 11450 9800 0    50   ~ 0
The diode D18 helps to prevent\nthe board from being powered on when\nthe Arduino Due is only connected to USB
Text GLabel 15300 8700 2    50   Output ~ 0
PP_OUT0
Text GLabel 15300 8800 2    50   Output ~ 0
PP_OUT1
Text GLabel 15300 8900 2    50   Output ~ 0
PP_OUT2
Text GLabel 15300 9000 2    50   Output ~ 0
PP_OUT3
Text GLabel 15300 9100 2    50   Output ~ 0
PP_OUT4
Text GLabel 15300 9200 2    50   Output ~ 0
PP_OUT5
Text GLabel 15300 9300 2    50   Output ~ 0
PP_OUT6
Text GLabel 15300 9400 2    50   Output ~ 0
PP_OUT7
Wire Wire Line
	15100 8700 15300 8700
Wire Wire Line
	15300 8800 15100 8800
Wire Wire Line
	15100 8900 15300 8900
Wire Wire Line
	15300 9000 15100 9000
Wire Wire Line
	15100 9100 15300 9100
Wire Wire Line
	15300 9200 15100 9200
Wire Wire Line
	15100 9300 15300 9300
Wire Wire Line
	15100 9400 15300 9400
Wire Wire Line
	15300 6000 15100 6000
Wire Wire Line
	15300 6100 15100 6100
Wire Notes Line
	7000 3900 7000 7200
$Comp
L power:GND #PWR025
U 1 1 5C9C8523
P 9950 5550
F 0 "#PWR025" H 9950 5300 50  0001 C CNN
F 1 "GND" V 9955 5422 50  0000 R CNN
F 2 "" H 9950 5550 50  0001 C CNN
F 3 "" H 9950 5550 50  0001 C CNN
	1    9950 5550
	0    -1   -1   0   
$EndComp
Wire Wire Line
	10050 6250 10100 6250
Wire Wire Line
	10050 6300 10050 6250
$Comp
L EuroPress:5520257-2 J1
U 1 1 5EE1ED12
P 10500 6150
F 0 "J1" H 10630 6246 50  0000 L CNN
F 1 "HMI" H 10630 6155 50  0000 L CNN
F 2 "EuroPress:TE_5520257-2" H 10500 6150 50  0001 L BNN
F 3 "https://www.te.com/usa-en/product-5520257-2.html?source=header-match" H 10500 6150 50  0001 L BNN
F 4 "PCB modular jack assembly, top entry, 4 positions, flangeless, with panel stops" H 350 -2600 50  0001 C CNN "Description"
F 5 "TE Connectivity" H 350 -2600 50  0001 C CNN "Manufacturer_Name"
F 6 "5520257-2" H 350 -2600 50  0001 C CNN "Manufacturer_Part_Number"
F 7 "571-5520257-2" H 350 -2600 50  0001 C CNN "Mouser Part Number"
F 8 "Mouser" H 350 -2600 50  0001 C CNN "Supplier"
F 9 "571-5520257-2" H 350 -2600 50  0001 C CNN "SupplierRef"
	1    10500 6150
	1    0    0    -1  
$EndComp
Text Label 9650 6150 0    50   ~ 0
RS232_RX
Text Label 9650 6050 0    50   ~ 0
RS232_TX
$Comp
L power:GND #PWR026
U 1 1 5E34ADD5
P 10050 6300
F 0 "#PWR026" H 10050 6050 50  0001 C CNN
F 1 "GND" V 10055 6172 50  0000 R CNN
F 2 "" H 10050 6300 50  0001 C CNN
F 3 "" H 10050 6300 50  0001 C CNN
	1    10050 6300
	1    0    0    -1  
$EndComp
Wire Wire Line
	9450 6150 10100 6150
Wire Wire Line
	10100 6050 9550 6050
Wire Wire Line
	9550 6050 9550 5750
Wire Wire Line
	9550 5750 9450 5750
Text Notes 7060 4050 0    60   ~ 0
HMI SERIAL COMMUNICATION
Wire Notes Line
	7000 4100 8400 4100
Wire Notes Line
	8400 4100 8400 3900
Wire Notes Line
	11350 9950 11800 9950
Wire Notes Line
	8000 9750 11350 9750
Wire Notes Line
	400  7200 11350 7200
Wire Notes Line
	11350 3900 11350 9950
Text Notes 600  4050 0    60   ~ 0
ANALOG INPUTS/OUTPUTS
Text GLabel 3450 10050 2    50   Output ~ 0
PP_IN15
Text GLabel 3450 9950 2    50   Output ~ 0
PP_IN14
Text GLabel 3450 9850 2    50   Output ~ 0
PP_IN13
Text GLabel 3450 9750 2    50   Output ~ 0
PP_IN12
Text GLabel 3450 9650 2    50   Output ~ 0
PP_IN11
Text GLabel 3450 9550 2    50   Output ~ 0
PP_IN10
Text GLabel 3450 9450 2    50   Output ~ 0
PP_IN9
Text GLabel 3450 9350 2    50   Output ~ 0
PP_IN8
Text GLabel 15300 6000 2    50   Input ~ 0
CYCLE_TIME_MON1
Text GLabel 15300 6100 2    50   Input ~ 0
CYCLE_TIME_MON2
$Comp
L power:GND #PWR04
U 1 1 5E817F6D
P 2350 10550
F 0 "#PWR04" H 2350 10300 50  0001 C CNN
F 1 "GND" H 2355 10377 50  0000 C CNN
F 2 "" H 2350 10550 50  0001 C CNN
F 3 "" H 2350 10550 50  0001 C CNN
	1    2350 10550
	1    0    0    -1  
$EndComp
$Comp
L power:GND #PWR019
U 1 1 5E958487
P 9500 10800
F 0 "#PWR019" H 9500 10550 50  0001 C CNN
F 1 "GND" H 9505 10627 50  0000 C CNN
F 2 "" H 9500 10800 50  0001 C CNN
F 3 "" H 9500 10800 50  0001 C CNN
	1    9500 10800
	1    0    0    -1  
$EndComp
$Comp
L power:GND #PWR030
U 1 1 5E9589D0
P 10950 10600
F 0 "#PWR030" H 10950 10350 50  0001 C CNN
F 1 "GND" H 10955 10427 50  0000 C CNN
F 2 "" H 10950 10600 50  0001 C CNN
F 3 "" H 10950 10600 50  0001 C CNN
	1    10950 10600
	1    0    0    -1  
$EndComp
$Comp
L Memory_NVRAM:MB85RS16 U2
U 1 1 5E395EA8
P 9500 10450
F 0 "U2" H 9700 10200 50  0000 C CNN
F 1 "FM25V02A" H 9850 10100 50  0000 C CNN
F 2 "Package_SO:SOIC-8_3.9x4.9mm_P1.27mm" H 9150 10400 50  0001 C CNN
F 3 "https://www.cypress.com/file/139666/download" H 9150 10400 50  0001 C CNN
F 4 "256-Kbit (32K × 8) Serial (SPI) F-RAM" H -250 0   50  0001 C CNN "Description"
F 5 "Cypress" H -250 0   50  0001 C CNN "Manufacturer_Name"
F 6 "FM25V02A-G" H -250 0   50  0001 C CNN "Manufacturer_Part_Number"
F 7 "727-FM25V02A-G" H -250 0   50  0001 C CNN "Mouser Part Number"
F 8 "Mouser" H -250 0   50  0001 C CNN "Supplier"
F 9 "727-FM25V02A-G" H -250 0   50  0001 C CNN "SupplierRef"
	1    9500 10450
	1    0    0    -1  
$EndComp
Wire Wire Line
	9100 10450 9050 10450
Wire Wire Line
	9050 10450 9050 10350
Wire Wire Line
	9050 10350 9100 10350
Wire Wire Line
	9050 10350 8950 10350
Connection ~ 9050 10350
Wire Wire Line
	8950 10550 9100 10550
Wire Wire Line
	9500 10750 9500 10800
Wire Wire Line
	9500 10100 9500 10150
Wire Wire Line
	9900 10350 10050 10350
Wire Wire Line
	10050 10450 9900 10450
Wire Wire Line
	9900 10550 10050 10550
Wire Wire Line
	12500 9000 12400 9000
Wire Wire Line
	12400 9400 12500 9400
$Comp
L power:+3.3VP #PWR018
U 1 1 5EB106E0
P 9500 10100
F 0 "#PWR018" H 9650 10050 50  0001 C CNN
F 1 "+3.3VP" H 9520 10243 50  0000 C CNN
F 2 "" H 9500 10100 50  0001 C CNN
F 3 "" H 9500 10100 50  0001 C CNN
	1    9500 10100
	1    0    0    -1  
$EndComp
$Comp
L power:+3.3VP #PWR029
U 1 1 5EB11B57
P 10950 10300
F 0 "#PWR029" H 11100 10250 50  0001 C CNN
F 1 "+3.3VP" H 10970 10443 50  0000 C CNN
F 2 "" H 10950 10300 50  0001 C CNN
F 3 "" H 10950 10300 50  0001 C CNN
	1    10950 10300
	1    0    0    -1  
$EndComp
$Comp
L power:+3.3VP #PWR037
U 1 1 5EB121E4
P 12400 9000
F 0 "#PWR037" H 12550 8950 50  0001 C CNN
F 1 "+3.3VP" V 12420 9098 50  0000 L CNN
F 2 "" H 12400 9000 50  0001 C CNN
F 3 "" H 12400 9000 50  0001 C CNN
	1    12400 9000
	0    -1   -1   0   
$EndComp
$Comp
L power:+3.3VP #PWR017
U 1 1 5EB409C5
P 8950 10350
F 0 "#PWR017" H 9100 10300 50  0001 C CNN
F 1 "+3.3VP" V 8970 10448 50  0000 L CNN
F 2 "" H 8950 10350 50  0001 C CNN
F 3 "" H 8950 10350 50  0001 C CNN
	1    8950 10350
	0    -1   -1   0   
$EndComp
$Comp
L power:+5V #PWR012
U 1 1 5E518F92
P 6450 7900
F 0 "#PWR012" H 6450 7750 50  0001 C CNN
F 1 "+5V" H 6465 8073 50  0000 C CNN
F 2 "" H 6450 7900 50  0001 C CNN
F 3 "" H 6450 7900 50  0001 C CNN
	1    6450 7900
	1    0    0    -1  
$EndComp
$Comp
L power:GND #PWR013
U 1 1 5E51A328
P 6450 10600
F 0 "#PWR013" H 6450 10350 50  0001 C CNN
F 1 "GND" H 6455 10427 50  0000 C CNN
F 2 "" H 6450 10600 50  0001 C CNN
F 3 "" H 6450 10600 50  0001 C CNN
	1    6450 10600
	1    0    0    -1  
$EndComp
$Comp
L power:+3.3V #PWR014
U 1 1 5E51BF66
P 6600 8000
F 0 "#PWR014" H 6600 7850 50  0001 C CNN
F 1 "+3.3V" H 6615 8173 50  0000 C CNN
F 2 "" H 6600 8000 50  0001 C CNN
F 3 "" H 6600 8000 50  0001 C CNN
	1    6600 8000
	1    0    0    -1  
$EndComp
Wire Wire Line
	6200 8000 6300 8000
Wire Wire Line
	6300 8000 6300 8100
Wire Wire Line
	6450 7900 6450 8100
Wire Wire Line
	6600 8000 6600 8100
Wire Wire Line
	6350 10550 6450 10550
Wire Wire Line
	6450 10550 6450 10600
Connection ~ 6450 10550
Wire Wire Line
	6450 10550 6550 10550
Text GLabel 5350 10000 0    50   Input ~ 0
SPI_SCK
Text GLabel 5350 9900 0    50   Input ~ 0
SPI_MOSI
Text GLabel 5350 9800 0    50   Output ~ 0
SPI_MISO
Wire Wire Line
	5350 9800 5450 9800
Wire Wire Line
	5450 9900 5350 9900
Wire Wire Line
	5350 10000 5450 10000
Text GLabel 15300 6700 2    50   Output ~ 0
ADC_RD
Wire Wire Line
	5350 9600 5450 9600
$Comp
L EuroPress:EuroPress_OutputsBoard XA3
U 1 1 5E4AC072
P 6450 9300
F 0 "XA3" H 5750 10250 50  0000 L CNN
F 1 "EuroPress_OutputsBoard" H 6600 8300 50  0000 L CNN
F 2 "EuroPress:EuroPress_OutputsBoard" V 6650 9300 50  0001 C CNN
F 3 "" H 6850 9800 50  0001 C CNN
F 4 "N/A" H 3450 200 50  0001 C CNN "Manufacturer_Name"
F 5 "N/A" H 3450 200 50  0001 C CNN "Manufacturer_Part_Number"
F 6 "N/A" H 3450 200 50  0001 C CNN "Mouser Part Number"
F 7 "N/A" H 3450 200 50  0001 C CNN "Sample"
F 8 "N/A" H 3450 200 50  0001 C CNN "Supplier"
F 9 "N/A" H 3450 200 50  0001 C CNN "SupplierRef"
	1    6450 9300
	1    0    0    -1  
$EndComp
NoConn ~ 7850 5950
NoConn ~ 7850 6350
NoConn ~ 9450 6350
NoConn ~ 9450 5950
NoConn ~ 10100 5950
NoConn ~ 13850 4650
NoConn ~ 14050 4650
NoConn ~ 12500 5100
NoConn ~ 12500 5200
NoConn ~ 12500 5300
NoConn ~ 12500 5400
NoConn ~ 12500 5800
NoConn ~ 12500 5900
NoConn ~ 12500 6000
NoConn ~ 12500 6100
NoConn ~ 12500 6200
NoConn ~ 12500 6300
NoConn ~ 12500 6400
NoConn ~ 15100 5900
NoConn ~ 15100 5800
NoConn ~ 15100 5700
NoConn ~ 15100 5600
NoConn ~ 15100 5500
NoConn ~ 15100 5400
NoConn ~ 15100 5300
NoConn ~ 15100 5200
NoConn ~ 12500 6900
NoConn ~ 12500 7000
NoConn ~ 12500 7100
NoConn ~ 12500 7200
NoConn ~ 12500 7300
NoConn ~ 12500 7400
NoConn ~ 12500 7500
NoConn ~ 12500 7600
NoConn ~ 12500 7700
NoConn ~ 12500 7800
NoConn ~ 12500 7900
NoConn ~ 12500 8000
NoConn ~ 12500 8200
NoConn ~ 12500 8300
NoConn ~ 12500 9100
NoConn ~ 12500 9200
NoConn ~ 12500 9300
Text GLabel 7700 5750 0    50   Input ~ 0
UART_TX
Text GLabel 12100 5500 0    50   Input ~ 0
UART_RX
Text GLabel 7700 6150 0    50   Output ~ 0
UART_RX
Text GLabel 12100 5600 0    50   Output ~ 0
UART_TX
Text GLabel 15300 5100 2    50   Input ~ 0
QDEC_A
Text GLabel 15300 6200 2    50   Input ~ 0
QDEC_B
Text GLabel 15300 7000 2    50   Output ~ 0
CS_ENCODER
Wire Wire Line
	15300 6400 15100 6400
Wire Wire Line
	15300 6300 15100 6300
Text GLabel 15300 6400 2    50   Output ~ 0
CS_DIG_OUT_2
Text GLabel 15300 6300 2    50   Output ~ 0
CS_DIG_OUT_1
Text GLabel 5350 9500 0    50   Input ~ 0
CS_DIG_OUT_1
Text GLabel 5350 9600 0    50   Input ~ 0
CS_DIG_OUT_2
Text GLabel 15300 6800 2    50   Output ~ 0
CS_DIG_IN1
Text GLabel 1250 9100 0    50   Input ~ 0
CS_DIG_IN1
Text GLabel 15300 6900 2    50   Output ~ 0
CS_FLASH
Text GLabel 8950 10550 0    50   Input ~ 0
CS_FLASH
$Comp
L EuroPress:EuroPress_InputsBoard XA1
U 1 1 5E37E33D
P 2350 9300
F 0 "XA1" H 1700 10200 50  0000 C CNN
F 1 "EuroPress_InputsBoard" H 3050 8400 50  0000 C CNN
F 2 "EuroPress:EuroPress_InputsBoard" V 2550 9300 50  0001 C CNN
F 3 "" H 2750 9800 50  0001 C CNN
	1    2350 9300
	1    0    0    -1  
$EndComp
Wire Wire Line
	3350 8550 3450 8550
Wire Wire Line
	3450 8650 3350 8650
Wire Wire Line
	3350 8750 3450 8750
Wire Wire Line
	3450 8850 3350 8850
Wire Wire Line
	3350 8950 3450 8950
Wire Wire Line
	3450 9050 3350 9050
Wire Wire Line
	3350 9150 3450 9150
Wire Wire Line
	3450 9250 3350 9250
Wire Wire Line
	3350 9350 3450 9350
Wire Wire Line
	3450 9450 3350 9450
Wire Wire Line
	3350 9550 3450 9550
Wire Wire Line
	3450 9650 3350 9650
Wire Wire Line
	3350 9750 3450 9750
Wire Wire Line
	3450 9850 3350 9850
Wire Wire Line
	3350 9950 3450 9950
Wire Wire Line
	3450 10050 3350 10050
Wire Wire Line
	2200 10450 2200 10500
Wire Wire Line
	2200 10500 2350 10500
Wire Wire Line
	2500 10500 2500 10450
Wire Wire Line
	2350 10450 2350 10500
Connection ~ 2350 10500
Wire Wire Line
	2350 10500 2500 10500
Wire Wire Line
	2350 10550 2350 10500
Wire Wire Line
	1250 9100 1350 9100
$Comp
L power:+3V3 #PWR05
U 1 1 5E485945
P 2500 8100
F 0 "#PWR05" H 2500 7950 50  0001 C CNN
F 1 "+3V3" H 2515 8273 50  0000 C CNN
F 2 "" H 2500 8100 50  0001 C CNN
F 3 "" H 2500 8100 50  0001 C CNN
	1    2500 8100
	1    0    0    -1  
$EndComp
$Comp
L power:+5V #PWR03
U 1 1 5E48594F
P 2350 7950
F 0 "#PWR03" H 2350 7800 50  0001 C CNN
F 1 "+5V" H 2365 8123 50  0000 C CNN
F 2 "" H 2350 7950 50  0001 C CNN
F 3 "" H 2350 7950 50  0001 C CNN
	1    2350 7950
	1    0    0    -1  
$EndComp
Wire Wire Line
	2350 7950 2350 8150
Wire Wire Line
	2500 8100 2500 8150
Wire Wire Line
	2200 8100 2200 8150
$Comp
L power:+24V #PWR02
U 1 1 5E48595C
P 2200 8100
F 0 "#PWR02" H 2200 7950 50  0001 C CNN
F 1 "+24V" H 2215 8273 50  0000 C CNN
F 2 "" H 2200 8100 50  0001 C CNN
F 3 "" H 2200 8100 50  0001 C CNN
	1    2200 8100
	1    0    0    -1  
$EndComp
Text GLabel 1250 9400 0    50   Input ~ 0
SPI_SCK
Text GLabel 1250 9500 0    50   Input ~ 0
SPI_MOSI
Text GLabel 1250 9600 0    50   Output ~ 0
SPI_MISO
Wire Wire Line
	1250 9600 1350 9600
Wire Wire Line
	1250 9500 1350 9500
Wire Wire Line
	1250 9400 1350 9400
Text GLabel 8650 8350 0    50   Input ~ 0
CS_ENCODER
Text GLabel 10800 8550 2    50   Output ~ 0
QDEC_B
Text GLabel 10800 8450 2    50   Output ~ 0
QDEC_A
$Comp
L power:+24V #PWR020
U 1 1 5DD8F36D
P 9550 7650
F 0 "#PWR020" H 9550 7500 50  0001 C CNN
F 1 "+24V" H 9565 7823 50  0000 C CNN
F 2 "" H 9550 7650 50  0001 C CNN
F 3 "" H 9550 7650 50  0001 C CNN
	1    9550 7650
	1    0    0    -1  
$EndComp
Wire Wire Line
	9700 9400 9750 9400
Connection ~ 9700 9400
Wire Wire Line
	9700 9400 9700 9450
Wire Wire Line
	9750 9400 9750 9350
Wire Wire Line
	9650 9400 9700 9400
Wire Wire Line
	9650 9350 9650 9400
Wire Wire Line
	9550 7650 9550 7700
Wire Wire Line
	9850 7650 9850 7700
Wire Wire Line
	9700 7500 9700 7700
Wire Wire Line
	10800 8550 10700 8550
Wire Wire Line
	10800 8450 10700 8450
Wire Wire Line
	8650 8650 8750 8650
Wire Wire Line
	8650 8550 8750 8550
Wire Wire Line
	8650 8450 8750 8450
Wire Wire Line
	8650 8350 8750 8350
$Comp
L EuroPress:EuroPress_EncoderBoard XA4
U 1 1 5D8C9E1F
P 9700 8500
F 0 "XA4" H 9050 9050 50  0000 L CNN
F 1 "EuroPress_EncoderBoard" H 9950 9050 50  0000 L CNN
F 2 "EuroPress:EuroPress_EncoderBoard" H 9700 8200 50  0001 C CNN
F 3 "" H 9700 8500 50  0001 C CNN
F 4 "N/A" H 750 6600 50  0001 C CNN "Manufacturer_Name"
F 5 "N/A" H 750 6600 50  0001 C CNN "Manufacturer_Part_Number"
F 6 "N/A" H 750 6600 50  0001 C CNN "Mouser Part Number"
F 7 "N/A" H 750 6600 50  0001 C CNN "Sample"
F 8 "N/A" H 750 6600 50  0001 C CNN "Supplier"
F 9 "N/A" H 750 6600 50  0001 C CNN "SupplierRef"
	1    9700 8500
	1    0    0    -1  
$EndComp
Text GLabel 8650 8650 0    50   Output ~ 0
SPI_MISO
Text GLabel 8650 8550 0    50   Input ~ 0
SPI_MOSI
Text GLabel 8650 8450 0    50   Input ~ 0
SPI_SCK
$Comp
L power:+5V #PWR021
U 1 1 5FED0395
P 9700 7500
F 0 "#PWR021" H 9700 7350 50  0001 C CNN
F 1 "+5V" H 9715 7673 50  0000 C CNN
F 2 "" H 9700 7500 50  0001 C CNN
F 3 "" H 9700 7500 50  0001 C CNN
	1    9700 7500
	1    0    0    -1  
$EndComp
$Comp
L power:GND #PWR022
U 1 1 5FED0358
P 9700 9450
F 0 "#PWR022" H 9700 9200 50  0001 C CNN
F 1 "GND" H 9705 9277 50  0000 C CNN
F 2 "" H 9700 9450 50  0001 C CNN
F 3 "" H 9700 9450 50  0001 C CNN
	1    9700 9450
	1    0    0    -1  
$EndComp
$Comp
L power:+3V3 #PWR023
U 1 1 5FED0352
P 9850 7650
F 0 "#PWR023" H 9850 7500 50  0001 C CNN
F 1 "+3V3" H 9865 7823 50  0000 C CNN
F 2 "" H 9850 7650 50  0001 C CNN
F 3 "" H 9850 7650 50  0001 C CNN
	1    9850 7650
	1    0    0    -1  
$EndComp
Wire Notes Line
	4500 7200 4500 11200
Wire Notes Line
	8000 7200 8000 11200
Wire Wire Line
	8650 4400 8650 4450
$Comp
L power:+3V3 #PWR027
U 1 1 5E6A0794
P 10800 4550
F 0 "#PWR027" H 10800 4400 50  0001 C CNN
F 1 "+3V3" H 10815 4723 50  0000 C CNN
F 2 "" H 10800 4550 50  0001 C CNN
F 3 "" H 10800 4550 50  0001 C CNN
	1    10800 4550
	1    0    0    -1  
$EndComp
Wire Notes Line
	1850 4100 1850 3900
Wire Notes Line
	500  4100 1850 4100
Wire Wire Line
	3500 4350 3500 4400
$Comp
L power:+24V #PWR?
U 1 1 5E70228C
P 3500 4350
AR Path="/5CC2A4AE/5E70228C" Ref="#PWR?"  Part="1" 
AR Path="/5E70228C" Ref="#PWR07"  Part="1" 
F 0 "#PWR07" H 3500 4200 50  0001 C CNN
F 1 "+24V" H 3515 4523 50  0000 C CNN
F 2 "" H 3500 4350 50  0001 C CNN
F 3 "" H 3500 4350 50  0001 C CNN
	1    3500 4350
	1    0    0    -1  
$EndComp
Wire Wire Line
	2550 5850 2550 5950
Connection ~ 2550 5850
Wire Wire Line
	2650 5850 2550 5850
Wire Wire Line
	2550 5950 2550 6050
Connection ~ 2550 5950
Wire Wire Line
	2550 5950 2650 5950
Wire Wire Line
	2550 6050 2550 6150
Connection ~ 2550 6050
Wire Wire Line
	2650 6050 2550 6050
Wire Wire Line
	2550 6150 2550 6250
Connection ~ 2550 6150
Wire Wire Line
	2650 6150 2550 6150
Wire Wire Line
	2550 6250 2550 6350
Connection ~ 2550 6250
Wire Wire Line
	2650 6250 2550 6250
Wire Wire Line
	2550 6350 2550 6400
Connection ~ 2550 6350
Wire Wire Line
	2650 6350 2550 6350
Wire Wire Line
	2550 5750 2550 5850
Wire Wire Line
	2650 5750 2550 5750
Wire Wire Line
	3650 6850 3650 6900
Wire Wire Line
	2650 5300 2450 5300
Wire Wire Line
	2450 5400 2650 5400
Wire Wire Line
	2450 4900 2650 4900
$Comp
L EuroPress:EuroPress_AnalogBoard XA?
U 1 1 5E70226E
P 3650 5600
AR Path="/5CC2A4AE/5E70226E" Ref="XA?"  Part="1" 
AR Path="/5E70226E" Ref="XA2"  Part="1" 
F 0 "XA2" H 3000 6550 50  0000 C CNN
F 1 "EuroPress_AnalogBoard" H 4350 6550 50  0000 C CNN
F 2 "EuroPress:EuroPress_AnalogBoard" V 3850 5600 50  0001 C CNN
F 3 "" H 4050 6100 50  0001 C CNN
F 4 "N/A" H -10150 3350 50  0001 C CNN "Manufacturer_Name"
F 5 "N/A" H -10150 3350 50  0001 C CNN "Manufacturer_Part_Number"
F 6 "N/A" H -10150 3350 50  0001 C CNN "Mouser Part Number"
F 7 "N/A" H -10150 3350 50  0001 C CNN "Sample"
F 8 "N/A" H -10150 3350 50  0001 C CNN "Supplier"
F 9 "N/A" H -10150 3350 50  0001 C CNN "SupplierRef"
	1    3650 5600
	1    0    0    -1  
$EndComp
Wire Wire Line
	1400 5100 1650 5100
Connection ~ 1400 5100
Wire Wire Line
	1400 5050 1400 5100
Wire Wire Line
	1400 4800 1400 4850
$Comp
L Device:R_Small R1
U 1 1 5E702264
P 1400 4950
AR Path="/5E702264" Ref="R1"  Part="1" 
AR Path="/5CC2A4AE/5E702264" Ref="R?"  Part="1" 
F 0 "R1" H 1459 4996 50  0000 L CNN
F 1 "10k" H 1459 4905 50  0000 L CNN
F 2 "Resistor_SMD:R_0603_1608Metric_Pad1.05x0.95mm_HandSolder" H 1400 4950 50  0001 C CNN
F 3 "~" H 1400 4950 50  0001 C CNN
F 4 "Résistance à couches minces - CMS 0603 10Kohms 1% 100ppm 100mW" H -5100 1300 50  0001 C CNN "Description"
F 5 "Panasonic" H -5100 1300 50  0001 C CNN "Manufacturer_Name"
F 6 "ERA-3AEB103V" H -5100 1300 50  0001 C CNN "Manufacturer_Part_Number"
F 7 "667-ERA-3AEB103V" H -5100 1300 50  0001 C CNN "Mouser Part Number"
F 8 "Mouser" H -5100 1300 50  0001 C CNN "Supplier"
F 9 "667-ERA-3AEB103V" H -5100 1300 50  0001 C CNN "SupplierRef"
	1    1400 4950
	1    0    0    -1  
$EndComp
$Comp
L power:+3V3 #PWR?
U 1 1 5E702258
P 1400 4800
AR Path="/5CC2A4AE/5E702258" Ref="#PWR?"  Part="1" 
AR Path="/5E702258" Ref="#PWR01"  Part="1" 
F 0 "#PWR01" H 1400 4650 50  0001 C CNN
F 1 "+3V3" H 1415 4973 50  0000 C CNN
F 2 "" H 1400 4800 50  0001 C CNN
F 3 "" H 1400 4800 50  0001 C CNN
	1    1400 4800
	1    0    0    -1  
$EndComp
Wire Wire Line
	1850 5100 2650 5100
Wire Wire Line
	1300 5100 1400 5100
$Comp
L Device:R_Small R2
U 1 1 5E702250
P 1750 5100
AR Path="/5E702250" Ref="R2"  Part="1" 
AR Path="/5CC2A4AE/5E702250" Ref="R?"  Part="1" 
F 0 "R2" V 1554 5100 50  0000 C CNN
F 1 "50" V 1645 5100 50  0000 C CNN
F 2 "Resistor_SMD:R_0603_1608Metric_Pad1.05x0.95mm_HandSolder" H 1750 5100 50  0001 C CNN
F 3 "~" H 1750 5100 50  0001 C CNN
F 4 "Résistance à couches minces - CMS 0603 50ohms 2% 100ppm" H -5100 1300 50  0001 C CNN "Description"
F 5 "Vishay" H -5100 1300 50  0001 C CNN "Manufacturer_Name"
F 6 "CRCW060350R0FKEA" H -5100 1300 50  0001 C CNN "Manufacturer_Part_Number"
F 7 "71-CRCW0603-50-E3" H -5100 1300 50  0001 C CNN "Mouser Part Number"
F 8 "Mouser" H -5100 1300 50  0001 C CNN "Supplier"
F 9 "71-CRCW0603-50-E3" H -5100 1300 50  0001 C CNN "SupplierRef"
	1    1750 5100
	0    1    1    0   
$EndComp
Text GLabel 2450 5500 0    50   Input ~ 0
DAC2
Text GLabel 2450 5400 0    50   Input ~ 0
DAC1
Text GLabel 2450 5300 0    50   Output ~ 0
ADC1
Text GLabel 2450 4900 0    50   Output ~ 0
ADC_BUSY
Text GLabel 1300 5100 0    50   Input ~ 0
ADC_CONVST
Text GLabel 2450 5000 0    50   Input ~ 0
ADC_RD
Text GLabel 4950 6350 2    50   Output ~ 0
PP_IN15
Text GLabel 4950 6250 2    50   Output ~ 0
PP_IN14
Text GLabel 4950 6150 2    50   Output ~ 0
PP_IN13
Text GLabel 4950 6050 2    50   Output ~ 0
PP_IN12
Text GLabel 4950 5950 2    50   Output ~ 0
PP_IN11
Text GLabel 4950 5850 2    50   Output ~ 0
PP_IN10
Text GLabel 4950 5750 2    50   Output ~ 0
PP_IN9
Text GLabel 4950 5650 2    50   Output ~ 0
PP_IN8
Text GLabel 4950 5550 2    50   Output ~ 0
PP_IN7
Text GLabel 4950 5450 2    50   Output ~ 0
PP_IN6
Text GLabel 4950 5350 2    50   Output ~ 0
PP_IN5
Text GLabel 4950 5250 2    50   Output ~ 0
PP_IN4
Text GLabel 4950 5150 2    50   Output ~ 0
PP_IN3
Text GLabel 4950 5050 2    50   Output ~ 0
PP_IN2
Text GLabel 4950 4950 2    50   Output ~ 0
PP_IN1
Text GLabel 4950 4850 2    50   Output ~ 0
PP_IN0
Wire Wire Line
	2450 5500 2650 5500
$Comp
L power:+12VA #PWR?
U 1 1 5E70222D
P 3600 4150
AR Path="/5CC2A4AE/5E70222D" Ref="#PWR?"  Part="1" 
AR Path="/5E70222D" Ref="#PWR08"  Part="1" 
F 0 "#PWR08" H 3600 4000 50  0001 C CNN
F 1 "+12VA" H 3615 4323 50  0000 C CNN
F 2 "" H 3600 4150 50  0001 C CNN
F 3 "" H 3600 4150 50  0001 C CNN
	1    3600 4150
	1    0    0    -1  
$EndComp
$Comp
L power:-12VA #PWR?
U 1 1 5E702227
P 3650 6900
AR Path="/5CC2A4AE/5E702227" Ref="#PWR?"  Part="1" 
AR Path="/5E702227" Ref="#PWR09"  Part="1" 
F 0 "#PWR09" H 3650 6750 50  0001 C CNN
F 1 "-12VA" H 3665 7073 50  0000 C CNN
F 2 "" H 3650 6900 50  0001 C CNN
F 3 "" H 3650 6900 50  0001 C CNN
	1    3650 6900
	-1   0    0    1   
$EndComp
Text Notes 5600 5850 1    50   ~ 0
To MCU\n(I/O shared pins)
$Comp
L power:+5V #PWR?
U 1 1 5E702220
P 3700 4350
AR Path="/5CC2A4AE/5E702220" Ref="#PWR?"  Part="1" 
AR Path="/5E702220" Ref="#PWR010"  Part="1" 
F 0 "#PWR010" H 3700 4200 50  0001 C CNN
F 1 "+5V" H 3715 4523 50  0000 C CNN
F 2 "" H 3700 4350 50  0001 C CNN
F 3 "" H 3700 4350 50  0001 C CNN
	1    3700 4350
	1    0    0    -1  
$EndComp
Wire Wire Line
	3700 4350 3700 4400
Wire Wire Line
	3600 4150 3600 4400
$Comp
L power:+3V3 #PWR?
U 1 1 5E702218
P 3800 4150
AR Path="/5CC2A4AE/5E702218" Ref="#PWR?"  Part="1" 
AR Path="/5E702218" Ref="#PWR011"  Part="1" 
F 0 "#PWR011" H 3800 4000 50  0001 C CNN
F 1 "+3V3" H 3815 4323 50  0000 C CNN
F 2 "" H 3800 4150 50  0001 C CNN
F 3 "" H 3800 4150 50  0001 C CNN
	1    3800 4150
	1    0    0    -1  
$EndComp
Wire Wire Line
	3800 4150 3800 4400
Wire Wire Line
	4950 6350 4650 6350
Wire Wire Line
	4950 6250 4650 6250
Wire Wire Line
	4950 6150 4650 6150
Wire Wire Line
	4950 6050 4650 6050
Wire Wire Line
	4950 5950 4650 5950
Wire Wire Line
	4950 5850 4650 5850
Wire Wire Line
	4950 5750 4650 5750
Wire Wire Line
	4650 5650 4950 5650
Wire Wire Line
	4950 5550 4650 5550
Wire Wire Line
	4950 5450 4650 5450
Wire Wire Line
	4950 5350 4650 5350
Wire Wire Line
	4950 5250 4650 5250
Wire Wire Line
	4950 5150 4650 5150
Wire Wire Line
	4950 5050 4650 5050
Wire Wire Line
	4950 4950 4650 4950
Wire Wire Line
	4950 4850 4650 4850
Wire Wire Line
	2450 5000 2650 5000
$Comp
L power:GND #PWR?
U 1 1 5E702200
P 2550 6400
AR Path="/5CC2A4AE/5E702200" Ref="#PWR?"  Part="1" 
AR Path="/5E702200" Ref="#PWR06"  Part="1" 
F 0 "#PWR06" H 2550 6150 50  0001 C CNN
F 1 "GND" H 2555 6227 50  0000 C CNN
F 2 "" H 2550 6400 50  0001 C CNN
F 3 "" H 2550 6400 50  0001 C CNN
	1    2550 6400
	1    0    0    -1  
$EndComp
Wire Notes Line
	500  3900 16050 3900
Text GLabel 12100 5700 0    50   Output ~ 0
CS_DIG_IN2
Wire Wire Line
	12500 5700 12100 5700
Text GLabel 1250 9200 0    50   Input ~ 0
CS_DIG_IN2
Wire Wire Line
	1250 9200 1350 9200
Text Notes 4050 9600 1    50   ~ 0
To MCU\n(I/O shared pins)
$EndSCHEMATC
