EESchema Schematic File Version 4
EELAYER 30 0
EELAYER END
$Descr A3 16535 11693
encoding utf-8
Sheet 1 1
Title "EuroPress - Outputs board"
Date "2020-01-27"
Rev "1.0"
Comp "LGR"
Comment1 ""
Comment2 ""
Comment3 ""
Comment4 ""
$EndDescr
$Comp
L EuroPress:SN74LVC573APW U1
U 1 1 5E2EE1A3
P 2600 2600
F 0 "U1" H 3100 2865 50  0000 C CNN
F 1 "SN74LVC573APW" H 3100 2774 50  0000 C CNN
F 2 "Package_SO:TSSOP-20_4.4x6.5mm_P0.65mm" H 3450 2700 50  0001 L CNN
F 3 "http://www.ti.com/general/docs/suppproductinfo.tsp?distId=26&gotoUrl=http%3A%2F%2Fwww.ti.com%2Flit%2Fgpn%2Fsn74lvc573a" H 3450 2600 50  0001 L CNN
F 4 "Octal transparent D-type latches with 3-state outputs" H 3450 2500 50  0001 L CNN "Description"
F 5 "" H 3450 2300 50  0001 L CNN "Mouser Part Number"
F 6 "Texas Instruments" H 3450 2200 50  0001 L CNN "Manufacturer_Name"
F 7 "SN74LVC573APWR" H 3450 2100 50  0001 L CNN "Manufacturer_Part_Number"
F 8 "C113280" H 2600 2600 50  0001 C CNN "LCSC"
F 9 "0;0;-90" H 2600 2600 50  0001 C CNN "JLCPCB_CORRECTION"
	1    2600 2600
	1    0    0    -1  
$EndComp
$Comp
L EuroPress:ACPL-247-500E Q3
U 1 1 5E2EEB4B
P 5000 2100
F 0 "Q3" H 5450 2365 50  0000 C CNN
F 1 "TLP290-4" H 5450 2274 50  0000 C CNN
F 2 "Package_SO:SOP-16_4.55x10.3mm_P1.27mm" H 5750 2200 50  0001 L CNN
F 3 "https://datasheet.lcsc.com/lcsc/1811032111_TOSHIBA-TLP290-4-GB-TP,E-T_C39031.pdf" H 5750 2100 50  0001 L CNN
F 4 "DC Input Transistor Output Quad Optocoupler, 16-Pin SOP" H 5750 2000 50  0001 L CNN "Description"
F 5 "2.42" H 5750 1900 50  0001 L CNN "Height"
F 6 "" H 5750 1800 50  0001 L CNN "Mouser Part Number"
F 7 "Toshiba" H 5750 1700 50  0001 L CNN "Manufacturer_Name"
F 8 "TLP290-4(GB-TP,E(T" H 5750 1600 50  0001 L CNN "Manufacturer_Part_Number"
F 9 "0;0;-90" H 5000 2100 50  0001 C CNN "JLCPCB_CORRECTION"
F 10 "C39031" H 5000 2100 50  0001 C CNN "LCSC"
	1    5000 2100
	1    0    0    -1  
$EndComp
$Comp
L EuroPress:ACPL-247-500E Q4
U 1 1 5E2EFBD2
P 5000 3300
F 0 "Q4" H 5450 3565 50  0000 C CNN
F 1 "TLP290-4" H 5450 3474 50  0000 C CNN
F 2 "Package_SO:SOP-16_4.55x10.3mm_P1.27mm" H 5750 3400 50  0001 L CNN
F 3 "https://datasheet.lcsc.com/lcsc/1811032111_TOSHIBA-TLP290-4-GB-TP,E-T_C39031.pdf" H 5750 3300 50  0001 L CNN
F 4 "DC Input Transistor Output Quad Optocoupler, 16-Pin SOP" H 5750 3200 50  0001 L CNN "Description"
F 5 "2.42" H 5750 3100 50  0001 L CNN "Height"
F 6 "" H 5750 3000 50  0001 L CNN "Mouser Part Number"
F 7 "Toshiba" H 5750 2900 50  0001 L CNN "Manufacturer_Name"
F 8 "TLP290-4(GB-TP,E(T" H 5750 2800 50  0001 L CNN "Manufacturer_Part_Number"
F 9 "0;0;-90" H 5000 3300 50  0001 C CNN "JLCPCB_CORRECTION"
F 10 "C39031" H 5000 3300 50  0001 C CNN "LCSC"
	1    5000 3300
	1    0    0    -1  
$EndComp
$Comp
L EuroPress:G6K-2 K1
U 1 1 5E2F1D18
P 13950 1950
F 0 "K1" H 14580 1996 50  0000 L CNN
F 1 "G6K-2F-DC24" H 14580 1905 50  0000 L CNN
F 2 "Relay_SMD:Relay_DPDT_Omron_G6K-2F" H 14600 1900 50  0001 L CNN
F 3 "http://omronfs.omron.com/en_US/ecb/products/pdf/en-g6k.pdf" H 13750 1950 50  0001 C CNN
F 4 "Relais DPDT 24VDC 100mW" H 13950 1950 50  0001 C CNN "Description"
F 5 "Omron" H 13950 1950 50  0001 C CNN "Manufacturer_Name"
F 6 "G6K-2F-DC24" H 13950 1950 50  0001 C CNN "Manufacturer_Part_Number"
F 7 "653-G6K-2F-DC24" H 13950 1950 50  0001 C CNN "Mouser Part Number"
F 8 "---" H 13950 1950 50  0001 C CNN "LCSC"
	1    13950 1950
	1    0    0    -1  
$EndComp
Wire Wire Line
	2100 2700 2600 2700
Wire Wire Line
	2100 2800 2600 2800
Wire Wire Line
	2100 2900 2600 2900
Wire Wire Line
	2100 3000 2600 3000
Wire Wire Line
	2100 3100 2600 3100
Wire Wire Line
	2100 3200 2600 3200
Wire Wire Line
	2100 3300 2600 3300
Wire Wire Line
	2100 3400 2600 3400
Wire Wire Line
	2100 3500 2600 3500
$Comp
L power:GND #PWR018
U 1 1 5E2F8FF6
P 3700 3600
F 0 "#PWR018" H 3700 3350 50  0001 C CNN
F 1 "GND" H 3705 3427 50  0000 C CNN
F 2 "" H 3700 3600 50  0001 C CNN
F 3 "" H 3700 3600 50  0001 C CNN
	1    3700 3600
	1    0    0    -1  
$EndComp
$Comp
L power:GND #PWR013
U 1 1 5E2F96B0
P 2450 2600
F 0 "#PWR013" H 2450 2350 50  0001 C CNN
F 1 "GND" V 2455 2472 50  0000 R CNN
F 2 "" H 2450 2600 50  0001 C CNN
F 3 "" H 2450 2600 50  0001 C CNN
	1    2450 2600
	0    1    1    0   
$EndComp
Wire Wire Line
	2450 2600 2600 2600
Wire Wire Line
	3700 3600 3700 3500
Wire Wire Line
	3700 3500 3600 3500
$Comp
L power:+3.3V #PWR06
U 1 1 5E2FA4E8
P 3700 2000
F 0 "#PWR06" H 3700 1850 50  0001 C CNN
F 1 "+3.3V" H 3715 2173 50  0000 C CNN
F 2 "" H 3700 2000 50  0001 C CNN
F 3 "" H 3700 2000 50  0001 C CNN
	1    3700 2000
	1    0    0    -1  
$EndComp
Wire Wire Line
	3700 2000 3700 2050
Wire Wire Line
	3700 2600 3600 2600
$Comp
L Device:C_Small C1
U 1 1 5E2FBBE4
P 3900 2200
F 0 "C1" H 3992 2246 50  0000 L CNN
F 1 "0.1uF" H 3992 2155 50  0000 L CNN
F 2 "Capacitor_SMD:C_0603_1608Metric" H 3900 2200 50  0001 C CNN
F 3 "~" H 3900 2200 50  0001 C CNN
F 4 "Condensateur céramique multicouches MLCC - CMS 50V 0.1uF 0603 X7R 10%" H 3900 2200 50  0001 C CNN "Description"
F 5 "Yageo" H 3900 2200 50  0001 C CNN "Manufacturer_Name"
F 6 "CC0603KRX7R9BB104" H 3900 2200 50  0001 C CNN "Manufacturer_Part_Number"
F 7 "" H 3900 2200 50  0001 C CNN "Mouser Part Number"
F 8 "C14663" H 3900 2200 50  0001 C CNN "LCSC"
	1    3900 2200
	1    0    0    -1  
$EndComp
$Comp
L power:GND #PWR012
U 1 1 5E2FC0BE
P 3900 2350
F 0 "#PWR012" H 3900 2100 50  0001 C CNN
F 1 "GND" H 3905 2177 50  0000 C CNN
F 2 "" H 3900 2350 50  0001 C CNN
F 3 "" H 3900 2350 50  0001 C CNN
	1    3900 2350
	1    0    0    -1  
$EndComp
Wire Wire Line
	3900 2300 3900 2350
Wire Wire Line
	3900 2100 3900 2050
Wire Wire Line
	3900 2050 3700 2050
Connection ~ 3700 2050
Wire Wire Line
	3700 2050 3700 2600
$Comp
L power:GND #PWR023
U 1 1 5E2FFBCD
P 4900 4050
F 0 "#PWR023" H 4900 3800 50  0001 C CNN
F 1 "GND" H 4905 3877 50  0000 C CNN
F 2 "" H 4900 4050 50  0001 C CNN
F 3 "" H 4900 4050 50  0001 C CNN
	1    4900 4050
	1    0    0    -1  
$EndComp
Wire Wire Line
	4900 4050 4900 4000
Wire Wire Line
	4900 2200 5000 2200
Wire Wire Line
	5000 2400 4900 2400
Connection ~ 4900 2400
Wire Wire Line
	4900 2400 4900 2200
Wire Wire Line
	5000 2600 4900 2600
Connection ~ 4900 2600
Wire Wire Line
	4900 2600 4900 2400
Wire Wire Line
	5000 2800 4900 2800
Connection ~ 4900 2800
Wire Wire Line
	4900 2800 4900 2600
Wire Wire Line
	5000 3400 4900 3400
Connection ~ 4900 3400
Wire Wire Line
	4900 3400 4900 2800
Wire Wire Line
	5000 3600 4900 3600
Connection ~ 4900 3600
Wire Wire Line
	4900 3600 4900 3400
Wire Wire Line
	5000 3800 4900 3800
Connection ~ 4900 3800
Wire Wire Line
	4900 3800 4900 3600
Wire Wire Line
	5000 4000 4900 4000
Connection ~ 4900 4000
Wire Wire Line
	4900 4000 4900 3800
Wire Wire Line
	6000 2200 5900 2200
Wire Wire Line
	5900 2400 6000 2400
Connection ~ 6000 2400
Wire Wire Line
	6000 2400 6000 2200
Wire Wire Line
	5900 2600 6000 2600
Connection ~ 6000 2600
Wire Wire Line
	6000 2600 6000 2400
Wire Wire Line
	5900 2800 6000 2800
Connection ~ 6000 2800
Wire Wire Line
	6000 2800 6000 2600
Wire Wire Line
	5900 3400 6000 3400
Wire Wire Line
	6000 2800 6000 3400
Connection ~ 6000 3400
Wire Wire Line
	6000 3400 6000 3600
Wire Wire Line
	5900 3600 6000 3600
Connection ~ 6000 3600
Wire Wire Line
	6000 3600 6000 3800
Wire Wire Line
	5900 3800 6000 3800
Connection ~ 6000 3800
Wire Wire Line
	6000 3800 6000 4000
Wire Wire Line
	5900 4000 6000 4000
Connection ~ 6000 4000
Wire Wire Line
	6000 4000 6000 4050
$Comp
L Device:R_Network08 RN1
U 1 1 5E31DE67
P 6300 1600
F 0 "RN1" H 6688 1646 50  0000 L CNN
F 1 "10k" H 6688 1555 50  0000 L CNN
F 2 "Resistor_THT:R_Array_SIP9" V 6775 1600 50  0001 C CNN
F 3 "https://www.bourns.com/pdfs/4600M.pdf" H 6300 1600 50  0001 C CNN
F 4 "Resistors array 8x10kOhms 2% SIP9" H 6300 1600 50  0001 C CNN "Description"
F 5 "Bourns" H 6300 1600 50  0001 C CNN "Manufacturer_Name"
F 6 "4609M-101-103LF" H 6300 1600 50  0001 C CNN "Manufacturer_Part_Number"
F 7 "652-4609M-1LF-10K" H 6300 1600 50  0001 C CNN "Mouser Part Number"
F 8 "---" H 6300 1600 50  0001 C CNN "LCSC"
	1    6300 1600
	-1   0    0    -1  
$EndComp
Wire Wire Line
	5900 2100 6000 2100
Wire Wire Line
	7000 2300 6100 2300
Wire Wire Line
	5900 2500 6200 2500
Wire Wire Line
	5900 2700 6300 2700
Wire Wire Line
	7000 3300 6400 3300
Wire Wire Line
	5900 3500 6500 3500
Wire Wire Line
	7000 3700 6600 3700
Wire Wire Line
	5900 3900 6700 3900
Wire Wire Line
	13550 1350 13550 1650
Wire Wire Line
	13550 2300 13550 2250
Wire Wire Line
	14250 1350 14050 1350
Wire Wire Line
	14050 1350 14050 1650
Wire Wire Line
	14200 2600 13950 2600
Wire Wire Line
	13950 2600 13950 2250
Text GLabel 14250 1350 2    50   Output ~ 0
RELAY_NO
Text GLabel 14200 2600 2    50   Output ~ 0
RELAY_COM
Text GLabel 9300 1950 2    50   Output ~ 0
DIG_OUT_CH2
Text GLabel 2100 2700 0    50   Input ~ 0
PP_OUT0
Text GLabel 2100 2800 0    50   Input ~ 0
PP_OUT1
Text GLabel 2100 2900 0    50   Input ~ 0
PP_OUT2
Text GLabel 2100 3000 0    50   Input ~ 0
PP_OUT3
Text GLabel 2100 3100 0    50   Input ~ 0
PP_OUT4
Text GLabel 2100 3200 0    50   Input ~ 0
PP_OUT5
Text GLabel 2100 3300 0    50   Input ~ 0
PP_OUT6
Text GLabel 2100 3400 0    50   Input ~ 0
PP_OUT7
Text GLabel 2100 3500 0    50   Input ~ 0
DIG_OUT_LATCH1
Text GLabel 2400 8550 0    50   Input ~ 0
PP_OUT0
Text GLabel 2400 8650 0    50   Input ~ 0
PP_OUT1
Text GLabel 2400 8750 0    50   Input ~ 0
PP_OUT2
Text GLabel 2400 8850 0    50   Input ~ 0
PP_OUT3
Text GLabel 2400 8950 0    50   Input ~ 0
PP_OUT4
Text GLabel 2400 9050 0    50   Input ~ 0
PP_OUT5
Text GLabel 2400 9150 0    50   Input ~ 0
PP_OUT6
Text GLabel 2400 9250 0    50   Input ~ 0
PP_OUT7
Text GLabel 2400 9450 0    50   Input ~ 0
DIG_OUT_LATCH1
Text GLabel 6850 8850 0    50   Input ~ 0
DIG_OUT_CH2
Text GLabel 6850 8950 0    50   Input ~ 0
DIG_OUT_CH3
Text GLabel 6850 9050 0    50   Input ~ 0
DIG_OUT_CH4
Text GLabel 6850 9150 0    50   Input ~ 0
DIG_OUT_CH5
Text GLabel 6850 9250 0    50   Input ~ 0
DIG_OUT_CH6
Text GLabel 6850 9350 0    50   Input ~ 0
DIG_OUT_CH7
Text GLabel 6850 9450 0    50   Input ~ 0
DIG_OUT_CH8
$Comp
L power:+3.3V #PWR052
U 1 1 5E40C4D1
P 3550 8050
F 0 "#PWR052" H 3550 7900 50  0001 C CNN
F 1 "+3.3V" H 3565 8223 50  0000 C CNN
F 2 "" H 3550 8050 50  0001 C CNN
F 3 "" H 3550 8050 50  0001 C CNN
	1    3550 8050
	1    0    0    -1  
$EndComp
$Comp
L power:+24V #PWR051
U 1 1 5E40C6E8
P 3250 8050
F 0 "#PWR051" H 3250 7900 50  0001 C CNN
F 1 "+24V" H 3265 8223 50  0000 C CNN
F 2 "" H 3250 8050 50  0001 C CNN
F 3 "" H 3250 8050 50  0001 C CNN
	1    3250 8050
	1    0    0    -1  
$EndComp
Text GLabel 7600 8750 2    50   Input ~ 0
RELAY_NO
Text GLabel 6850 8750 0    50   Input ~ 0
RELAY_COM
$Comp
L Connector_Generic:Conn_02x12_Odd_Even J1
U 1 1 5E42A162
P 7200 9250
F 0 "J1" H 7250 9967 50  0000 C CNN
F 1 "Digital outputs" H 7250 9876 50  0000 C CNN
F 2 "Connector_PinHeader_2.54mm:PinHeader_2x12_P2.54mm_Vertical" H 7200 9250 50  0001 C CNN
F 3 "~" H 7200 9250 50  0001 C CNN
F 4 ".100\" Mini Mate® Isolated Power Terminal Strip, Cable Mate, doubler ows, 12 positions" H 7200 9250 50  0001 C CNN "Description"
F 5 "Samtec" H 7200 9250 50  0001 C CNN "Manufacturer_Name"
F 6 "IPL1-112-01-F-D-K" H 7200 9250 50  0001 C CNN "Manufacturer_Part_Number"
F 7 "N/A" H 7200 9250 50  0001 C CNN "Mouser Part Number"
F 8 "--" H 7200 9250 50  0001 C CNN "LCSC"
	1    7200 9250
	1    0    0    -1  
$EndComp
Wire Wire Line
	6850 8850 7000 8850
Wire Wire Line
	7000 8950 6850 8950
Wire Wire Line
	6850 9050 7000 9050
Wire Wire Line
	7000 9150 6850 9150
Wire Wire Line
	6850 9250 7000 9250
Wire Wire Line
	6850 9350 7000 9350
Wire Wire Line
	7000 9450 6850 9450
Wire Wire Line
	6850 9650 7000 9650
Wire Wire Line
	7000 9750 6850 9750
Wire Wire Line
	7500 8750 7600 8750
Wire Wire Line
	7500 9850 7600 9850
Connection ~ 7600 9850
Wire Wire Line
	7600 9850 7600 9900
Wire Wire Line
	7500 9750 7600 9750
Connection ~ 7600 9750
Wire Wire Line
	7600 9750 7600 9850
Wire Wire Line
	7500 9650 7600 9650
Wire Wire Line
	7600 9650 7600 9750
Wire Wire Line
	7500 9550 7600 9550
Wire Wire Line
	7500 9450 7600 9450
Wire Wire Line
	7500 9250 7600 9250
Wire Wire Line
	7500 9050 7600 9050
Wire Wire Line
	7500 9150 7600 9150
Wire Wire Line
	7500 8950 7600 8950
Wire Wire Line
	7500 8850 7600 8850
Wire Wire Line
	7500 9350 7600 9350
Text GLabel 2400 9550 0    50   Input ~ 0
DIG_OUT_LATCH2
Wire Wire Line
	7000 8750 6850 8750
Wire Wire Line
	6850 9550 7000 9550
Wire Wire Line
	6850 9850 7000 9850
Text GLabel 7600 8850 2    50   Input ~ 0
DIG_OUT_CH9
Text GLabel 7600 8950 2    50   Input ~ 0
DIG_OUT_CH10
Text GLabel 7600 9050 2    50   Input ~ 0
DIG_OUT_CH11
Text GLabel 7600 9150 2    50   Input ~ 0
DIG_OUT_CH12
Text GLabel 7600 9250 2    50   Input ~ 0
DIG_OUT_CH13
Text GLabel 7600 9350 2    50   Input ~ 0
DIG_OUT_CH14
Text GLabel 7600 9450 2    50   Input ~ 0
DIG_OUT_CH15
Text GLabel 7600 9550 2    50   Input ~ 0
DIG_OUT_CH16
$Comp
L power:GND #PWR055
U 1 1 5E5120B3
P 3300 10500
F 0 "#PWR055" H 3300 10250 50  0001 C CNN
F 1 "GND" H 3305 10327 50  0000 C CNN
F 2 "" H 3300 10500 50  0001 C CNN
F 3 "" H 3300 10500 50  0001 C CNN
	1    3300 10500
	1    0    0    -1  
$EndComp
$Comp
L EuroPress:SN74LVC573APW U3
U 1 1 5E30A541
P 2600 5900
F 0 "U3" H 3100 6165 50  0000 C CNN
F 1 "SN74LVC573APW" H 3100 6074 50  0000 C CNN
F 2 "Package_SO:TSSOP-20_4.4x6.5mm_P0.65mm" H 3450 6000 50  0001 L CNN
F 3 "http://www.ti.com/general/docs/suppproductinfo.tsp?distId=26&gotoUrl=http%3A%2F%2Fwww.ti.com%2Flit%2Fgpn%2Fsn74lvc573a" H 3450 5900 50  0001 L CNN
F 4 "Octal transparent D-type latches with 3-state outputs" H 3450 5800 50  0001 L CNN "Description"
F 5 "" H 3450 5600 50  0001 L CNN "Mouser Part Number"
F 6 "Texas Instruments" H 3450 5500 50  0001 L CNN "Manufacturer_Name"
F 7 "SN74LVC573APWR" H 3450 5400 50  0001 L CNN "Manufacturer_Part_Number"
F 8 "C113280" H 2600 5900 50  0001 C CNN "LCSC"
F 9 "0;0;-90" H 2600 5900 50  0001 C CNN "JLCPCB_CORRECTION"
	1    2600 5900
	1    0    0    -1  
$EndComp
$Comp
L EuroPress:ACPL-247-500E Q9
U 1 1 5E30A550
P 5000 5400
F 0 "Q9" H 5450 5665 50  0000 C CNN
F 1 "TLP290-4" H 5450 5574 50  0000 C CNN
F 2 "Package_SO:SOP-16_4.55x10.3mm_P1.27mm" H 5750 5500 50  0001 L CNN
F 3 "https://datasheet.lcsc.com/lcsc/1811032111_TOSHIBA-TLP290-4-GB-TP,E-T_C39031.pdf" H 5750 5400 50  0001 L CNN
F 4 "DC Input Transistor Output Quad Optocoupler, 16-Pin SOP" H 5750 5300 50  0001 L CNN "Description"
F 5 "2.42" H 5750 5200 50  0001 L CNN "Height"
F 6 "" H 5750 5100 50  0001 L CNN "Mouser Part Number"
F 7 "Toshiba" H 5750 5000 50  0001 L CNN "Manufacturer_Name"
F 8 "TLP290-4(GB-TP,E(T" H 5750 4900 50  0001 L CNN "Manufacturer_Part_Number"
F 9 "0;0;-90" H 5000 5400 50  0001 C CNN "JLCPCB_CORRECTION"
F 10 "C39031" H 5000 5400 50  0001 C CNN "LCSC"
	1    5000 5400
	1    0    0    -1  
$EndComp
$Comp
L EuroPress:ACPL-247-500E Q10
U 1 1 5E30A55F
P 5000 6600
F 0 "Q10" H 5450 6865 50  0000 C CNN
F 1 "TLP290-4" H 5450 6774 50  0000 C CNN
F 2 "Package_SO:SOP-16_4.55x10.3mm_P1.27mm" H 5750 6700 50  0001 L CNN
F 3 "https://datasheet.lcsc.com/lcsc/1811032111_TOSHIBA-TLP290-4-GB-TP,E-T_C39031.pdf" H 5750 6600 50  0001 L CNN
F 4 "DC Input Transistor Output Quad Optocoupler, 16-Pin SOP" H 5750 6500 50  0001 L CNN "Description"
F 5 "2.42" H 5750 6400 50  0001 L CNN "Height"
F 6 "" H 5750 6300 50  0001 L CNN "Mouser Part Number"
F 7 "Toshiba" H 5750 6200 50  0001 L CNN "Manufacturer_Name"
F 8 "TLP290-4(GB-TP,E(T" H 5750 6100 50  0001 L CNN "Manufacturer_Part_Number"
F 9 "0;0;-90" H 5000 6600 50  0001 C CNN "JLCPCB_CORRECTION"
F 10 "C39031" H 5000 6600 50  0001 C CNN "LCSC"
	1    5000 6600
	1    0    0    -1  
$EndComp
Wire Wire Line
	3600 6700 4300 6700
Wire Wire Line
	2100 6000 2600 6000
Wire Wire Line
	2100 6100 2600 6100
Wire Wire Line
	2100 6200 2600 6200
Wire Wire Line
	2100 6300 2600 6300
Wire Wire Line
	2100 6400 2600 6400
Wire Wire Line
	2100 6500 2600 6500
Wire Wire Line
	2100 6600 2600 6600
Wire Wire Line
	2100 6700 2600 6700
Wire Wire Line
	2100 6800 2600 6800
$Comp
L power:GND #PWR044
U 1 1 5E30A5A5
P 3700 6900
F 0 "#PWR044" H 3700 6650 50  0001 C CNN
F 1 "GND" H 3705 6727 50  0000 C CNN
F 2 "" H 3700 6900 50  0001 C CNN
F 3 "" H 3700 6900 50  0001 C CNN
	1    3700 6900
	1    0    0    -1  
$EndComp
$Comp
L power:GND #PWR039
U 1 1 5E30A5AF
P 2450 5900
F 0 "#PWR039" H 2450 5650 50  0001 C CNN
F 1 "GND" V 2455 5772 50  0000 R CNN
F 2 "" H 2450 5900 50  0001 C CNN
F 3 "" H 2450 5900 50  0001 C CNN
	1    2450 5900
	0    1    1    0   
$EndComp
Wire Wire Line
	2450 5900 2600 5900
Wire Wire Line
	3700 6900 3700 6800
Wire Wire Line
	3700 6800 3600 6800
$Comp
L power:+3.3V #PWR033
U 1 1 5E30A5BC
P 3700 5300
F 0 "#PWR033" H 3700 5150 50  0001 C CNN
F 1 "+3.3V" H 3715 5473 50  0000 C CNN
F 2 "" H 3700 5300 50  0001 C CNN
F 3 "" H 3700 5300 50  0001 C CNN
	1    3700 5300
	1    0    0    -1  
$EndComp
Wire Wire Line
	3700 5300 3700 5350
Wire Wire Line
	3700 5900 3600 5900
$Comp
L Device:C_Small C2
U 1 1 5E30A5CC
P 3900 5500
F 0 "C2" H 3992 5546 50  0000 L CNN
F 1 "0.1uF" H 3992 5455 50  0000 L CNN
F 2 "Capacitor_SMD:C_0603_1608Metric" H 3900 5500 50  0001 C CNN
F 3 "~" H 3900 5500 50  0001 C CNN
F 4 "Condensateur céramique multicouches MLCC - CMS 50V 0.1uF 0603 X7R 10%" H 3900 5500 50  0001 C CNN "Description"
F 5 "Yageo" H 3900 5500 50  0001 C CNN "Manufacturer_Name"
F 6 "CC0603KRX7R9BB104" H 3900 5500 50  0001 C CNN "Manufacturer_Part_Number"
F 7 "" H 3900 5500 50  0001 C CNN "Mouser Part Number"
F 8 "C14663" H 3900 5500 50  0001 C CNN "LCSC"
	1    3900 5500
	1    0    0    -1  
$EndComp
$Comp
L power:GND #PWR034
U 1 1 5E30A5D6
P 3900 5650
F 0 "#PWR034" H 3900 5400 50  0001 C CNN
F 1 "GND" H 3905 5477 50  0000 C CNN
F 2 "" H 3900 5650 50  0001 C CNN
F 3 "" H 3900 5650 50  0001 C CNN
	1    3900 5650
	1    0    0    -1  
$EndComp
Wire Wire Line
	3900 5600 3900 5650
Wire Wire Line
	3900 5400 3900 5350
Wire Wire Line
	3900 5350 3700 5350
Connection ~ 3700 5350
Wire Wire Line
	3700 5350 3700 5900
$Comp
L power:GND #PWR045
U 1 1 5E30A5E5
P 4900 7350
F 0 "#PWR045" H 4900 7100 50  0001 C CNN
F 1 "GND" H 4905 7177 50  0000 C CNN
F 2 "" H 4900 7350 50  0001 C CNN
F 3 "" H 4900 7350 50  0001 C CNN
	1    4900 7350
	1    0    0    -1  
$EndComp
Wire Wire Line
	4900 7350 4900 7300
Wire Wire Line
	4900 5500 5000 5500
Wire Wire Line
	5000 5700 4900 5700
Connection ~ 4900 5700
Wire Wire Line
	4900 5700 4900 5500
Wire Wire Line
	5000 5900 4900 5900
Connection ~ 4900 5900
Wire Wire Line
	4900 5900 4900 5700
Wire Wire Line
	5000 6100 4900 6100
Connection ~ 4900 6100
Wire Wire Line
	4900 6100 4900 5900
Wire Wire Line
	5000 6700 4900 6700
Connection ~ 4900 6700
Wire Wire Line
	4900 6700 4900 6100
Wire Wire Line
	5000 6900 4900 6900
Connection ~ 4900 6900
Wire Wire Line
	4900 6900 4900 6700
Wire Wire Line
	5000 7100 4900 7100
Connection ~ 4900 7100
Wire Wire Line
	4900 7100 4900 6900
Wire Wire Line
	5000 7300 4900 7300
Connection ~ 4900 7300
Wire Wire Line
	4900 7300 4900 7100
Wire Wire Line
	6000 5500 5900 5500
Wire Wire Line
	5900 5700 6000 5700
Connection ~ 6000 5700
Wire Wire Line
	6000 5700 6000 5500
Wire Wire Line
	5900 5900 6000 5900
Connection ~ 6000 5900
Wire Wire Line
	6000 5900 6000 5700
Wire Wire Line
	5900 6100 6000 6100
Connection ~ 6000 6100
Wire Wire Line
	6000 6100 6000 5900
Wire Wire Line
	5900 6700 6000 6700
Wire Wire Line
	6000 6100 6000 6700
Connection ~ 6000 6700
Wire Wire Line
	6000 6700 6000 6900
Wire Wire Line
	5900 6900 6000 6900
Connection ~ 6000 6900
Wire Wire Line
	6000 6900 6000 7100
Wire Wire Line
	5900 7100 6000 7100
Connection ~ 6000 7100
Wire Wire Line
	6000 7100 6000 7300
Wire Wire Line
	5900 7300 6000 7300
Connection ~ 6000 7300
Wire Wire Line
	6000 7300 6000 7350
$Comp
L Device:R_Network08 RN2
U 1 1 5E30A639
P 6300 4900
F 0 "RN2" H 6688 4946 50  0000 L CNN
F 1 "10k" H 6688 4855 50  0000 L CNN
F 2 "Resistor_THT:R_Array_SIP9" V 6775 4900 50  0001 C CNN
F 3 "https://www.bourns.com/pdfs/4600M.pdf" H 6300 4900 50  0001 C CNN
F 4 "Resistors array 8x10kOhms 2% SIP9" H 6300 4900 50  0001 C CNN "Description"
F 5 "Bourns" H 6300 4900 50  0001 C CNN "Manufacturer_Name"
F 6 "4609M-101-103LF" H 6300 4900 50  0001 C CNN "Manufacturer_Part_Number"
F 7 "652-4609M-1LF-10K" H 6300 4900 50  0001 C CNN "Mouser Part Number"
F 8 "---" H 6300 4900 50  0001 C CNN "LCSC"
	1    6300 4900
	-1   0    0    -1  
$EndComp
Wire Wire Line
	5900 5400 6000 5400
Wire Wire Line
	7000 5600 6100 5600
Wire Wire Line
	5900 5800 6200 5800
Wire Wire Line
	5900 6000 6300 6000
Wire Wire Line
	7000 6600 6400 6600
Wire Wire Line
	5900 6800 6500 6800
Wire Wire Line
	7000 7000 6600 7000
Wire Wire Line
	5900 7200 6700 7200
Text GLabel 2100 6000 0    50   Input ~ 0
PP_OUT0
Text GLabel 2100 6100 0    50   Input ~ 0
PP_OUT1
Text GLabel 2100 6200 0    50   Input ~ 0
PP_OUT2
Text GLabel 2100 6300 0    50   Input ~ 0
PP_OUT3
Text GLabel 2100 6400 0    50   Input ~ 0
PP_OUT4
Text GLabel 2100 6500 0    50   Input ~ 0
PP_OUT5
Text GLabel 2100 6600 0    50   Input ~ 0
PP_OUT6
Text GLabel 2100 6700 0    50   Input ~ 0
PP_OUT7
Text GLabel 2100 6800 0    50   Input ~ 0
DIG_OUT_LATCH2
Wire Wire Line
	6850 9900 6850 9850
Connection ~ 6850 9650
Wire Wire Line
	6850 9650 6850 9550
Connection ~ 6850 9750
Wire Wire Line
	6850 9750 6850 9650
Connection ~ 6850 9850
Wire Wire Line
	6850 9850 6850 9750
$Comp
L power:GND #PWR057
U 1 1 5E744179
P 3500 10500
F 0 "#PWR057" H 3500 10250 50  0001 C CNN
F 1 "GND" H 3505 10327 50  0000 C CNN
F 2 "" H 3500 10500 50  0001 C CNN
F 3 "" H 3500 10500 50  0001 C CNN
	1    3500 10500
	1    0    0    -1  
$EndComp
$Comp
L power:GND #PWR053
U 1 1 5E74474F
P 6850 9900
F 0 "#PWR053" H 6850 9650 50  0001 C CNN
F 1 "GND" H 6855 9727 50  0000 C CNN
F 2 "" H 6850 9900 50  0001 C CNN
F 3 "" H 6850 9900 50  0001 C CNN
	1    6850 9900
	1    0    0    -1  
$EndComp
$Comp
L power:GND #PWR054
U 1 1 5E744DC7
P 7600 9900
F 0 "#PWR054" H 7600 9650 50  0001 C CNN
F 1 "GND" H 7605 9727 50  0000 C CNN
F 2 "" H 7600 9900 50  0001 C CNN
F 3 "" H 7600 9900 50  0001 C CNN
	1    7600 9900
	1    0    0    -1  
$EndComp
$Comp
L power:GND #PWR046
U 1 1 5E745945
P 6000 7350
F 0 "#PWR046" H 6000 7100 50  0001 C CNN
F 1 "GND" H 6005 7177 50  0000 C CNN
F 2 "" H 6000 7350 50  0001 C CNN
F 3 "" H 6000 7350 50  0001 C CNN
	1    6000 7350
	1    0    0    -1  
$EndComp
$Comp
L power:GND #PWR024
U 1 1 5E7468E0
P 6000 4050
F 0 "#PWR024" H 6000 3800 50  0001 C CNN
F 1 "GND" H 6005 3877 50  0000 C CNN
F 2 "" H 6000 4050 50  0001 C CNN
F 3 "" H 6000 4050 50  0001 C CNN
	1    6000 4050
	1    0    0    -1  
$EndComp
$Comp
L power:GND #PWR011
U 1 1 5E747ACF
P 13550 2300
F 0 "#PWR011" H 13550 2050 50  0001 C CNN
F 1 "GND" H 13555 2127 50  0000 C CNN
F 2 "" H 13550 2300 50  0001 C CNN
F 3 "" H 13550 2300 50  0001 C CNN
	1    13550 2300
	1    0    0    -1  
$EndComp
NoConn ~ 2400 9750
NoConn ~ 2400 9850
NoConn ~ 2400 9950
NoConn ~ 13850 1650
NoConn ~ 14250 1650
NoConn ~ 14450 1650
NoConn ~ 14350 2250
Text Notes 5650 5000 2    50   ~ 0
Change R value to 150k (4609X-101-154LF ou 4609X-101-224LF ou 4609X-101-331LF)\n=> I = U/R = 24/150000 = 160µA\nITS4880R ON state input max current is 70µA\nR = U/I = 342k
$Comp
L power:PWR_FLAG #FLG02
U 1 1 61511B9D
P 3550 8050
F 0 "#FLG02" H 3550 8125 50  0001 C CNN
F 1 "PWR_FLAG" V 3550 8178 50  0000 L CNN
F 2 "" H 3550 8050 50  0001 C CNN
F 3 "~" H 3550 8050 50  0001 C CNN
	1    3550 8050
	0    1    1    0   
$EndComp
$Comp
L EuroPress:EuroPress_OutputsBoard XA1
U 1 1 5E358A85
P 3400 9250
F 0 "XA1" H 4128 9271 50  0000 L CNN
F 1 "EuroPress_OutputsBoard" H 4128 9180 50  0000 L CNN
F 2 "EuroPress:EuroPress_OutputsBoard" V 3600 9250 50  0001 C CNN
F 3 "" H 3800 9750 50  0001 C CNN
F 4 "---" H 3400 9250 50  0001 C CNN "LCSC"
	1    3400 9250
	1    0    0    -1  
$EndComp
Connection ~ 3550 8050
$Comp
L power:PWR_FLAG #FLG01
U 1 1 6152A8C7
P 3250 8050
F 0 "#FLG01" H 3250 8125 50  0001 C CNN
F 1 "PWR_FLAG" V 3250 8177 50  0000 L CNN
F 2 "" H 3250 8050 50  0001 C CNN
F 3 "~" H 3250 8050 50  0001 C CNN
	1    3250 8050
	0    -1   -1   0   
$EndComp
Connection ~ 3250 8050
$Comp
L power:GND #PWR056
U 1 1 615093BF
P 3400 10500
F 0 "#PWR056" H 3400 10250 50  0001 C CNN
F 1 "GND" H 3405 10327 50  0000 C CNN
F 2 "" H 3400 10500 50  0001 C CNN
F 3 "" H 3400 10500 50  0001 C CNN
	1    3400 10500
	1    0    0    -1  
$EndComp
Text Notes 5150 4400 2    50   ~ 0
Optocoupler forward current Ir = 3.3/2200 = 1.5mA
$Comp
L Device:R_Small R1
U 1 1 61541AD1
P 4700 2100
F 0 "R1" V 4600 2000 50  0000 C CNN
F 1 "2.2k" V 4600 2200 50  0000 C CNN
F 2 "Resistor_SMD:R_0402_1005Metric" H 4700 2100 50  0001 C CNN
F 3 "~" H 4700 2100 50  0001 C CNN
F 4 "±1% 2.2KΩ 1/16W ±100PPM/℃ 0402 CHIP RESISTOR" H 4700 2100 50  0001 C CNN "Description"
F 5 "C25879" H 4700 2100 50  0001 C CNN "LCSC"
F 6 "UNI-ROYAL(Uniroyal Elec)" H 4700 2100 50  0001 C CNN "Manufacturer_Name"
F 7 "0402WGF2201TCE" H 4700 2100 50  0001 C CNN "Manufacturer_Part_Number"
	1    4700 2100
	0    1    1    0   
$EndComp
$Comp
L Device:R_Small R2
U 1 1 6154343C
P 4700 2300
F 0 "R2" V 4600 2200 50  0000 C CNN
F 1 "2.2k" V 4600 2400 50  0000 C CNN
F 2 "Resistor_SMD:R_0402_1005Metric" H 4700 2300 50  0001 C CNN
F 3 "~" H 4700 2300 50  0001 C CNN
F 4 "±1% 2.2KΩ 1/16W ±100PPM/℃ 0402 CHIP RESISTOR" H 4700 2300 50  0001 C CNN "Description"
F 5 "C25879" H 4700 2300 50  0001 C CNN "LCSC"
F 6 "UNI-ROYAL(Uniroyal Elec)" H 4700 2300 50  0001 C CNN "Manufacturer_Name"
F 7 "0402WGF2201TCE" H 4700 2300 50  0001 C CNN "Manufacturer_Part_Number"
	1    4700 2300
	0    1    1    0   
$EndComp
$Comp
L Device:R_Small R3
U 1 1 615437D5
P 4700 2500
F 0 "R3" V 4600 2400 50  0000 C CNN
F 1 "2.2k" V 4600 2600 50  0000 C CNN
F 2 "Resistor_SMD:R_0402_1005Metric" H 4700 2500 50  0001 C CNN
F 3 "~" H 4700 2500 50  0001 C CNN
F 4 "±1% 2.2KΩ 1/16W ±100PPM/℃ 0402 CHIP RESISTOR" H 4700 2500 50  0001 C CNN "Description"
F 5 "C25879" H 4700 2500 50  0001 C CNN "LCSC"
F 6 "UNI-ROYAL(Uniroyal Elec)" H 4700 2500 50  0001 C CNN "Manufacturer_Name"
F 7 "0402WGF2201TCE" H 4700 2500 50  0001 C CNN "Manufacturer_Part_Number"
	1    4700 2500
	0    1    1    0   
$EndComp
$Comp
L Device:R_Small R4
U 1 1 61543C68
P 4700 2700
F 0 "R4" V 4600 2600 50  0000 C CNN
F 1 "2.2k" V 4600 2800 50  0000 C CNN
F 2 "Resistor_SMD:R_0402_1005Metric" H 4700 2700 50  0001 C CNN
F 3 "~" H 4700 2700 50  0001 C CNN
F 4 "±1% 2.2KΩ 1/16W ±100PPM/℃ 0402 CHIP RESISTOR" H 4700 2700 50  0001 C CNN "Description"
F 5 "C25879" H 4700 2700 50  0001 C CNN "LCSC"
F 6 "UNI-ROYAL(Uniroyal Elec)" H 4700 2700 50  0001 C CNN "Manufacturer_Name"
F 7 "0402WGF2201TCE" H 4700 2700 50  0001 C CNN "Manufacturer_Part_Number"
	1    4700 2700
	0    1    1    0   
$EndComp
Wire Wire Line
	4800 2100 5000 2100
Wire Wire Line
	5000 2300 4800 2300
Wire Wire Line
	4800 2500 5000 2500
Wire Wire Line
	4800 2700 5000 2700
$Comp
L Device:R_Small R5
U 1 1 61589651
P 4700 3300
F 0 "R5" V 4600 3200 50  0000 C CNN
F 1 "2.2k" V 4600 3400 50  0000 C CNN
F 2 "Resistor_SMD:R_0402_1005Metric" H 4700 3300 50  0001 C CNN
F 3 "~" H 4700 3300 50  0001 C CNN
F 4 "±1% 2.2KΩ 1/16W ±100PPM/℃ 0402 CHIP RESISTOR" H 4700 3300 50  0001 C CNN "Description"
F 5 "C25879" H 4700 3300 50  0001 C CNN "LCSC"
F 6 "UNI-ROYAL(Uniroyal Elec)" H 4700 3300 50  0001 C CNN "Manufacturer_Name"
F 7 "0402WGF2201TCE" H 4700 3300 50  0001 C CNN "Manufacturer_Part_Number"
	1    4700 3300
	0    1    1    0   
$EndComp
$Comp
L Device:R_Small R6
U 1 1 61589D4F
P 4700 3500
F 0 "R6" V 4600 3400 50  0000 C CNN
F 1 "2.2k" V 4600 3600 50  0000 C CNN
F 2 "Resistor_SMD:R_0402_1005Metric" H 4700 3500 50  0001 C CNN
F 3 "~" H 4700 3500 50  0001 C CNN
F 4 "±1% 2.2KΩ 1/16W ±100PPM/℃ 0402 CHIP RESISTOR" H 4700 3500 50  0001 C CNN "Description"
F 5 "C25879" H 4700 3500 50  0001 C CNN "LCSC"
F 6 "UNI-ROYAL(Uniroyal Elec)" H 4700 3500 50  0001 C CNN "Manufacturer_Name"
F 7 "0402WGF2201TCE" H 4700 3500 50  0001 C CNN "Manufacturer_Part_Number"
	1    4700 3500
	0    1    1    0   
$EndComp
$Comp
L Device:R_Small R7
U 1 1 61589D59
P 4700 3700
F 0 "R7" V 4600 3600 50  0000 C CNN
F 1 "2.2k" V 4600 3800 50  0000 C CNN
F 2 "Resistor_SMD:R_0402_1005Metric" H 4700 3700 50  0001 C CNN
F 3 "~" H 4700 3700 50  0001 C CNN
F 4 "±1% 2.2KΩ 1/16W ±100PPM/℃ 0402 CHIP RESISTOR" H 4700 3700 50  0001 C CNN "Description"
F 5 "C25879" H 4700 3700 50  0001 C CNN "LCSC"
F 6 "UNI-ROYAL(Uniroyal Elec)" H 4700 3700 50  0001 C CNN "Manufacturer_Name"
F 7 "0402WGF2201TCE" H 4700 3700 50  0001 C CNN "Manufacturer_Part_Number"
	1    4700 3700
	0    1    1    0   
$EndComp
$Comp
L Device:R_Small R8
U 1 1 61589D63
P 4700 3900
F 0 "R8" V 4600 3800 50  0000 C CNN
F 1 "2.2k" V 4600 4000 50  0000 C CNN
F 2 "Resistor_SMD:R_0402_1005Metric" H 4700 3900 50  0001 C CNN
F 3 "~" H 4700 3900 50  0001 C CNN
F 4 "±1% 2.2KΩ 1/16W ±100PPM/℃ 0402 CHIP RESISTOR" H 4700 3900 50  0001 C CNN "Description"
F 5 "C25879" H 4700 3900 50  0001 C CNN "LCSC"
F 6 "UNI-ROYAL(Uniroyal Elec)" H 4700 3900 50  0001 C CNN "Manufacturer_Name"
F 7 "0402WGF2201TCE" H 4700 3900 50  0001 C CNN "Manufacturer_Part_Number"
	1    4700 3900
	0    1    1    0   
$EndComp
Wire Wire Line
	4800 3300 5000 3300
Wire Wire Line
	5000 3500 4800 3500
Wire Wire Line
	4800 3700 5000 3700
Wire Wire Line
	4800 3900 5000 3900
$Comp
L Device:R_Small R9
U 1 1 615A1E96
P 4700 5400
F 0 "R9" V 4600 5300 50  0000 C CNN
F 1 "2.2k" V 4600 5500 50  0000 C CNN
F 2 "Resistor_SMD:R_0402_1005Metric" H 4700 5400 50  0001 C CNN
F 3 "~" H 4700 5400 50  0001 C CNN
F 4 "±1% 2.2KΩ 1/16W ±100PPM/℃ 0402 CHIP RESISTOR" H 4700 5400 50  0001 C CNN "Description"
F 5 "C25879" H 4700 5400 50  0001 C CNN "LCSC"
F 6 "UNI-ROYAL(Uniroyal Elec)" H 4700 5400 50  0001 C CNN "Manufacturer_Name"
F 7 "0402WGF2201TCE" H 4700 5400 50  0001 C CNN "Manufacturer_Part_Number"
	1    4700 5400
	0    1    1    0   
$EndComp
$Comp
L Device:R_Small R10
U 1 1 615A25D4
P 4700 5600
F 0 "R10" V 4600 5500 50  0000 C CNN
F 1 "2.2k" V 4600 5700 50  0000 C CNN
F 2 "Resistor_SMD:R_0402_1005Metric" H 4700 5600 50  0001 C CNN
F 3 "~" H 4700 5600 50  0001 C CNN
F 4 "±1% 2.2KΩ 1/16W ±100PPM/℃ 0402 CHIP RESISTOR" H 4700 5600 50  0001 C CNN "Description"
F 5 "C25879" H 4700 5600 50  0001 C CNN "LCSC"
F 6 "UNI-ROYAL(Uniroyal Elec)" H 4700 5600 50  0001 C CNN "Manufacturer_Name"
F 7 "0402WGF2201TCE" H 4700 5600 50  0001 C CNN "Manufacturer_Part_Number"
	1    4700 5600
	0    1    1    0   
$EndComp
$Comp
L Device:R_Small R11
U 1 1 615A25DE
P 4700 5800
F 0 "R11" V 4600 5700 50  0000 C CNN
F 1 "2.2k" V 4600 5900 50  0000 C CNN
F 2 "Resistor_SMD:R_0402_1005Metric" H 4700 5800 50  0001 C CNN
F 3 "~" H 4700 5800 50  0001 C CNN
F 4 "±1% 2.2KΩ 1/16W ±100PPM/℃ 0402 CHIP RESISTOR" H 4700 5800 50  0001 C CNN "Description"
F 5 "C25879" H 4700 5800 50  0001 C CNN "LCSC"
F 6 "UNI-ROYAL(Uniroyal Elec)" H 4700 5800 50  0001 C CNN "Manufacturer_Name"
F 7 "0402WGF2201TCE" H 4700 5800 50  0001 C CNN "Manufacturer_Part_Number"
	1    4700 5800
	0    1    1    0   
$EndComp
$Comp
L Device:R_Small R12
U 1 1 615A25E8
P 4700 6000
F 0 "R12" V 4600 5900 50  0000 C CNN
F 1 "2.2k" V 4600 6100 50  0000 C CNN
F 2 "Resistor_SMD:R_0402_1005Metric" H 4700 6000 50  0001 C CNN
F 3 "~" H 4700 6000 50  0001 C CNN
F 4 "±1% 2.2KΩ 1/16W ±100PPM/℃ 0402 CHIP RESISTOR" H 4700 6000 50  0001 C CNN "Description"
F 5 "C25879" H 4700 6000 50  0001 C CNN "LCSC"
F 6 "UNI-ROYAL(Uniroyal Elec)" H 4700 6000 50  0001 C CNN "Manufacturer_Name"
F 7 "0402WGF2201TCE" H 4700 6000 50  0001 C CNN "Manufacturer_Part_Number"
	1    4700 6000
	0    1    1    0   
$EndComp
Wire Wire Line
	4800 5400 5000 5400
Wire Wire Line
	5000 5600 4800 5600
Wire Wire Line
	4800 5800 5000 5800
Wire Wire Line
	4800 6000 5000 6000
$Comp
L Device:R_Small R13
U 1 1 615BA5F1
P 4700 6600
F 0 "R13" V 4600 6500 50  0000 C CNN
F 1 "2.2k" V 4600 6700 50  0000 C CNN
F 2 "Resistor_SMD:R_0402_1005Metric" H 4700 6600 50  0001 C CNN
F 3 "~" H 4700 6600 50  0001 C CNN
F 4 "±1% 2.2KΩ 1/16W ±100PPM/℃ 0402 CHIP RESISTOR" H 4700 6600 50  0001 C CNN "Description"
F 5 "C25879" H 4700 6600 50  0001 C CNN "LCSC"
F 6 "UNI-ROYAL(Uniroyal Elec)" H 4700 6600 50  0001 C CNN "Manufacturer_Name"
F 7 "0402WGF2201TCE" H 4700 6600 50  0001 C CNN "Manufacturer_Part_Number"
	1    4700 6600
	0    1    1    0   
$EndComp
$Comp
L Device:R_Small R14
U 1 1 615BAD6F
P 4700 6800
F 0 "R14" V 4600 6700 50  0000 C CNN
F 1 "2.2k" V 4600 6900 50  0000 C CNN
F 2 "Resistor_SMD:R_0402_1005Metric" H 4700 6800 50  0001 C CNN
F 3 "~" H 4700 6800 50  0001 C CNN
F 4 "±1% 2.2KΩ 1/16W ±100PPM/℃ 0402 CHIP RESISTOR" H 4700 6800 50  0001 C CNN "Description"
F 5 "C25879" H 4700 6800 50  0001 C CNN "LCSC"
F 6 "UNI-ROYAL(Uniroyal Elec)" H 4700 6800 50  0001 C CNN "Manufacturer_Name"
F 7 "0402WGF2201TCE" H 4700 6800 50  0001 C CNN "Manufacturer_Part_Number"
	1    4700 6800
	0    1    1    0   
$EndComp
$Comp
L Device:R_Small R15
U 1 1 615BAD79
P 4700 7000
F 0 "R15" V 4600 6900 50  0000 C CNN
F 1 "2.2k" V 4600 7100 50  0000 C CNN
F 2 "Resistor_SMD:R_0402_1005Metric" H 4700 7000 50  0001 C CNN
F 3 "~" H 4700 7000 50  0001 C CNN
F 4 "±1% 2.2KΩ 1/16W ±100PPM/℃ 0402 CHIP RESISTOR" H 4700 7000 50  0001 C CNN "Description"
F 5 "C25879" H 4700 7000 50  0001 C CNN "LCSC"
F 6 "UNI-ROYAL(Uniroyal Elec)" H 4700 7000 50  0001 C CNN "Manufacturer_Name"
F 7 "0402WGF2201TCE" H 4700 7000 50  0001 C CNN "Manufacturer_Part_Number"
	1    4700 7000
	0    1    1    0   
$EndComp
$Comp
L Device:R_Small R16
U 1 1 615BAD83
P 4700 7200
F 0 "R16" V 4600 7100 50  0000 C CNN
F 1 "2.2k" V 4600 7300 50  0000 C CNN
F 2 "Resistor_SMD:R_0402_1005Metric" H 4700 7200 50  0001 C CNN
F 3 "~" H 4700 7200 50  0001 C CNN
F 4 "±1% 2.2KΩ 1/16W ±100PPM/℃ 0402 CHIP RESISTOR" H 4700 7200 50  0001 C CNN "Description"
F 5 "C25879" H 4700 7200 50  0001 C CNN "LCSC"
F 6 "UNI-ROYAL(Uniroyal Elec)" H 4700 7200 50  0001 C CNN "Manufacturer_Name"
F 7 "0402WGF2201TCE" H 4700 7200 50  0001 C CNN "Manufacturer_Part_Number"
	1    4700 7200
	0    1    1    0   
$EndComp
Wire Wire Line
	4800 6600 5000 6600
Wire Wire Line
	5000 6800 4800 6800
Wire Wire Line
	4800 7000 5000 7000
Wire Wire Line
	4800 7200 5000 7200
Wire Wire Line
	4600 7200 4300 7200
Wire Wire Line
	4300 7200 4300 6700
Wire Wire Line
	4600 7000 4350 7000
Wire Wire Line
	4350 7000 4350 6600
Wire Wire Line
	3600 6600 4350 6600
Wire Wire Line
	4600 6800 4400 6800
Wire Wire Line
	4400 6800 4400 6500
Wire Wire Line
	3600 6500 4400 6500
Wire Wire Line
	4600 6600 4450 6600
Wire Wire Line
	4450 6600 4450 6400
Wire Wire Line
	3600 6400 4450 6400
Wire Wire Line
	4450 6300 4450 6000
Wire Wire Line
	4450 6000 4600 6000
Wire Wire Line
	3600 6300 4450 6300
Wire Wire Line
	4600 5800 4400 5800
Wire Wire Line
	4400 5800 4400 6200
Wire Wire Line
	3600 6200 4400 6200
Wire Wire Line
	4350 6100 4350 5600
Wire Wire Line
	4350 5600 4600 5600
Wire Wire Line
	3600 6100 4350 6100
Wire Wire Line
	4600 5400 4300 5400
Wire Wire Line
	4300 5400 4300 6000
Wire Wire Line
	3600 6000 4300 6000
Wire Wire Line
	4600 3300 4450 3300
Wire Wire Line
	4450 3300 4450 3100
Wire Wire Line
	3600 3100 4450 3100
Wire Wire Line
	4600 3500 4400 3500
Wire Wire Line
	4400 3500 4400 3200
Wire Wire Line
	3600 3200 4400 3200
Wire Wire Line
	4350 3300 4350 3700
Wire Wire Line
	4350 3700 4600 3700
Wire Wire Line
	3600 3300 4350 3300
Wire Wire Line
	4600 3900 4300 3900
Wire Wire Line
	4300 3900 4300 3400
Wire Wire Line
	3600 3400 4300 3400
Wire Wire Line
	4450 3000 4450 2700
Wire Wire Line
	4450 2700 4600 2700
Wire Wire Line
	3600 3000 4450 3000
Wire Wire Line
	4600 2500 4400 2500
Wire Wire Line
	4400 2500 4400 2900
Wire Wire Line
	3600 2900 4400 2900
Wire Wire Line
	4350 2800 4350 2300
Wire Wire Line
	4350 2300 4600 2300
Wire Wire Line
	3600 2800 4350 2800
Wire Wire Line
	4600 2100 4300 2100
Wire Wire Line
	4300 2100 4300 2700
Wire Wire Line
	3600 2700 4300 2700
Text GLabel 8000 1950 2    50   Output ~ 0
DIG_OUT_CH1
Text GLabel 13450 1350 0    50   Input ~ 0
DIG_OUT_CH1
Wire Wire Line
	13450 1350 13550 1350
$Comp
L Regulator_Switching:TSR_1-2490 U2
U 1 1 61599B46
P 14250 4700
F 0 "U2" H 14250 5067 50  0000 C CNN
F 1 "TSR_1-2490" H 14250 4976 50  0000 C CNN
F 2 "Converter_DCDC:Converter_DCDC_TRACO_TSR-1_THT" H 14250 4550 50  0001 L CIN
F 3 "http://www.tracopower.com/products/tsr1.pdf" H 14250 4700 50  0001 C CNN
F 4 "---" H 14250 4700 50  0001 C CNN "LCSC"
	1    14250 4700
	1    0    0    -1  
$EndComp
$Comp
L power:+24V #PWR025
U 1 1 6159B5BF
P 13750 4550
F 0 "#PWR025" H 13750 4400 50  0001 C CNN
F 1 "+24V" H 13765 4723 50  0000 C CNN
F 2 "" H 13750 4550 50  0001 C CNN
F 3 "" H 13750 4550 50  0001 C CNN
	1    13750 4550
	1    0    0    -1  
$EndComp
$Comp
L power:+9V #PWR026
U 1 1 6159BEE8
P 14750 4550
F 0 "#PWR026" H 14750 4400 50  0001 C CNN
F 1 "+9V" H 14765 4723 50  0000 C CNN
F 2 "" H 14750 4550 50  0001 C CNN
F 3 "" H 14750 4550 50  0001 C CNN
	1    14750 4550
	1    0    0    -1  
$EndComp
Wire Wire Line
	13750 4550 13750 4600
Wire Wire Line
	13750 4600 13850 4600
Wire Wire Line
	14750 4550 14750 4600
Wire Wire Line
	14750 4600 14650 4600
$Comp
L power:+9V #PWR01
U 1 1 615BCAC6
P 6700 1400
F 0 "#PWR01" H 6700 1250 50  0001 C CNN
F 1 "+9V" H 6715 1573 50  0000 C CNN
F 2 "" H 6700 1400 50  0001 C CNN
F 3 "" H 6700 1400 50  0001 C CNN
	1    6700 1400
	1    0    0    -1  
$EndComp
$Comp
L power:+9V #PWR027
U 1 1 615BD41C
P 6700 4700
F 0 "#PWR027" H 6700 4550 50  0001 C CNN
F 1 "+9V" H 6715 4873 50  0000 C CNN
F 2 "" H 6700 4700 50  0001 C CNN
F 3 "" H 6700 4700 50  0001 C CNN
	1    6700 4700
	1    0    0    -1  
$EndComp
$Comp
L power:GND #PWR028
U 1 1 615BE618
P 14250 4900
F 0 "#PWR028" H 14250 4650 50  0001 C CNN
F 1 "GND" H 14255 4727 50  0000 C CNN
F 2 "" H 14250 4900 50  0001 C CNN
F 3 "" H 14250 4900 50  0001 C CNN
	1    14250 4900
	1    0    0    -1  
$EndComp
$Comp
L Transistor_FET:IRF7324 Q1
U 1 1 615E52F4
P 7800 1650
F 0 "Q1" H 8004 1604 50  0000 L CNN
F 1 "APM4953KC-TRG" H 8004 1695 50  0000 L CNN
F 2 "Package_SO:SOIC-8_3.9x4.9mm_P1.27mm" H 8000 1575 50  0001 L CNN
F 3 "https://datasheet.lcsc.com/lcsc/1810201610_Anpec-Elec-APM4953KC-TRG_C20897.pdf" H 7900 1650 50  0001 L CNN
F 4 "0.06Ω 4.9A,10V 2V 250uA 4.9A 2.5W 30V Dual P-Channel SOP-8 MOSFETs" H 7800 1650 50  0001 C CNN "Description"
F 5 "C20897" H 7800 1650 50  0001 C CNN "LCSC"
F 6 "0;0;-90" H 7800 1650 50  0001 C CNN "JLCPCB_CORRECTION"
F 7 "APM4953KC-TRG" H 7800 1650 50  0001 C CNN "Manufacturer_Part_Number"
	1    7800 1650
	1    0    0    1   
$EndComp
$Comp
L Transistor_FET:IRF7324 Q1
U 2 1 615E6FE4
P 9100 1650
F 0 "Q1" H 9304 1604 50  0000 L CNN
F 1 "APM4953KC-TRG" H 9304 1695 50  0000 L CNN
F 2 "Package_SO:SOIC-8_3.9x4.9mm_P1.27mm" H 9300 1575 50  0001 L CNN
F 3 "https://datasheet.lcsc.com/lcsc/1810201610_Anpec-Elec-APM4953KC-TRG_C20897.pdf" H 9200 1650 50  0001 L CNN
F 4 "0.06Ω 4.9A,10V 2V 250uA 4.9A 2.5W 30V Dual P-Channel SOP-8 MOSFETs" H 9100 1650 50  0001 C CNN "Description"
F 5 "C20897" H 9100 1650 50  0001 C CNN "LCSC"
F 6 "0;0;-90" H 9100 1650 50  0001 C CNN "JLCPCB_CORRECTION"
F 7 "APM4953KC-TRG" H 9100 1650 50  0001 C CNN "Manufacturer_Part_Number"
	2    9100 1650
	1    0    0    1   
$EndComp
Wire Wire Line
	6000 1800 6000 2100
Connection ~ 6000 2100
Wire Wire Line
	6000 2100 7000 2100
Wire Wire Line
	6100 1800 6100 2300
Connection ~ 6100 2300
Wire Wire Line
	6100 2300 5900 2300
Wire Wire Line
	6200 1800 6200 2500
Connection ~ 6200 2500
Wire Wire Line
	6200 2500 7000 2500
Wire Wire Line
	6300 1800 6300 2700
Connection ~ 6300 2700
Wire Wire Line
	6300 2700 7000 2700
Wire Wire Line
	6400 1800 6400 3300
Connection ~ 6400 3300
Wire Wire Line
	6400 3300 5900 3300
Wire Wire Line
	6500 1800 6500 3500
Connection ~ 6500 3500
Wire Wire Line
	6500 3500 7000 3500
Wire Wire Line
	6600 1800 6600 3700
Connection ~ 6600 3700
Wire Wire Line
	6600 3700 5900 3700
Wire Wire Line
	6700 1800 6700 3900
Connection ~ 6700 3900
Wire Wire Line
	6700 3900 7000 3900
Text Label 7000 2100 2    50   ~ 0
OUT1
Text Label 7000 2300 2    50   ~ 0
OUT2
Text Label 7000 2500 2    50   ~ 0
OUT3
Text Label 7000 2700 2    50   ~ 0
OUT4
Text Label 7000 3300 2    50   ~ 0
OUT5
Text Label 7000 3500 2    50   ~ 0
OUT6
Text Label 7000 3700 2    50   ~ 0
OUT7
Text Label 7000 3900 2    50   ~ 0
OUT8
Text Label 7000 5400 2    50   ~ 0
OUT9
Text Label 7000 5600 2    50   ~ 0
OUT10
Text Label 7000 5800 2    50   ~ 0
OUT11
Text Label 7000 6000 2    50   ~ 0
OUT12
Text Label 7000 6600 2    50   ~ 0
OUT13
Text Label 7000 6800 2    50   ~ 0
OUT14
Text Label 7000 7000 2    50   ~ 0
OUT15
Text Label 7000 7200 2    50   ~ 0
OUT16
Wire Wire Line
	7350 1650 7600 1650
Text Label 7350 1650 0    50   ~ 0
OUT1
Wire Wire Line
	8650 1650 8900 1650
Text Label 8650 1650 0    50   ~ 0
OUT2
Wire Wire Line
	8000 1950 7900 1950
Wire Wire Line
	7900 1950 7900 1850
Wire Wire Line
	9300 1950 9200 1950
Wire Wire Line
	9200 1950 9200 1850
$Comp
L power:+24V #PWR02
U 1 1 6188B3F3
P 7900 1450
F 0 "#PWR02" H 7900 1300 50  0001 C CNN
F 1 "+24V" H 7915 1623 50  0000 C CNN
F 2 "" H 7900 1450 50  0001 C CNN
F 3 "" H 7900 1450 50  0001 C CNN
	1    7900 1450
	1    0    0    -1  
$EndComp
$Comp
L power:+24V #PWR03
U 1 1 6188BBAB
P 9200 1450
F 0 "#PWR03" H 9200 1300 50  0001 C CNN
F 1 "+24V" H 9215 1623 50  0000 C CNN
F 2 "" H 9200 1450 50  0001 C CNN
F 3 "" H 9200 1450 50  0001 C CNN
	1    9200 1450
	1    0    0    -1  
$EndComp
Text GLabel 12000 1950 2    50   Output ~ 0
DIG_OUT_CH4
Text GLabel 10700 1950 2    50   Output ~ 0
DIG_OUT_CH3
$Comp
L Transistor_FET:IRF7324 Q2
U 1 1 618FE307
P 10500 1650
F 0 "Q2" H 10704 1604 50  0000 L CNN
F 1 "APM4953KC-TRG" H 10704 1695 50  0000 L CNN
F 2 "Package_SO:SOIC-8_3.9x4.9mm_P1.27mm" H 10700 1575 50  0001 L CNN
F 3 "https://datasheet.lcsc.com/lcsc/1810201610_Anpec-Elec-APM4953KC-TRG_C20897.pdf" H 10600 1650 50  0001 L CNN
F 4 "0.06Ω 4.9A,10V 2V 250uA 4.9A 2.5W 30V Dual P-Channel SOP-8 MOSFETs" H 10500 1650 50  0001 C CNN "Description"
F 5 "C20897" H 10500 1650 50  0001 C CNN "LCSC"
F 6 "0;0;-90" H 10500 1650 50  0001 C CNN "JLCPCB_CORRECTION"
F 7 "APM4953KC-TRG" H 10500 1650 50  0001 C CNN "Manufacturer_Part_Number"
	1    10500 1650
	1    0    0    1   
$EndComp
$Comp
L Transistor_FET:IRF7324 Q2
U 2 1 618FE311
P 11800 1650
F 0 "Q2" H 12004 1604 50  0000 L CNN
F 1 "APM4953KC-TRG" H 12004 1695 50  0000 L CNN
F 2 "Package_SO:SOIC-8_3.9x4.9mm_P1.27mm" H 12000 1575 50  0001 L CNN
F 3 "https://datasheet.lcsc.com/lcsc/1810201610_Anpec-Elec-APM4953KC-TRG_C20897.pdf" H 11900 1650 50  0001 L CNN
F 4 "0.06Ω 4.9A,10V 2V 250uA 4.9A 2.5W 30V Dual P-Channel SOP-8 MOSFETs" H 11800 1650 50  0001 C CNN "Description"
F 5 "C20897" H 11800 1650 50  0001 C CNN "LCSC"
F 6 "0;0;-90" H 11800 1650 50  0001 C CNN "JLCPCB_CORRECTION"
F 7 "APM4953KC-TRG" H 11800 1650 50  0001 C CNN "Manufacturer_Part_Number"
	2    11800 1650
	1    0    0    1   
$EndComp
Wire Wire Line
	10050 1650 10300 1650
Text Label 10050 1650 0    50   ~ 0
OUT3
Wire Wire Line
	11350 1650 11600 1650
Text Label 11350 1650 0    50   ~ 0
OUT4
Wire Wire Line
	10700 1950 10600 1950
Wire Wire Line
	10600 1950 10600 1850
Wire Wire Line
	12000 1950 11900 1950
Wire Wire Line
	11900 1950 11900 1850
$Comp
L power:+24V #PWR04
U 1 1 618FE323
P 10600 1450
F 0 "#PWR04" H 10600 1300 50  0001 C CNN
F 1 "+24V" H 10615 1623 50  0000 C CNN
F 2 "" H 10600 1450 50  0001 C CNN
F 3 "" H 10600 1450 50  0001 C CNN
	1    10600 1450
	1    0    0    -1  
$EndComp
$Comp
L power:+24V #PWR05
U 1 1 618FE32D
P 11900 1450
F 0 "#PWR05" H 11900 1300 50  0001 C CNN
F 1 "+24V" H 11915 1623 50  0000 C CNN
F 2 "" H 11900 1450 50  0001 C CNN
F 3 "" H 11900 1450 50  0001 C CNN
	1    11900 1450
	1    0    0    -1  
$EndComp
Text GLabel 9300 3600 2    50   Output ~ 0
DIG_OUT_CH6
Text GLabel 8000 3600 2    50   Output ~ 0
DIG_OUT_CH5
$Comp
L Transistor_FET:IRF7324 Q5
U 1 1 61915187
P 7800 3300
F 0 "Q5" H 8004 3254 50  0000 L CNN
F 1 "APM4953KC-TRG" H 8004 3345 50  0000 L CNN
F 2 "Package_SO:SOIC-8_3.9x4.9mm_P1.27mm" H 8000 3225 50  0001 L CNN
F 3 "https://datasheet.lcsc.com/lcsc/1810201610_Anpec-Elec-APM4953KC-TRG_C20897.pdf" H 7900 3300 50  0001 L CNN
F 4 "0.06Ω 4.9A,10V 2V 250uA 4.9A 2.5W 30V Dual P-Channel SOP-8 MOSFETs" H 7800 3300 50  0001 C CNN "Description"
F 5 "C20897" H 7800 3300 50  0001 C CNN "LCSC"
F 6 "0;0;-90" H 7800 3300 50  0001 C CNN "JLCPCB_CORRECTION"
F 7 "APM4953KC-TRG" H 7800 3300 50  0001 C CNN "Manufacturer_Part_Number"
	1    7800 3300
	1    0    0    1   
$EndComp
$Comp
L Transistor_FET:IRF7324 Q5
U 2 1 61915191
P 9100 3300
F 0 "Q5" H 9304 3254 50  0000 L CNN
F 1 "APM4953KC-TRG" H 9304 3345 50  0000 L CNN
F 2 "Package_SO:SOIC-8_3.9x4.9mm_P1.27mm" H 9300 3225 50  0001 L CNN
F 3 "https://datasheet.lcsc.com/lcsc/1810201610_Anpec-Elec-APM4953KC-TRG_C20897.pdf" H 9200 3300 50  0001 L CNN
F 4 "0.06Ω 4.9A,10V 2V 250uA 4.9A 2.5W 30V Dual P-Channel SOP-8 MOSFETs" H 9100 3300 50  0001 C CNN "Description"
F 5 "C20897" H 9100 3300 50  0001 C CNN "LCSC"
F 6 "0;0;-90" H 9100 3300 50  0001 C CNN "JLCPCB_CORRECTION"
F 7 "APM4953KC-TRG" H 9100 3300 50  0001 C CNN "Manufacturer_Part_Number"
	2    9100 3300
	1    0    0    1   
$EndComp
Wire Wire Line
	7350 3300 7600 3300
Text Label 7350 3300 0    50   ~ 0
OUT5
Wire Wire Line
	8650 3300 8900 3300
Text Label 8650 3300 0    50   ~ 0
OUT6
Wire Wire Line
	8000 3600 7900 3600
Wire Wire Line
	7900 3600 7900 3500
Wire Wire Line
	9300 3600 9200 3600
Wire Wire Line
	9200 3600 9200 3500
$Comp
L power:+24V #PWR014
U 1 1 619151A3
P 7900 3100
F 0 "#PWR014" H 7900 2950 50  0001 C CNN
F 1 "+24V" H 7915 3273 50  0000 C CNN
F 2 "" H 7900 3100 50  0001 C CNN
F 3 "" H 7900 3100 50  0001 C CNN
	1    7900 3100
	1    0    0    -1  
$EndComp
$Comp
L power:+24V #PWR015
U 1 1 619151AD
P 9200 3100
F 0 "#PWR015" H 9200 2950 50  0001 C CNN
F 1 "+24V" H 9215 3273 50  0000 C CNN
F 2 "" H 9200 3100 50  0001 C CNN
F 3 "" H 9200 3100 50  0001 C CNN
	1    9200 3100
	1    0    0    -1  
$EndComp
Text GLabel 12000 3600 2    50   Output ~ 0
DIG_OUT_CH8
Text GLabel 10700 3600 2    50   Output ~ 0
DIG_OUT_CH7
$Comp
L Transistor_FET:IRF7324 Q6
U 1 1 619151B9
P 10500 3300
F 0 "Q6" H 10704 3254 50  0000 L CNN
F 1 "APM4953KC-TRG" H 10704 3345 50  0000 L CNN
F 2 "Package_SO:SOIC-8_3.9x4.9mm_P1.27mm" H 10700 3225 50  0001 L CNN
F 3 "https://datasheet.lcsc.com/lcsc/1810201610_Anpec-Elec-APM4953KC-TRG_C20897.pdf" H 10600 3300 50  0001 L CNN
F 4 "0.06Ω 4.9A,10V 2V 250uA 4.9A 2.5W 30V Dual P-Channel SOP-8 MOSFETs" H 10500 3300 50  0001 C CNN "Description"
F 5 "C20897" H 10500 3300 50  0001 C CNN "LCSC"
F 6 "0;0;-90" H 10500 3300 50  0001 C CNN "JLCPCB_CORRECTION"
F 7 "APM4953KC-TRG" H 10500 3300 50  0001 C CNN "Manufacturer_Part_Number"
	1    10500 3300
	1    0    0    1   
$EndComp
$Comp
L Transistor_FET:IRF7324 Q6
U 2 1 619151C3
P 11800 3300
F 0 "Q6" H 12004 3254 50  0000 L CNN
F 1 "APM4953KC-TRG" H 12004 3345 50  0000 L CNN
F 2 "Package_SO:SOIC-8_3.9x4.9mm_P1.27mm" H 12000 3225 50  0001 L CNN
F 3 "https://datasheet.lcsc.com/lcsc/1810201610_Anpec-Elec-APM4953KC-TRG_C20897.pdf" H 11900 3300 50  0001 L CNN
F 4 "0.06Ω 4.9A,10V 2V 250uA 4.9A 2.5W 30V Dual P-Channel SOP-8 MOSFETs" H 11800 3300 50  0001 C CNN "Description"
F 5 "C20897" H 11800 3300 50  0001 C CNN "LCSC"
F 6 "0;0;-90" H 11800 3300 50  0001 C CNN "JLCPCB_CORRECTION"
F 7 "APM4953KC-TRG" H 11800 3300 50  0001 C CNN "Manufacturer_Part_Number"
	2    11800 3300
	1    0    0    1   
$EndComp
Wire Wire Line
	10050 3300 10300 3300
Text Label 10050 3300 0    50   ~ 0
OUT7
Wire Wire Line
	11350 3300 11600 3300
Text Label 11350 3300 0    50   ~ 0
OUT8
Wire Wire Line
	10700 3600 10600 3600
Wire Wire Line
	10600 3600 10600 3500
Wire Wire Line
	12000 3600 11900 3600
Wire Wire Line
	11900 3600 11900 3500
$Comp
L power:+24V #PWR016
U 1 1 619151D5
P 10600 3100
F 0 "#PWR016" H 10600 2950 50  0001 C CNN
F 1 "+24V" H 10615 3273 50  0000 C CNN
F 2 "" H 10600 3100 50  0001 C CNN
F 3 "" H 10600 3100 50  0001 C CNN
	1    10600 3100
	1    0    0    -1  
$EndComp
$Comp
L power:+24V #PWR017
U 1 1 619151DF
P 11900 3100
F 0 "#PWR017" H 11900 2950 50  0001 C CNN
F 1 "+24V" H 11915 3273 50  0000 C CNN
F 2 "" H 11900 3100 50  0001 C CNN
F 3 "" H 11900 3100 50  0001 C CNN
	1    11900 3100
	1    0    0    -1  
$EndComp
Text GLabel 9300 5450 2    50   Output ~ 0
DIG_OUT_CH10
Text GLabel 8000 5450 2    50   Output ~ 0
DIG_OUT_CH9
$Comp
L Transistor_FET:IRF7324 Q7
U 1 1 61957B36
P 7800 5150
F 0 "Q7" H 8004 5104 50  0000 L CNN
F 1 "APM4953KC-TRG" H 8004 5195 50  0000 L CNN
F 2 "Package_SO:SOIC-8_3.9x4.9mm_P1.27mm" H 8000 5075 50  0001 L CNN
F 3 "https://datasheet.lcsc.com/lcsc/1810201610_Anpec-Elec-APM4953KC-TRG_C20897.pdf" H 7900 5150 50  0001 L CNN
F 4 "0.06Ω 4.9A,10V 2V 250uA 4.9A 2.5W 30V Dual P-Channel SOP-8 MOSFETs" H 7800 5150 50  0001 C CNN "Description"
F 5 "C20897" H 7800 5150 50  0001 C CNN "LCSC"
F 6 "0;0;-90" H 7800 5150 50  0001 C CNN "JLCPCB_CORRECTION"
F 7 "APM4953KC-TRG" H 7800 5150 50  0001 C CNN "Manufacturer_Part_Number"
	1    7800 5150
	1    0    0    1   
$EndComp
$Comp
L Transistor_FET:IRF7324 Q7
U 2 1 61957B40
P 9100 5150
F 0 "Q7" H 9304 5104 50  0000 L CNN
F 1 "APM4953KC-TRG" H 9304 5195 50  0000 L CNN
F 2 "Package_SO:SOIC-8_3.9x4.9mm_P1.27mm" H 9300 5075 50  0001 L CNN
F 3 "https://datasheet.lcsc.com/lcsc/1810201610_Anpec-Elec-APM4953KC-TRG_C20897.pdf" H 9200 5150 50  0001 L CNN
F 4 "0.06Ω 4.9A,10V 2V 250uA 4.9A 2.5W 30V Dual P-Channel SOP-8 MOSFETs" H 9100 5150 50  0001 C CNN "Description"
F 5 "C20897" H 9100 5150 50  0001 C CNN "LCSC"
F 6 "0;0;-90" H 9100 5150 50  0001 C CNN "JLCPCB_CORRECTION"
F 7 "APM4953KC-TRG" H 9100 5150 50  0001 C CNN "Manufacturer_Part_Number"
	2    9100 5150
	1    0    0    1   
$EndComp
Wire Wire Line
	7350 5150 7600 5150
Text Label 7350 5150 0    50   ~ 0
OUT9
Wire Wire Line
	8650 5150 8900 5150
Text Label 8650 5150 0    50   ~ 0
OUT10
Wire Wire Line
	8000 5450 7900 5450
Wire Wire Line
	7900 5450 7900 5350
Wire Wire Line
	9300 5450 9200 5450
Wire Wire Line
	9200 5450 9200 5350
$Comp
L power:+24V #PWR029
U 1 1 61957B52
P 7900 4950
F 0 "#PWR029" H 7900 4800 50  0001 C CNN
F 1 "+24V" H 7915 5123 50  0000 C CNN
F 2 "" H 7900 4950 50  0001 C CNN
F 3 "" H 7900 4950 50  0001 C CNN
	1    7900 4950
	1    0    0    -1  
$EndComp
$Comp
L power:+24V #PWR030
U 1 1 61957B5C
P 9200 4950
F 0 "#PWR030" H 9200 4800 50  0001 C CNN
F 1 "+24V" H 9215 5123 50  0000 C CNN
F 2 "" H 9200 4950 50  0001 C CNN
F 3 "" H 9200 4950 50  0001 C CNN
	1    9200 4950
	1    0    0    -1  
$EndComp
Text GLabel 12000 5450 2    50   Output ~ 0
DIG_OUT_CH12
Text GLabel 10700 5450 2    50   Output ~ 0
DIG_OUT_CH11
$Comp
L Transistor_FET:IRF7324 Q8
U 1 1 61957B68
P 10500 5150
F 0 "Q8" H 10704 5104 50  0000 L CNN
F 1 "APM4953KC-TRG" H 10704 5195 50  0000 L CNN
F 2 "Package_SO:SOIC-8_3.9x4.9mm_P1.27mm" H 10700 5075 50  0001 L CNN
F 3 "https://datasheet.lcsc.com/lcsc/1810201610_Anpec-Elec-APM4953KC-TRG_C20897.pdf" H 10600 5150 50  0001 L CNN
F 4 "0.06Ω 4.9A,10V 2V 250uA 4.9A 2.5W 30V Dual P-Channel SOP-8 MOSFETs" H 10500 5150 50  0001 C CNN "Description"
F 5 "C20897" H 10500 5150 50  0001 C CNN "LCSC"
F 6 "0;0;-90" H 10500 5150 50  0001 C CNN "JLCPCB_CORRECTION"
F 7 "APM4953KC-TRG" H 10500 5150 50  0001 C CNN "Manufacturer_Part_Number"
	1    10500 5150
	1    0    0    1   
$EndComp
$Comp
L Transistor_FET:IRF7324 Q8
U 2 1 61957B72
P 11800 5150
F 0 "Q8" H 12004 5104 50  0000 L CNN
F 1 "APM4953KC-TRG" H 12004 5195 50  0000 L CNN
F 2 "Package_SO:SOIC-8_3.9x4.9mm_P1.27mm" H 12000 5075 50  0001 L CNN
F 3 "https://datasheet.lcsc.com/lcsc/1810201610_Anpec-Elec-APM4953KC-TRG_C20897.pdf" H 11900 5150 50  0001 L CNN
F 4 "0.06Ω 4.9A,10V 2V 250uA 4.9A 2.5W 30V Dual P-Channel SOP-8 MOSFETs" H 11800 5150 50  0001 C CNN "Description"
F 5 "C20897" H 11800 5150 50  0001 C CNN "LCSC"
F 6 "0;0;-90" H 11800 5150 50  0001 C CNN "JLCPCB_CORRECTION"
F 7 "APM4953KC-TRG" H 11800 5150 50  0001 C CNN "Manufacturer_Part_Number"
	2    11800 5150
	1    0    0    1   
$EndComp
Wire Wire Line
	10050 5150 10300 5150
Text Label 10050 5150 0    50   ~ 0
OUT11
Wire Wire Line
	11350 5150 11600 5150
Text Label 11350 5150 0    50   ~ 0
OUT12
Wire Wire Line
	10700 5450 10600 5450
Wire Wire Line
	10600 5450 10600 5350
Wire Wire Line
	12000 5450 11900 5450
Wire Wire Line
	11900 5450 11900 5350
$Comp
L power:+24V #PWR031
U 1 1 61957B84
P 10600 4950
F 0 "#PWR031" H 10600 4800 50  0001 C CNN
F 1 "+24V" H 10615 5123 50  0000 C CNN
F 2 "" H 10600 4950 50  0001 C CNN
F 3 "" H 10600 4950 50  0001 C CNN
	1    10600 4950
	1    0    0    -1  
$EndComp
$Comp
L power:+24V #PWR032
U 1 1 61957B8E
P 11900 4950
F 0 "#PWR032" H 11900 4800 50  0001 C CNN
F 1 "+24V" H 11915 5123 50  0000 C CNN
F 2 "" H 11900 4950 50  0001 C CNN
F 3 "" H 11900 4950 50  0001 C CNN
	1    11900 4950
	1    0    0    -1  
$EndComp
Text GLabel 9300 7100 2    50   Output ~ 0
DIG_OUT_CH14
Text GLabel 8000 7100 2    50   Output ~ 0
DIG_OUT_CH13
$Comp
L Transistor_FET:IRF7324 Q11
U 1 1 61957B9A
P 7800 6800
F 0 "Q11" H 8004 6754 50  0000 L CNN
F 1 "APM4953KC-TRG" H 8004 6845 50  0000 L CNN
F 2 "Package_SO:SOIC-8_3.9x4.9mm_P1.27mm" H 8000 6725 50  0001 L CNN
F 3 "https://datasheet.lcsc.com/lcsc/1810201610_Anpec-Elec-APM4953KC-TRG_C20897.pdf" H 7900 6800 50  0001 L CNN
F 4 "0.06Ω 4.9A,10V 2V 250uA 4.9A 2.5W 30V Dual P-Channel SOP-8 MOSFETs" H 7800 6800 50  0001 C CNN "Description"
F 5 "C20897" H 7800 6800 50  0001 C CNN "LCSC"
F 6 "0;0;-90" H 7800 6800 50  0001 C CNN "JLCPCB_CORRECTION"
F 7 "APM4953KC-TRG" H 7800 6800 50  0001 C CNN "Manufacturer_Part_Number"
	1    7800 6800
	1    0    0    1   
$EndComp
$Comp
L Transistor_FET:IRF7324 Q11
U 2 1 61957BA4
P 9100 6800
F 0 "Q11" H 9304 6754 50  0000 L CNN
F 1 "APM4953KC-TRG" H 9304 6845 50  0000 L CNN
F 2 "Package_SO:SOIC-8_3.9x4.9mm_P1.27mm" H 9300 6725 50  0001 L CNN
F 3 "https://datasheet.lcsc.com/lcsc/1810201610_Anpec-Elec-APM4953KC-TRG_C20897.pdf" H 9200 6800 50  0001 L CNN
F 4 "0.06Ω 4.9A,10V 2V 250uA 4.9A 2.5W 30V Dual P-Channel SOP-8 MOSFETs" H 9100 6800 50  0001 C CNN "Description"
F 5 "C20897" H 9100 6800 50  0001 C CNN "LCSC"
F 6 "0;0;-90" H 9100 6800 50  0001 C CNN "JLCPCB_CORRECTION"
F 7 "APM4953KC-TRG" H 9100 6800 50  0001 C CNN "Manufacturer_Part_Number"
	2    9100 6800
	1    0    0    1   
$EndComp
Wire Wire Line
	7350 6800 7600 6800
Text Label 7350 6800 0    50   ~ 0
OUT13
Wire Wire Line
	8650 6800 8900 6800
Text Label 8650 6800 0    50   ~ 0
OUT14
Wire Wire Line
	8000 7100 7900 7100
Wire Wire Line
	7900 7100 7900 7000
Wire Wire Line
	9300 7100 9200 7100
Wire Wire Line
	9200 7100 9200 7000
$Comp
L power:+24V #PWR040
U 1 1 61957D12
P 7900 6600
F 0 "#PWR040" H 7900 6450 50  0001 C CNN
F 1 "+24V" H 7915 6773 50  0000 C CNN
F 2 "" H 7900 6600 50  0001 C CNN
F 3 "" H 7900 6600 50  0001 C CNN
	1    7900 6600
	1    0    0    -1  
$EndComp
$Comp
L power:+24V #PWR041
U 1 1 61957D1C
P 9200 6600
F 0 "#PWR041" H 9200 6450 50  0001 C CNN
F 1 "+24V" H 9215 6773 50  0000 C CNN
F 2 "" H 9200 6600 50  0001 C CNN
F 3 "" H 9200 6600 50  0001 C CNN
	1    9200 6600
	1    0    0    -1  
$EndComp
Text GLabel 12000 7100 2    50   Output ~ 0
DIG_OUT_CH16
Text GLabel 10700 7100 2    50   Output ~ 0
DIG_OUT_CH15
$Comp
L Transistor_FET:IRF7324 Q12
U 1 1 61957D28
P 10500 6800
F 0 "Q12" H 10704 6754 50  0000 L CNN
F 1 "APM4953KC-TRG" H 10704 6845 50  0000 L CNN
F 2 "Package_SO:SOIC-8_3.9x4.9mm_P1.27mm" H 10700 6725 50  0001 L CNN
F 3 "https://datasheet.lcsc.com/lcsc/1810201610_Anpec-Elec-APM4953KC-TRG_C20897.pdf" H 10600 6800 50  0001 L CNN
F 4 "0.06Ω 4.9A,10V 2V 250uA 4.9A 2.5W 30V Dual P-Channel SOP-8 MOSFETs" H 10500 6800 50  0001 C CNN "Description"
F 5 "C20897" H 10500 6800 50  0001 C CNN "LCSC"
F 6 "0;0;-90" H 10500 6800 50  0001 C CNN "JLCPCB_CORRECTION"
F 7 "APM4953KC-TRG" H 10500 6800 50  0001 C CNN "Manufacturer_Part_Number"
	1    10500 6800
	1    0    0    1   
$EndComp
$Comp
L Transistor_FET:IRF7324 Q12
U 2 1 61957D32
P 11800 6800
F 0 "Q12" H 12004 6754 50  0000 L CNN
F 1 "APM4953KC-TRG" H 12004 6845 50  0000 L CNN
F 2 "Package_SO:SOIC-8_3.9x4.9mm_P1.27mm" H 12000 6725 50  0001 L CNN
F 3 "https://datasheet.lcsc.com/lcsc/1810201610_Anpec-Elec-APM4953KC-TRG_C20897.pdf" H 11900 6800 50  0001 L CNN
F 4 "0.06Ω 4.9A,10V 2V 250uA 4.9A 2.5W 30V Dual P-Channel SOP-8 MOSFETs" H 11800 6800 50  0001 C CNN "Description"
F 5 "C20897" H 11800 6800 50  0001 C CNN "LCSC"
F 6 "0;0;-90" H 11800 6800 50  0001 C CNN "JLCPCB_CORRECTION"
F 7 "APM4953KC-TRG" H 11800 6800 50  0001 C CNN "Manufacturer_Part_Number"
	2    11800 6800
	1    0    0    1   
$EndComp
Wire Wire Line
	10050 6800 10300 6800
Text Label 10050 6800 0    50   ~ 0
OUT15
Wire Wire Line
	11350 6800 11600 6800
Text Label 11350 6800 0    50   ~ 0
OUT16
Wire Wire Line
	10700 7100 10600 7100
Wire Wire Line
	10600 7100 10600 7000
Wire Wire Line
	12000 7100 11900 7100
Wire Wire Line
	11900 7100 11900 7000
$Comp
L power:+24V #PWR042
U 1 1 61957D44
P 10600 6600
F 0 "#PWR042" H 10600 6450 50  0001 C CNN
F 1 "+24V" H 10615 6773 50  0000 C CNN
F 2 "" H 10600 6600 50  0001 C CNN
F 3 "" H 10600 6600 50  0001 C CNN
	1    10600 6600
	1    0    0    -1  
$EndComp
$Comp
L power:+24V #PWR043
U 1 1 61957D4E
P 11900 6600
F 0 "#PWR043" H 11900 6450 50  0001 C CNN
F 1 "+24V" H 11915 6773 50  0000 C CNN
F 2 "" H 11900 6600 50  0001 C CNN
F 3 "" H 11900 6600 50  0001 C CNN
	1    11900 6600
	1    0    0    -1  
$EndComp
Wire Wire Line
	6000 5100 6000 5400
Connection ~ 6000 5400
Wire Wire Line
	6000 5400 7000 5400
Wire Wire Line
	6100 5100 6100 5600
Connection ~ 6100 5600
Wire Wire Line
	6100 5600 5900 5600
Wire Wire Line
	6200 5100 6200 5800
Connection ~ 6200 5800
Wire Wire Line
	6200 5800 7000 5800
Wire Wire Line
	6300 5100 6300 6000
Connection ~ 6300 6000
Wire Wire Line
	6300 6000 7000 6000
Wire Wire Line
	6400 5100 6400 6600
Connection ~ 6400 6600
Wire Wire Line
	6400 6600 5900 6600
Wire Wire Line
	6500 5100 6500 6800
Connection ~ 6500 6800
Wire Wire Line
	6500 6800 7000 6800
Wire Wire Line
	6600 5100 6600 7000
Connection ~ 6600 7000
Wire Wire Line
	6600 7000 5900 7000
Wire Wire Line
	6700 5100 6700 7200
Connection ~ 6700 7200
Wire Wire Line
	6700 7200 7000 7200
Text Notes 3000 7850 2    118  ~ 0
Ajouter 1 pin pour 24V ?
$Comp
L Device:D_Schottky_Small D1
U 1 1 61A8813F
P 7900 2150
F 0 "D1" V 7854 2220 50  0000 L CNN
F 1 "D_Schottky_Small" V 7945 2220 50  0000 L CNN
F 2 "Diode_SMD:D_SOD-123" V 7900 2150 50  0001 C CNN
F 3 "~" V 7900 2150 50  0001 C CNN
F 4 "C8598" H 7900 2150 50  0001 C CNN "LCSC"
F 5 "B5819W SL" H 7900 2150 50  0001 C CNN "Manufacturer_Part_Number"
	1    7900 2150
	0    1    1    0   
$EndComp
$Comp
L power:GND #PWR07
U 1 1 61AD754B
P 7900 2250
F 0 "#PWR07" H 7900 2000 50  0001 C CNN
F 1 "GND" H 7905 2077 50  0000 C CNN
F 2 "" H 7900 2250 50  0001 C CNN
F 3 "" H 7900 2250 50  0001 C CNN
	1    7900 2250
	1    0    0    -1  
$EndComp
Wire Wire Line
	7900 2050 7900 1950
Connection ~ 7900 1950
$Comp
L Device:D_Schottky_Small D2
U 1 1 61BE726E
P 9200 2150
F 0 "D2" V 9154 2220 50  0000 L CNN
F 1 "D_Schottky_Small" V 9245 2220 50  0000 L CNN
F 2 "Diode_SMD:D_SOD-123" V 9200 2150 50  0001 C CNN
F 3 "~" V 9200 2150 50  0001 C CNN
F 4 "C8598" H 9200 2150 50  0001 C CNN "LCSC"
F 5 "B5819W SL" H 9200 2150 50  0001 C CNN "Manufacturer_Part_Number"
	1    9200 2150
	0    1    1    0   
$EndComp
$Comp
L power:GND #PWR08
U 1 1 61BE7DBC
P 9200 2250
F 0 "#PWR08" H 9200 2000 50  0001 C CNN
F 1 "GND" H 9205 2077 50  0000 C CNN
F 2 "" H 9200 2250 50  0001 C CNN
F 3 "" H 9200 2250 50  0001 C CNN
	1    9200 2250
	1    0    0    -1  
$EndComp
Wire Wire Line
	9200 2050 9200 1950
Connection ~ 9200 1950
$Comp
L Device:D_Schottky_Small D3
U 1 1 61C02081
P 10600 2150
F 0 "D3" V 10554 2220 50  0000 L CNN
F 1 "D_Schottky_Small" V 10645 2220 50  0000 L CNN
F 2 "Diode_SMD:D_SOD-123" V 10600 2150 50  0001 C CNN
F 3 "~" V 10600 2150 50  0001 C CNN
F 4 "C8598" H 10600 2150 50  0001 C CNN "LCSC"
F 5 "B5819W SL" H 10600 2150 50  0001 C CNN "Manufacturer_Part_Number"
	1    10600 2150
	0    1    1    0   
$EndComp
$Comp
L power:GND #PWR09
U 1 1 61C02BEF
P 10600 2250
F 0 "#PWR09" H 10600 2000 50  0001 C CNN
F 1 "GND" H 10605 2077 50  0000 C CNN
F 2 "" H 10600 2250 50  0001 C CNN
F 3 "" H 10600 2250 50  0001 C CNN
	1    10600 2250
	1    0    0    -1  
$EndComp
Wire Wire Line
	10600 2050 10600 1950
$Comp
L Device:D_Schottky_Small D4
U 1 1 61C02BFA
P 11900 2150
F 0 "D4" V 11854 2220 50  0000 L CNN
F 1 "D_Schottky_Small" V 11945 2220 50  0000 L CNN
F 2 "Diode_SMD:D_SOD-123" V 11900 2150 50  0001 C CNN
F 3 "~" V 11900 2150 50  0001 C CNN
F 4 "C8598" H 11900 2150 50  0001 C CNN "LCSC"
F 5 "B5819W SL" H 11900 2150 50  0001 C CNN "Manufacturer_Part_Number"
	1    11900 2150
	0    1    1    0   
$EndComp
$Comp
L power:GND #PWR010
U 1 1 61C02C04
P 11900 2250
F 0 "#PWR010" H 11900 2000 50  0001 C CNN
F 1 "GND" H 11905 2077 50  0000 C CNN
F 2 "" H 11900 2250 50  0001 C CNN
F 3 "" H 11900 2250 50  0001 C CNN
	1    11900 2250
	1    0    0    -1  
$EndComp
Wire Wire Line
	11900 2050 11900 1950
Connection ~ 10600 1950
Connection ~ 11900 1950
$Comp
L Device:D_Schottky_Small D5
U 1 1 61C1ED8A
P 7900 3800
F 0 "D5" V 7854 3870 50  0000 L CNN
F 1 "D_Schottky_Small" V 7945 3870 50  0000 L CNN
F 2 "Diode_SMD:D_SOD-123" V 7900 3800 50  0001 C CNN
F 3 "~" V 7900 3800 50  0001 C CNN
F 4 "C8598" H 7900 3800 50  0001 C CNN "LCSC"
F 5 "B5819W SL" H 7900 3800 50  0001 C CNN "Manufacturer_Part_Number"
	1    7900 3800
	0    1    1    0   
$EndComp
$Comp
L power:GND #PWR019
U 1 1 61C1F938
P 7900 3900
F 0 "#PWR019" H 7900 3650 50  0001 C CNN
F 1 "GND" H 7905 3727 50  0000 C CNN
F 2 "" H 7900 3900 50  0001 C CNN
F 3 "" H 7900 3900 50  0001 C CNN
	1    7900 3900
	1    0    0    -1  
$EndComp
Wire Wire Line
	7900 3700 7900 3600
$Comp
L Device:D_Schottky_Small D6
U 1 1 61C1F943
P 9200 3800
F 0 "D6" V 9154 3870 50  0000 L CNN
F 1 "D_Schottky_Small" V 9245 3870 50  0000 L CNN
F 2 "Diode_SMD:D_SOD-123" V 9200 3800 50  0001 C CNN
F 3 "~" V 9200 3800 50  0001 C CNN
F 4 "C8598" H 9200 3800 50  0001 C CNN "LCSC"
F 5 "B5819W SL" H 9200 3800 50  0001 C CNN "Manufacturer_Part_Number"
	1    9200 3800
	0    1    1    0   
$EndComp
$Comp
L power:GND #PWR020
U 1 1 61C1F94D
P 9200 3900
F 0 "#PWR020" H 9200 3650 50  0001 C CNN
F 1 "GND" H 9205 3727 50  0000 C CNN
F 2 "" H 9200 3900 50  0001 C CNN
F 3 "" H 9200 3900 50  0001 C CNN
	1    9200 3900
	1    0    0    -1  
$EndComp
Wire Wire Line
	9200 3700 9200 3600
$Comp
L Device:D_Schottky_Small D7
U 1 1 61C1F958
P 10600 3800
F 0 "D7" V 10554 3870 50  0000 L CNN
F 1 "D_Schottky_Small" V 10645 3870 50  0000 L CNN
F 2 "Diode_SMD:D_SOD-123" V 10600 3800 50  0001 C CNN
F 3 "~" V 10600 3800 50  0001 C CNN
F 4 "C8598" H 10600 3800 50  0001 C CNN "LCSC"
F 5 "B5819W SL" H 10600 3800 50  0001 C CNN "Manufacturer_Part_Number"
	1    10600 3800
	0    1    1    0   
$EndComp
$Comp
L power:GND #PWR021
U 1 1 61C1F962
P 10600 3900
F 0 "#PWR021" H 10600 3650 50  0001 C CNN
F 1 "GND" H 10605 3727 50  0000 C CNN
F 2 "" H 10600 3900 50  0001 C CNN
F 3 "" H 10600 3900 50  0001 C CNN
	1    10600 3900
	1    0    0    -1  
$EndComp
Wire Wire Line
	10600 3700 10600 3600
$Comp
L Device:D_Schottky_Small D8
U 1 1 61C1F96D
P 11900 3800
F 0 "D8" V 11854 3870 50  0000 L CNN
F 1 "D_Schottky_Small" V 11945 3870 50  0000 L CNN
F 2 "Diode_SMD:D_SOD-123" V 11900 3800 50  0001 C CNN
F 3 "~" V 11900 3800 50  0001 C CNN
F 4 "C8598" H 11900 3800 50  0001 C CNN "LCSC"
F 5 "B5819W SL" H 11900 3800 50  0001 C CNN "Manufacturer_Part_Number"
	1    11900 3800
	0    1    1    0   
$EndComp
$Comp
L power:GND #PWR022
U 1 1 61C1F977
P 11900 3900
F 0 "#PWR022" H 11900 3650 50  0001 C CNN
F 1 "GND" H 11905 3727 50  0000 C CNN
F 2 "" H 11900 3900 50  0001 C CNN
F 3 "" H 11900 3900 50  0001 C CNN
	1    11900 3900
	1    0    0    -1  
$EndComp
Wire Wire Line
	11900 3700 11900 3600
Connection ~ 7900 3600
Connection ~ 9200 3600
Connection ~ 10600 3600
Connection ~ 11900 3600
$Comp
L Device:D_Schottky_Small D9
U 1 1 61C3DEFF
P 7900 5650
F 0 "D9" V 7854 5720 50  0000 L CNN
F 1 "D_Schottky_Small" V 7945 5720 50  0000 L CNN
F 2 "Diode_SMD:D_SOD-123" V 7900 5650 50  0001 C CNN
F 3 "~" V 7900 5650 50  0001 C CNN
F 4 "C8598" H 7900 5650 50  0001 C CNN "LCSC"
F 5 "B5819W SL" H 7900 5650 50  0001 C CNN "Manufacturer_Part_Number"
	1    7900 5650
	0    1    1    0   
$EndComp
$Comp
L power:GND #PWR035
U 1 1 61C3EB2D
P 7900 5750
F 0 "#PWR035" H 7900 5500 50  0001 C CNN
F 1 "GND" H 7905 5577 50  0000 C CNN
F 2 "" H 7900 5750 50  0001 C CNN
F 3 "" H 7900 5750 50  0001 C CNN
	1    7900 5750
	1    0    0    -1  
$EndComp
Wire Wire Line
	7900 5550 7900 5450
$Comp
L Device:D_Schottky_Small D10
U 1 1 61C3EB38
P 9200 5650
F 0 "D10" V 9154 5720 50  0000 L CNN
F 1 "D_Schottky_Small" V 9245 5720 50  0000 L CNN
F 2 "Diode_SMD:D_SOD-123" V 9200 5650 50  0001 C CNN
F 3 "~" V 9200 5650 50  0001 C CNN
F 4 "C8598" H 9200 5650 50  0001 C CNN "LCSC"
F 5 "B5819W SL" H 9200 5650 50  0001 C CNN "Manufacturer_Part_Number"
	1    9200 5650
	0    1    1    0   
$EndComp
$Comp
L power:GND #PWR036
U 1 1 61C3EB42
P 9200 5750
F 0 "#PWR036" H 9200 5500 50  0001 C CNN
F 1 "GND" H 9205 5577 50  0000 C CNN
F 2 "" H 9200 5750 50  0001 C CNN
F 3 "" H 9200 5750 50  0001 C CNN
	1    9200 5750
	1    0    0    -1  
$EndComp
Wire Wire Line
	9200 5550 9200 5450
$Comp
L Device:D_Schottky_Small D11
U 1 1 61C3EB4D
P 10600 5650
F 0 "D11" V 10554 5720 50  0000 L CNN
F 1 "D_Schottky_Small" V 10645 5720 50  0000 L CNN
F 2 "Diode_SMD:D_SOD-123" V 10600 5650 50  0001 C CNN
F 3 "~" V 10600 5650 50  0001 C CNN
F 4 "C8598" H 10600 5650 50  0001 C CNN "LCSC"
F 5 "B5819W SL" H 10600 5650 50  0001 C CNN "Manufacturer_Part_Number"
	1    10600 5650
	0    1    1    0   
$EndComp
$Comp
L power:GND #PWR037
U 1 1 61C3EB57
P 10600 5750
F 0 "#PWR037" H 10600 5500 50  0001 C CNN
F 1 "GND" H 10605 5577 50  0000 C CNN
F 2 "" H 10600 5750 50  0001 C CNN
F 3 "" H 10600 5750 50  0001 C CNN
	1    10600 5750
	1    0    0    -1  
$EndComp
Wire Wire Line
	10600 5550 10600 5450
$Comp
L Device:D_Schottky_Small D12
U 1 1 61C3EB62
P 11900 5650
F 0 "D12" V 11854 5720 50  0000 L CNN
F 1 "D_Schottky_Small" V 11945 5720 50  0000 L CNN
F 2 "Diode_SMD:D_SOD-123" V 11900 5650 50  0001 C CNN
F 3 "~" V 11900 5650 50  0001 C CNN
F 4 "C8598" H 11900 5650 50  0001 C CNN "LCSC"
F 5 "B5819W SL" H 11900 5650 50  0001 C CNN "Manufacturer_Part_Number"
	1    11900 5650
	0    1    1    0   
$EndComp
$Comp
L power:GND #PWR038
U 1 1 61C3EB6C
P 11900 5750
F 0 "#PWR038" H 11900 5500 50  0001 C CNN
F 1 "GND" H 11905 5577 50  0000 C CNN
F 2 "" H 11900 5750 50  0001 C CNN
F 3 "" H 11900 5750 50  0001 C CNN
	1    11900 5750
	1    0    0    -1  
$EndComp
Wire Wire Line
	11900 5550 11900 5450
Connection ~ 10600 5450
Connection ~ 11900 5450
Connection ~ 7900 5450
Connection ~ 9200 5450
$Comp
L Device:D_Schottky_Small D13
U 1 1 61C93F26
P 7900 7300
F 0 "D13" V 7854 7370 50  0000 L CNN
F 1 "D_Schottky_Small" V 7945 7370 50  0000 L CNN
F 2 "Diode_SMD:D_SOD-123" V 7900 7300 50  0001 C CNN
F 3 "~" V 7900 7300 50  0001 C CNN
F 4 "C8598" H 7900 7300 50  0001 C CNN "LCSC"
F 5 "B5819W SL" H 7900 7300 50  0001 C CNN "Manufacturer_Part_Number"
	1    7900 7300
	0    1    1    0   
$EndComp
$Comp
L power:GND #PWR047
U 1 1 61C94BD4
P 7900 7400
F 0 "#PWR047" H 7900 7150 50  0001 C CNN
F 1 "GND" H 7905 7227 50  0000 C CNN
F 2 "" H 7900 7400 50  0001 C CNN
F 3 "" H 7900 7400 50  0001 C CNN
	1    7900 7400
	1    0    0    -1  
$EndComp
Wire Wire Line
	7900 7200 7900 7100
$Comp
L Device:D_Schottky_Small D14
U 1 1 61C94BDF
P 9200 7300
F 0 "D14" V 9154 7370 50  0000 L CNN
F 1 "D_Schottky_Small" V 9245 7370 50  0000 L CNN
F 2 "Diode_SMD:D_SOD-123" V 9200 7300 50  0001 C CNN
F 3 "~" V 9200 7300 50  0001 C CNN
F 4 "C8598" H 9200 7300 50  0001 C CNN "LCSC"
F 5 "B5819W SL" H 9200 7300 50  0001 C CNN "Manufacturer_Part_Number"
	1    9200 7300
	0    1    1    0   
$EndComp
$Comp
L power:GND #PWR048
U 1 1 61C94BE9
P 9200 7400
F 0 "#PWR048" H 9200 7150 50  0001 C CNN
F 1 "GND" H 9205 7227 50  0000 C CNN
F 2 "" H 9200 7400 50  0001 C CNN
F 3 "" H 9200 7400 50  0001 C CNN
	1    9200 7400
	1    0    0    -1  
$EndComp
Wire Wire Line
	9200 7200 9200 7100
$Comp
L Device:D_Schottky_Small D15
U 1 1 61C94BF4
P 10600 7300
F 0 "D15" V 10554 7370 50  0000 L CNN
F 1 "D_Schottky_Small" V 10645 7370 50  0000 L CNN
F 2 "Diode_SMD:D_SOD-123" V 10600 7300 50  0001 C CNN
F 3 "~" V 10600 7300 50  0001 C CNN
F 4 "C8598" H 10600 7300 50  0001 C CNN "LCSC"
F 5 "B5819W SL" H 10600 7300 50  0001 C CNN "Manufacturer_Part_Number"
	1    10600 7300
	0    1    1    0   
$EndComp
$Comp
L power:GND #PWR049
U 1 1 61C94BFE
P 10600 7400
F 0 "#PWR049" H 10600 7150 50  0001 C CNN
F 1 "GND" H 10605 7227 50  0000 C CNN
F 2 "" H 10600 7400 50  0001 C CNN
F 3 "" H 10600 7400 50  0001 C CNN
	1    10600 7400
	1    0    0    -1  
$EndComp
Wire Wire Line
	10600 7200 10600 7100
$Comp
L Device:D_Schottky_Small D16
U 1 1 61C94C09
P 11900 7300
F 0 "D16" V 11854 7370 50  0000 L CNN
F 1 "D_Schottky_Small" V 11945 7370 50  0000 L CNN
F 2 "Diode_SMD:D_SOD-123" V 11900 7300 50  0001 C CNN
F 3 "~" V 11900 7300 50  0001 C CNN
F 4 "C8598" H 11900 7300 50  0001 C CNN "LCSC"
F 5 "B5819W SL" H 11900 7300 50  0001 C CNN "Manufacturer_Part_Number"
	1    11900 7300
	0    1    1    0   
$EndComp
$Comp
L power:GND #PWR050
U 1 1 61C94C13
P 11900 7400
F 0 "#PWR050" H 11900 7150 50  0001 C CNN
F 1 "GND" H 11905 7227 50  0000 C CNN
F 2 "" H 11900 7400 50  0001 C CNN
F 3 "" H 11900 7400 50  0001 C CNN
	1    11900 7400
	1    0    0    -1  
$EndComp
Wire Wire Line
	11900 7200 11900 7100
Connection ~ 7900 7100
Connection ~ 9200 7100
Connection ~ 10600 7100
Connection ~ 11900 7100
Text Notes 12200 1150 0    118  ~ 0
Utiliser un relais 9V dispo chez JLCPCB ?
$EndSCHEMATC
