446-658		*3	Rallonge téléphonique, RJ9 / RJ9, Gris, 3m
787-3820	*5 	Kit de connecteur femelle Sub-D série MHDTPK, 9 Contacts avec Capot et embouts

124-2987	*2 	Mémoire F-RAM FM25V02A-G


https://www.crucial.fr/ssd/mx500/ct500mx500ssd1/ct11312998