EESchema Schematic File Version 4
EELAYER 30 0
EELAYER END
$Descr A3 16535 11693
encoding utf-8
Sheet 1 1
Title "EuroPress - Outputs board"
Date "2020-01-27"
Rev "1.0"
Comp "LGR"
Comment1 ""
Comment2 ""
Comment3 ""
Comment4 ""
$EndDescr
$Comp
L EuroPress:SN74LVC573APW U1
U 1 1 5E2EE1A3
P 2750 2600
F 0 "U1" H 3250 2865 50  0000 C CNN
F 1 "SN74LVC573APW" H 3250 2774 50  0000 C CNN
F 2 "Package_SO:TSSOP-20_4.4x6.5mm_P0.65mm" H 3600 2700 50  0001 L CNN
F 3 "http://www.ti.com/general/docs/suppproductinfo.tsp?distId=26&gotoUrl=http%3A%2F%2Fwww.ti.com%2Flit%2Fgpn%2Fsn74lvc573a" H 3600 2600 50  0001 L CNN
F 4 "Octal transparent D-type latches with 3-state outputs" H 3600 2500 50  0001 L CNN "Description"
F 5 "595-SN74LVC573APW" H 3600 2300 50  0001 L CNN "Mouser Part Number"
F 6 "Texas Instruments" H 3600 2200 50  0001 L CNN "Manufacturer_Name"
F 7 "SN74LVC573APW" H 3600 2100 50  0001 L CNN "Manufacturer_Part_Number"
	1    2750 2600
	1    0    0    -1  
$EndComp
$Comp
L EuroPress:ACPL-247-500E Q1
U 1 1 5E2EEB4B
P 5000 2100
F 0 "Q1" H 5450 2365 50  0000 C CNN
F 1 "ACPL-247-500E" H 5450 2274 50  0000 C CNN
F 2 "Package_SO:SOP-16_4.4x10.4mm_P1.27mm" H 5750 2200 50  0001 L CNN
F 3 "" H 5750 2100 50  0001 L CNN
F 4 "Broadcom ACPL-247-500E DC Input Transistor Output Quad Optocoupler, Surface Mount, 16-Pin SOIC" H 5750 2000 50  0001 L CNN "Description"
F 5 "2.42" H 5750 1900 50  0001 L CNN "Height"
F 6 "630-ACPL-247-500E" H 5750 1800 50  0001 L CNN "Mouser Part Number"
F 7 "Avago Technologies" H 5750 1700 50  0001 L CNN "Manufacturer_Name"
F 8 "ACPL-247-500E" H 5750 1600 50  0001 L CNN "Manufacturer_Part_Number"
	1    5000 2100
	1    0    0    -1  
$EndComp
$Comp
L EuroPress:ACPL-247-500E Q2
U 1 1 5E2EFBD2
P 5000 3300
F 0 "Q2" H 5450 3565 50  0000 C CNN
F 1 "ACPL-247-500E" H 5450 3474 50  0000 C CNN
F 2 "Package_SO:SOP-16_4.4x10.4mm_P1.27mm" H 5750 3400 50  0001 L CNN
F 3 "" H 5750 3300 50  0001 L CNN
F 4 "Broadcom ACPL-247-500E DC Input Transistor Output Quad Optocoupler, Surface Mount, 16-Pin SOIC" H 5750 3200 50  0001 L CNN "Description"
F 5 "2.42" H 5750 3100 50  0001 L CNN "Height"
F 6 "630-ACPL-247-500E" H 5750 3000 50  0001 L CNN "Mouser Part Number"
F 7 "Avago Technologies" H 5750 2900 50  0001 L CNN "Manufacturer_Name"
F 8 "ACPL-247-500E" H 5750 2800 50  0001 L CNN "Manufacturer_Part_Number"
	1    5000 3300
	1    0    0    -1  
$EndComp
$Comp
L EuroPress:ITS4880R U2
U 1 1 5E2F119F
P 7500 1600
F 0 "U2" H 7750 1750 50  0000 C CNN
F 1 "ITS4880R" H 8400 1750 50  0000 C CNN
F 2 "Europress:Infineon_PG-DSO-36-26_ThermalVias" H 8550 1700 50  0001 L CNN
F 3 "https://www.infineon.com/dgdl/Infineon-ITS4880R-DS-v01_02-EN.pdf?fileId=db3a304412b407950112b4295fb340cf" H 8550 1600 50  0001 L CNN
F 4 "Octal Intelligent Power Switch, High Side, 0.625A, -1  45V 36-Pin, SOIC" H 8550 1500 50  0001 L CNN "Description"
F 5 "3.5" H 8550 1400 50  0001 L CNN "Height"
F 6 "726-ITS4880RCUMA1" H 8550 1300 50  0001 L CNN "Mouser Part Number"
F 7 "Infineon" H 8550 1200 50  0001 L CNN "Manufacturer_Name"
F 8 "ITS4880R" H 8550 1100 50  0001 L CNN "Manufacturer_Part_Number"
	1    7500 1600
	1    0    0    -1  
$EndComp
$Comp
L EuroPress:G6K-2 K1
U 1 1 5E2F1D18
P 10400 2800
F 0 "K1" H 11030 2846 50  0000 L CNN
F 1 "G6K-2F-DC24" H 11030 2755 50  0000 L CNN
F 2 "Relay_SMD:Relay_DPDT_Omron_G6K-2F" H 11050 2750 50  0001 L CNN
F 3 "http://omronfs.omron.com/en_US/ecb/products/pdf/en-g6k.pdf" H 10200 2800 50  0001 C CNN
F 4 "Relais DPDT 24VDC 100mW" H 10400 2800 50  0001 C CNN "Description"
F 5 "Omron" H 10400 2800 50  0001 C CNN "Manufacturer_Name"
F 6 "G6K-2F-DC24" H 10400 2800 50  0001 C CNN "Manufacturer_Part_Number"
F 7 "653-G6K-2F-DC24" H 10400 2800 50  0001 C CNN "Mouser Part Number"
	1    10400 2800
	1    0    0    -1  
$EndComp
$Comp
L Device:R_Pack04 RN1
U 1 1 5E2F2AAF
P 4350 2900
F 0 "RN1" V 3933 2900 50  0000 C CNN
F 1 "150R" V 4024 2900 50  0000 C CNN
F 2 "Resistor_SMD:R_Array_Convex_4x0603" V 4625 2900 50  0001 C CNN
F 3 "https://www.mouser.fr/datasheet/2/315/AOC0000C14-1108062.pdf" H 4350 2900 50  0001 C CNN
F 4 "Réseau de 4 résistances CMS 0603 150Ohms 5%" H 4350 2900 50  0001 C CNN "Description"
F 5 "Panasonic" H 4350 2900 50  0001 C CNN "Manufacturer_Name"
F 6 "EXB-38V151JV" H 4350 2900 50  0001 C CNN "Manufacturer_Part_Number"
F 7 "667-EXB-38V151JV" H 4350 2900 50  0001 C CNN "Mouser Part Number"
	1    4350 2900
	0    1    1    0   
$EndComp
$Comp
L Device:R_Pack04 RN2
U 1 1 5E2F37F8
P 4350 3300
F 0 "RN2" V 4550 3300 50  0000 C CNN
F 1 "150R" V 4650 3300 50  0000 C CNN
F 2 "Resistor_SMD:R_Array_Convex_4x0603" V 4625 3300 50  0001 C CNN
F 3 "https://www.mouser.fr/datasheet/2/315/AOC0000C14-1108062.pdf" H 4350 3300 50  0001 C CNN
F 4 "Réseau de 4 résistances CMS 0603 150Ohms 5%" H 4350 3300 50  0001 C CNN "Description"
F 5 "Panasonic" H 4350 3300 50  0001 C CNN "Manufacturer_Name"
F 6 "EXB-38V151JV" H 4350 3300 50  0001 C CNN "Manufacturer_Part_Number"
F 7 "667-EXB-38V151JV" H 4350 3300 50  0001 C CNN "Mouser Part Number"
	1    4350 3300
	0    1    1    0   
$EndComp
Wire Wire Line
	3750 2700 4150 2700
Wire Wire Line
	4150 2800 3750 2800
Wire Wire Line
	3750 2900 4150 2900
Wire Wire Line
	4150 3000 3750 3000
Wire Wire Line
	3750 3100 4150 3100
Wire Wire Line
	4150 3200 3750 3200
Wire Wire Line
	3750 3300 4150 3300
Wire Wire Line
	3750 3400 4150 3400
Wire Wire Line
	2100 2700 2750 2700
Wire Wire Line
	2100 2800 2750 2800
Wire Wire Line
	2100 2900 2750 2900
Wire Wire Line
	2100 3000 2750 3000
Wire Wire Line
	2100 3100 2750 3100
Wire Wire Line
	2100 3200 2750 3200
Wire Wire Line
	2100 3300 2750 3300
Wire Wire Line
	2100 3400 2750 3400
Wire Wire Line
	2100 3500 2750 3500
$Comp
L power:GND #PWR0101
U 1 1 5E2F8FF6
P 3850 3600
F 0 "#PWR0101" H 3850 3350 50  0001 C CNN
F 1 "GND" H 3855 3427 50  0000 C CNN
F 2 "" H 3850 3600 50  0001 C CNN
F 3 "" H 3850 3600 50  0001 C CNN
	1    3850 3600
	1    0    0    -1  
$EndComp
$Comp
L power:GND #PWR0102
U 1 1 5E2F96B0
P 2600 2600
F 0 "#PWR0102" H 2600 2350 50  0001 C CNN
F 1 "GND" V 2605 2472 50  0000 R CNN
F 2 "" H 2600 2600 50  0001 C CNN
F 3 "" H 2600 2600 50  0001 C CNN
	1    2600 2600
	0    1    1    0   
$EndComp
Wire Wire Line
	2600 2600 2750 2600
Wire Wire Line
	3850 3600 3850 3500
Wire Wire Line
	3850 3500 3750 3500
$Comp
L power:+3.3V #PWR0103
U 1 1 5E2FA4E8
P 3850 2000
F 0 "#PWR0103" H 3850 1850 50  0001 C CNN
F 1 "+3.3V" H 3865 2173 50  0000 C CNN
F 2 "" H 3850 2000 50  0001 C CNN
F 3 "" H 3850 2000 50  0001 C CNN
	1    3850 2000
	1    0    0    -1  
$EndComp
Wire Wire Line
	3850 2000 3850 2050
Wire Wire Line
	3850 2600 3750 2600
$Comp
L Device:C_Small C1
U 1 1 5E2FBBE4
P 4050 2200
F 0 "C1" H 4142 2246 50  0000 L CNN
F 1 "0.1uF" H 4142 2155 50  0000 L CNN
F 2 "Capacitor_SMD:C_0603_1608Metric_Pad1.05x0.95mm_HandSolder" H 4050 2200 50  0001 C CNN
F 3 "~" H 4050 2200 50  0001 C CNN
F 4 "Condensateur céramique multicouches MLCC - CMS 50V 0.1uF 0603 X7R 10%" H 4050 2200 50  0001 C CNN "Description"
F 5 "Kemet" H 4050 2200 50  0001 C CNN "Manufacturer_Name"
F 6 "C0603X104K5RACTU" H 4050 2200 50  0001 C CNN "Manufacturer_Part_Number"
F 7 "80-C0603X104K5R" H 4050 2200 50  0001 C CNN "Mouser Part Number"
	1    4050 2200
	1    0    0    -1  
$EndComp
$Comp
L power:GND #PWR0104
U 1 1 5E2FC0BE
P 4050 2350
F 0 "#PWR0104" H 4050 2100 50  0001 C CNN
F 1 "GND" H 4055 2177 50  0000 C CNN
F 2 "" H 4050 2350 50  0001 C CNN
F 3 "" H 4050 2350 50  0001 C CNN
	1    4050 2350
	1    0    0    -1  
$EndComp
Wire Wire Line
	4050 2300 4050 2350
Wire Wire Line
	4050 2100 4050 2050
Wire Wire Line
	4050 2050 3850 2050
Connection ~ 3850 2050
Wire Wire Line
	3850 2050 3850 2600
$Comp
L power:GND #PWR0105
U 1 1 5E2FFBCD
P 4900 4050
F 0 "#PWR0105" H 4900 3800 50  0001 C CNN
F 1 "GND" H 4905 3877 50  0000 C CNN
F 2 "" H 4900 4050 50  0001 C CNN
F 3 "" H 4900 4050 50  0001 C CNN
	1    4900 4050
	1    0    0    -1  
$EndComp
Wire Wire Line
	4900 4050 4900 4000
Wire Wire Line
	4900 2200 5000 2200
Wire Wire Line
	5000 2400 4900 2400
Connection ~ 4900 2400
Wire Wire Line
	4900 2400 4900 2200
Wire Wire Line
	5000 2600 4900 2600
Connection ~ 4900 2600
Wire Wire Line
	4900 2600 4900 2400
Wire Wire Line
	5000 2800 4900 2800
Connection ~ 4900 2800
Wire Wire Line
	4900 2800 4900 2600
Wire Wire Line
	5000 3400 4900 3400
Connection ~ 4900 3400
Wire Wire Line
	4900 3400 4900 2800
Wire Wire Line
	5000 3600 4900 3600
Connection ~ 4900 3600
Wire Wire Line
	4900 3600 4900 3400
Wire Wire Line
	5000 3800 4900 3800
Connection ~ 4900 3800
Wire Wire Line
	4900 3800 4900 3600
Wire Wire Line
	5000 4000 4900 4000
Connection ~ 4900 4000
Wire Wire Line
	4900 4000 4900 3800
Wire Wire Line
	5000 3300 4800 3300
Wire Wire Line
	4800 3300 4800 3100
Wire Wire Line
	4800 3100 4550 3100
Wire Wire Line
	4550 3200 4750 3200
Wire Wire Line
	4750 3200 4750 3500
Wire Wire Line
	4750 3500 5000 3500
Wire Wire Line
	4550 3300 4700 3300
Wire Wire Line
	4700 3300 4700 3700
Wire Wire Line
	4700 3700 5000 3700
Wire Wire Line
	4550 3400 4650 3400
Wire Wire Line
	4650 3400 4650 3900
Wire Wire Line
	4650 3900 5000 3900
Wire Wire Line
	4550 3000 4800 3000
Wire Wire Line
	4800 3000 4800 2700
Wire Wire Line
	4800 2700 5000 2700
Wire Wire Line
	5000 2500 4750 2500
Wire Wire Line
	4750 2500 4750 2900
Wire Wire Line
	4750 2900 4550 2900
Wire Wire Line
	4550 2800 4700 2800
Wire Wire Line
	4700 2800 4700 2300
Wire Wire Line
	4700 2300 5000 2300
Wire Wire Line
	5000 2100 4650 2100
Wire Wire Line
	4650 2100 4650 2700
Wire Wire Line
	4650 2700 4550 2700
Wire Wire Line
	6000 2200 5900 2200
Wire Wire Line
	5900 2400 6000 2400
Connection ~ 6000 2400
Wire Wire Line
	6000 2400 6000 2200
Wire Wire Line
	5900 2600 6000 2600
Connection ~ 6000 2600
Wire Wire Line
	6000 2600 6000 2400
Wire Wire Line
	5900 2800 6000 2800
Connection ~ 6000 2800
Wire Wire Line
	6000 2800 6000 2600
Wire Wire Line
	5900 3400 6000 3400
Wire Wire Line
	6000 2800 6000 3400
Connection ~ 6000 3400
Wire Wire Line
	6000 3400 6000 3600
Wire Wire Line
	5900 3600 6000 3600
Connection ~ 6000 3600
Wire Wire Line
	6000 3600 6000 3800
Wire Wire Line
	5900 3800 6000 3800
Connection ~ 6000 3800
Wire Wire Line
	6000 3800 6000 4000
Wire Wire Line
	5900 4000 6000 4000
Connection ~ 6000 4000
Wire Wire Line
	6000 4000 6000 4050
$Comp
L Device:R_Network08 RN3
U 1 1 5E31DE67
P 6300 1600
F 0 "RN3" H 6688 1646 50  0000 L CNN
F 1 "10k" H 6688 1555 50  0000 L CNN
F 2 "Resistor_THT:R_Array_SIP9" V 6775 1600 50  0001 C CNN
F 3 "https://www.bourns.com/pdfs/4600M.pdf" H 6300 1600 50  0001 C CNN
F 4 "Resistors array 8x10kOhms 2% SIP9" H 6300 1600 50  0001 C CNN "Description"
F 5 "Bourns" H 6300 1600 50  0001 C CNN "Manufacturer_Name"
F 6 "4609M-101-103LF" H 6300 1600 50  0001 C CNN "Manufacturer_Part_Number"
F 7 "652-4609M-1LF-10K" H 6300 1600 50  0001 C CNN "Mouser Part Number"
	1    6300 1600
	-1   0    0    -1  
$EndComp
Wire Wire Line
	5900 2100 6000 2100
Wire Wire Line
	6000 2100 6000 1800
Wire Wire Line
	6100 1800 6100 2200
Wire Wire Line
	6100 2300 5900 2300
Wire Wire Line
	5900 2500 6200 2500
Wire Wire Line
	6200 2500 6200 2300
Wire Wire Line
	5900 2700 6300 2700
Wire Wire Line
	6300 2700 6300 2400
Wire Wire Line
	6400 1800 6400 2500
Wire Wire Line
	6400 3300 5900 3300
Wire Wire Line
	5900 3500 6500 3500
Wire Wire Line
	6500 3500 6500 2600
Wire Wire Line
	6600 1800 6600 2700
Wire Wire Line
	6600 3700 5900 3700
Wire Wire Line
	5900 3900 6700 3900
Wire Wire Line
	6700 3900 6700 2800
Wire Wire Line
	7500 2100 6000 2100
Connection ~ 6000 2100
Wire Wire Line
	7500 2200 6100 2200
Connection ~ 6100 2200
Wire Wire Line
	6100 2200 6100 2300
Wire Wire Line
	7500 2300 6200 2300
Connection ~ 6200 2300
Wire Wire Line
	6200 2300 6200 1800
Wire Wire Line
	6300 2400 7500 2400
Connection ~ 6300 2400
Wire Wire Line
	6300 2400 6300 1800
Wire Wire Line
	7500 2500 6400 2500
Connection ~ 6400 2500
Wire Wire Line
	6400 2500 6400 3300
Wire Wire Line
	6500 2600 7500 2600
Connection ~ 6500 2600
Wire Wire Line
	6500 2600 6500 1800
Wire Wire Line
	7500 2700 6600 2700
Connection ~ 6600 2700
Wire Wire Line
	6600 2700 6600 3700
Wire Wire Line
	6700 2800 7500 2800
Connection ~ 6700 2800
Wire Wire Line
	6700 2800 6700 1800
Wire Wire Line
	6700 1200 6700 1400
Wire Wire Line
	8100 1300 8100 1200
Wire Wire Line
	8100 1200 7250 1200
Wire Wire Line
	7500 1800 7000 1800
Wire Wire Line
	7000 1800 7000 1200
Connection ~ 7000 1200
Wire Wire Line
	7000 1200 6700 1200
$Comp
L Device:C_Small C2
U 1 1 5E358EE3
P 7250 1350
F 0 "C2" H 7342 1396 50  0000 L CNN
F 1 "0.1uF" H 7342 1305 50  0000 L CNN
F 2 "Capacitor_SMD:C_0603_1608Metric_Pad1.05x0.95mm_HandSolder" H 7250 1350 50  0001 C CNN
F 3 "~" H 7250 1350 50  0001 C CNN
F 4 "Condensateur céramique multicouches MLCC - CMS 50V 0.1uF 0603 X7R 10%" H 7250 1350 50  0001 C CNN "Description"
F 5 "Kemet" H 7250 1350 50  0001 C CNN "Manufacturer_Name"
F 6 "C0603X104K5RACTU" H 7250 1350 50  0001 C CNN "Manufacturer_Part_Number"
F 7 "80-C0603X104K5R" H 7250 1350 50  0001 C CNN "Mouser Part Number"
	1    7250 1350
	1    0    0    -1  
$EndComp
Wire Wire Line
	7250 1250 7250 1200
Connection ~ 7250 1200
Wire Wire Line
	7250 1200 7000 1200
Wire Wire Line
	7250 1450 7250 1500
$Comp
L Device:LED_Small D1
U 1 1 5E363C88
P 7350 3250
F 0 "D1" V 7350 3182 50  0000 R CNN
F 1 "~" V 7305 3182 50  0001 R CNN
F 2 "LED_SMD:LED_0805_2012Metric_Pad1.15x1.40mm_HandSolder" V 7350 3250 50  0001 C CNN
F 3 "~" V 7350 3250 50  0001 C CNN
F 4 "DEL standard CMS 0805 rouge 630nm 55mcd Vf=2V If=20mA" H 7350 3250 50  0001 C CNN "Description"
F 5 "Lite-On" H 7350 3250 50  0001 C CNN "Manufacturer_Name"
F 6 "LTST-C171KRKT" H 7350 3250 50  0001 C CNN "Manufacturer_Part_Number"
F 7 "859-LTST-C171KRKT" H 7350 3250 50  0001 C CNN "Mouser Part Number"
	1    7350 3250
	0    -1   -1   0   
$EndComp
Wire Wire Line
	7350 3400 7350 3350
Wire Wire Line
	7500 3100 7350 3100
Wire Wire Line
	7350 3100 7350 3150
Wire Wire Line
	8100 3650 8100 3600
Wire Wire Line
	10000 2100 8700 2100
Wire Wire Line
	8900 2200 8700 2200
Wire Wire Line
	8900 2300 8700 2300
Wire Wire Line
	8900 2400 8700 2400
Wire Wire Line
	8900 2600 8700 2600
Wire Wire Line
	8900 2700 8700 2700
Wire Wire Line
	10000 2100 10000 2500
Wire Wire Line
	10000 3150 10000 3100
Wire Wire Line
	10700 2200 10500 2200
Wire Wire Line
	10500 2200 10500 2500
Wire Wire Line
	10650 3450 10400 3450
Wire Wire Line
	10400 3450 10400 3100
Text GLabel 10700 2200 2    50   Output ~ 0
RELAY_NO
Text GLabel 10650 3450 2    50   Output ~ 0
RELAY_COM
$Comp
L power:+24V #PWR0111
U 1 1 5E3E605B
P 8100 1100
F 0 "#PWR0111" H 8100 950 50  0001 C CNN
F 1 "+24V" H 8115 1273 50  0000 C CNN
F 2 "" H 8100 1100 50  0001 C CNN
F 3 "" H 8100 1100 50  0001 C CNN
	1    8100 1100
	1    0    0    -1  
$EndComp
Wire Wire Line
	8100 1100 8100 1200
Connection ~ 8100 1200
Text GLabel 8900 2200 2    50   Output ~ 0
DIG_OUT_CH2
Text GLabel 8900 2300 2    50   Output ~ 0
DIG_OUT_CH3
Text GLabel 8900 2400 2    50   Output ~ 0
DIG_OUT_CH4
Text GLabel 8900 2500 2    50   Output ~ 0
DIG_OUT_CH5
Text GLabel 8900 2600 2    50   Output ~ 0
DIG_OUT_CH6
Text GLabel 8900 2700 2    50   Output ~ 0
DIG_OUT_CH7
Text GLabel 8900 2800 2    50   Output ~ 0
DIG_OUT_CH8
Wire Wire Line
	8900 2800 8700 2800
Text GLabel 2100 2700 0    50   Input ~ 0
PP_OUT0
Text GLabel 2100 2800 0    50   Input ~ 0
PP_OUT1
Text GLabel 2100 2900 0    50   Input ~ 0
PP_OUT2
Text GLabel 2100 3000 0    50   Input ~ 0
PP_OUT3
Text GLabel 2100 3100 0    50   Input ~ 0
PP_OUT4
Text GLabel 2100 3200 0    50   Input ~ 0
PP_OUT5
Text GLabel 2100 3300 0    50   Input ~ 0
PP_OUT6
Text GLabel 2100 3400 0    50   Input ~ 0
PP_OUT7
Text GLabel 2100 3500 0    50   Input ~ 0
DIG_OUT_LATCH1
Text GLabel 2400 8550 0    50   Input ~ 0
PP_OUT0
Text GLabel 2400 8650 0    50   Input ~ 0
PP_OUT1
Text GLabel 2400 8750 0    50   Input ~ 0
PP_OUT2
Text GLabel 2400 8850 0    50   Input ~ 0
PP_OUT3
Text GLabel 2400 8950 0    50   Input ~ 0
PP_OUT4
Text GLabel 2400 9050 0    50   Input ~ 0
PP_OUT5
Text GLabel 2400 9150 0    50   Input ~ 0
PP_OUT6
Text GLabel 2400 9250 0    50   Input ~ 0
PP_OUT7
Text GLabel 2400 9450 0    50   Input ~ 0
DIG_OUT_LATCH1
Text GLabel 6850 8850 0    50   Input ~ 0
DIG_OUT_CH2
Text GLabel 6850 8950 0    50   Input ~ 0
DIG_OUT_CH3
Text GLabel 6850 9050 0    50   Input ~ 0
DIG_OUT_CH4
Text GLabel 6850 9150 0    50   Input ~ 0
DIG_OUT_CH5
Text GLabel 6850 9250 0    50   Input ~ 0
DIG_OUT_CH6
Text GLabel 6850 9350 0    50   Input ~ 0
DIG_OUT_CH7
Text GLabel 6850 9450 0    50   Input ~ 0
DIG_OUT_CH8
$Comp
L power:+3.3V #PWR03
U 1 1 5E40C4D1
P 3550 8050
F 0 "#PWR03" H 3550 7900 50  0001 C CNN
F 1 "+3.3V" H 3565 8223 50  0000 C CNN
F 2 "" H 3550 8050 50  0001 C CNN
F 3 "" H 3550 8050 50  0001 C CNN
	1    3550 8050
	1    0    0    -1  
$EndComp
$Comp
L power:+24V #PWR07
U 1 1 5E40C6E8
P 3250 8050
F 0 "#PWR07" H 3250 7900 50  0001 C CNN
F 1 "+24V" H 3265 8223 50  0000 C CNN
F 2 "" H 3250 8050 50  0001 C CNN
F 3 "" H 3250 8050 50  0001 C CNN
	1    3250 8050
	1    0    0    -1  
$EndComp
Text GLabel 6850 8750 0    50   Input ~ 0
RELAY_NO
Text GLabel 7600 8750 2    50   Input ~ 0
RELAY_COM
$Comp
L Connector_Generic:Conn_02x12_Odd_Even J1
U 1 1 5E42A162
P 7200 9250
F 0 "J1" H 7250 9967 50  0000 C CNN
F 1 "Digital outputs" H 7250 9876 50  0000 C CNN
F 2 "Connector_PinHeader_2.54mm:PinHeader_2x12_P2.54mm_Vertical" H 7200 9250 50  0001 C CNN
F 3 "~" H 7200 9250 50  0001 C CNN
F 4 ".100\" Mini Mate® Isolated Power Terminal Strip, Cable Mate, doubler ows, 12 positions" H 7200 9250 50  0001 C CNN "Description"
F 5 "Samtec" H 7200 9250 50  0001 C CNN "Manufacturer_Name"
F 6 "IPL1-112-01-F-D-K" H 7200 9250 50  0001 C CNN "Manufacturer_Part_Number"
F 7 "N/A" H 7200 9250 50  0001 C CNN "Mouser Part Number"
	1    7200 9250
	1    0    0    -1  
$EndComp
Wire Wire Line
	6850 8850 7000 8850
Wire Wire Line
	7000 8950 6850 8950
Wire Wire Line
	6850 9050 7000 9050
Wire Wire Line
	7000 9150 6850 9150
Wire Wire Line
	6850 9250 7000 9250
Wire Wire Line
	6850 9350 7000 9350
Wire Wire Line
	7000 9450 6850 9450
Wire Wire Line
	6850 9650 7000 9650
Wire Wire Line
	7000 9750 6850 9750
Wire Wire Line
	7500 8750 7600 8750
Wire Wire Line
	7500 9850 7600 9850
Connection ~ 7600 9850
Wire Wire Line
	7600 9850 7600 9900
Wire Wire Line
	7500 9750 7600 9750
Connection ~ 7600 9750
Wire Wire Line
	7600 9750 7600 9850
Wire Wire Line
	7500 9650 7600 9650
Wire Wire Line
	7600 9650 7600 9750
Wire Wire Line
	7500 9550 7600 9550
Wire Wire Line
	7500 9450 7600 9450
Wire Wire Line
	7500 9250 7600 9250
Wire Wire Line
	7500 9050 7600 9050
Wire Wire Line
	7500 9150 7600 9150
Wire Wire Line
	7500 8950 7600 8950
Wire Wire Line
	7500 8850 7600 8850
Wire Wire Line
	7500 9350 7600 9350
Text GLabel 2400 9550 0    50   Input ~ 0
DIG_OUT_LATCH2
Wire Wire Line
	7000 8750 6850 8750
Wire Wire Line
	6850 9550 7000 9550
Wire Wire Line
	6850 9850 7000 9850
Text GLabel 7600 8850 2    50   Input ~ 0
DIG_OUT_CH9
Text GLabel 7600 8950 2    50   Input ~ 0
DIG_OUT_CH10
Text GLabel 7600 9050 2    50   Input ~ 0
DIG_OUT_CH11
Text GLabel 7600 9150 2    50   Input ~ 0
DIG_OUT_CH12
Text GLabel 7600 9250 2    50   Input ~ 0
DIG_OUT_CH13
Text GLabel 7600 9350 2    50   Input ~ 0
DIG_OUT_CH14
Text GLabel 7600 9450 2    50   Input ~ 0
DIG_OUT_CH15
Text GLabel 7600 9550 2    50   Input ~ 0
DIG_OUT_CH16
$Comp
L power:+5V #PWR02
U 1 1 5E500113
P 3400 7850
F 0 "#PWR02" H 3400 7700 50  0001 C CNN
F 1 "+5V" H 3415 8023 50  0000 C CNN
F 2 "" H 3400 7850 50  0001 C CNN
F 3 "" H 3400 7850 50  0001 C CNN
	1    3400 7850
	1    0    0    -1  
$EndComp
$Comp
L power:GND #PWR08
U 1 1 5E5120B3
P 3300 10500
F 0 "#PWR08" H 3300 10250 50  0001 C CNN
F 1 "GND" H 3305 10327 50  0000 C CNN
F 2 "" H 3300 10500 50  0001 C CNN
F 3 "" H 3300 10500 50  0001 C CNN
	1    3300 10500
	1    0    0    -1  
$EndComp
$Comp
L EuroPress:SN74LVC573APW U3
U 1 1 5E30A541
P 2750 5900
F 0 "U3" H 3250 6165 50  0000 C CNN
F 1 "SN74LVC573APW" H 3250 6074 50  0000 C CNN
F 2 "Package_SO:TSSOP-20_4.4x6.5mm_P0.65mm" H 3600 6000 50  0001 L CNN
F 3 "http://www.ti.com/general/docs/suppproductinfo.tsp?distId=26&gotoUrl=http%3A%2F%2Fwww.ti.com%2Flit%2Fgpn%2Fsn74lvc573a" H 3600 5900 50  0001 L CNN
F 4 "Octal transparent D-type latches with 3-state outputs" H 3600 5800 50  0001 L CNN "Description"
F 5 "595-SN74LVC573APW" H 3600 5600 50  0001 L CNN "Mouser Part Number"
F 6 "Texas Instruments" H 3600 5500 50  0001 L CNN "Manufacturer_Name"
F 7 "SN74LVC573APW" H 3600 5400 50  0001 L CNN "Manufacturer_Part_Number"
	1    2750 5900
	1    0    0    -1  
$EndComp
$Comp
L EuroPress:ACPL-247-500E Q3
U 1 1 5E30A550
P 5000 5400
F 0 "Q3" H 5450 5665 50  0000 C CNN
F 1 "ACPL-247-500E" H 5450 5574 50  0000 C CNN
F 2 "Package_SO:SOP-16_4.4x10.4mm_P1.27mm" H 5750 5500 50  0001 L CNN
F 3 "" H 5750 5400 50  0001 L CNN
F 4 "Broadcom ACPL-247-500E DC Input Transistor Output Quad Optocoupler, Surface Mount, 16-Pin SOIC" H 5750 5300 50  0001 L CNN "Description"
F 5 "2.42" H 5750 5200 50  0001 L CNN "Height"
F 6 "630-ACPL-247-500E" H 5750 5100 50  0001 L CNN "Mouser Part Number"
F 7 "Avago Technologies" H 5750 5000 50  0001 L CNN "Manufacturer_Name"
F 8 "ACPL-247-500E" H 5750 4900 50  0001 L CNN "Manufacturer_Part_Number"
	1    5000 5400
	1    0    0    -1  
$EndComp
$Comp
L EuroPress:ACPL-247-500E Q4
U 1 1 5E30A55F
P 5000 6600
F 0 "Q4" H 5450 6865 50  0000 C CNN
F 1 "ACPL-247-500E" H 5450 6774 50  0000 C CNN
F 2 "Package_SO:SOP-16_4.4x10.4mm_P1.27mm" H 5750 6700 50  0001 L CNN
F 3 "" H 5750 6600 50  0001 L CNN
F 4 "Broadcom ACPL-247-500E DC Input Transistor Output Quad Optocoupler, Surface Mount, 16-Pin SOIC" H 5750 6500 50  0001 L CNN "Description"
F 5 "2.42" H 5750 6400 50  0001 L CNN "Height"
F 6 "630-ACPL-247-500E" H 5750 6300 50  0001 L CNN "Mouser Part Number"
F 7 "Avago Technologies" H 5750 6200 50  0001 L CNN "Manufacturer_Name"
F 8 "ACPL-247-500E" H 5750 6100 50  0001 L CNN "Manufacturer_Part_Number"
	1    5000 6600
	1    0    0    -1  
$EndComp
$Comp
L EuroPress:ITS4880R U4
U 1 1 5E30A56E
P 7500 4900
F 0 "U4" H 7750 5050 50  0000 C CNN
F 1 "ITS4880R" H 8400 5050 50  0000 C CNN
F 2 "Europress:Infineon_PG-DSO-36-26_ThermalVias" H 8550 5000 50  0001 L CNN
F 3 "https://www.infineon.com/dgdl/Infineon-ITS4880R-DS-v01_02-EN.pdf?fileId=db3a304412b407950112b4295fb340cf" H 8550 4900 50  0001 L CNN
F 4 "Octal Intelligent Power Switch, High Side, 0.625A, -1  45V 36-Pin, SOIC" H 8550 4800 50  0001 L CNN "Description"
F 5 "3.5" H 8550 4700 50  0001 L CNN "Height"
F 6 "726-ITS4880RCUMA1" H 8550 4600 50  0001 L CNN "Mouser Part Number"
F 7 "Infineon" H 8550 4500 50  0001 L CNN "Manufacturer_Name"
F 8 "ITS4880R" H 8550 4400 50  0001 L CNN "Manufacturer_Part_Number"
	1    7500 4900
	1    0    0    -1  
$EndComp
$Comp
L Device:R_Pack04 RN4
U 1 1 5E30A57C
P 4350 6200
F 0 "RN4" V 3933 6200 50  0000 C CNN
F 1 "150R" V 4024 6200 50  0000 C CNN
F 2 "Resistor_SMD:R_Array_Convex_4x0603" V 4625 6200 50  0001 C CNN
F 3 "https://www.mouser.fr/datasheet/2/315/AOC0000C14-1108062.pdf" H 4350 6200 50  0001 C CNN
F 4 "Réseau de 4 résistances CMS 0603 150Ohms 5%" H 4350 6200 50  0001 C CNN "Description"
F 5 "Panasonic" H 4350 6200 50  0001 C CNN "Manufacturer_Name"
F 6 "EXB-38V151JV" H 4350 6200 50  0001 C CNN "Manufacturer_Part_Number"
F 7 "667-EXB-38V151JV" H 4350 6200 50  0001 C CNN "Mouser Part Number"
	1    4350 6200
	0    1    1    0   
$EndComp
$Comp
L Device:R_Pack04 RN5
U 1 1 5E30A58A
P 4350 6600
F 0 "RN5" V 4550 6600 50  0000 C CNN
F 1 "150R" V 4650 6600 50  0000 C CNN
F 2 "Resistor_SMD:R_Array_Convex_4x0603" V 4625 6600 50  0001 C CNN
F 3 "https://www.mouser.fr/datasheet/2/315/AOC0000C14-1108062.pdf" H 4350 6600 50  0001 C CNN
F 4 "Réseau de 4 résistances CMS 0603 150Ohms 5%" H 4350 6600 50  0001 C CNN "Description"
F 5 "Panasonic" H 4350 6600 50  0001 C CNN "Manufacturer_Name"
F 6 "EXB-38V151JV" H 4350 6600 50  0001 C CNN "Manufacturer_Part_Number"
F 7 "667-EXB-38V151JV" H 4350 6600 50  0001 C CNN "Mouser Part Number"
	1    4350 6600
	0    1    1    0   
$EndComp
Wire Wire Line
	3750 6000 4150 6000
Wire Wire Line
	4150 6100 3750 6100
Wire Wire Line
	3750 6200 4150 6200
Wire Wire Line
	4150 6300 3750 6300
Wire Wire Line
	3750 6400 4150 6400
Wire Wire Line
	4150 6500 3750 6500
Wire Wire Line
	3750 6600 4150 6600
Wire Wire Line
	3750 6700 4150 6700
Wire Wire Line
	2100 6000 2750 6000
Wire Wire Line
	2100 6100 2750 6100
Wire Wire Line
	2100 6200 2750 6200
Wire Wire Line
	2100 6300 2750 6300
Wire Wire Line
	2100 6400 2750 6400
Wire Wire Line
	2100 6500 2750 6500
Wire Wire Line
	2100 6600 2750 6600
Wire Wire Line
	2100 6700 2750 6700
Wire Wire Line
	2100 6800 2750 6800
$Comp
L power:GND #PWR06
U 1 1 5E30A5A5
P 3850 6900
F 0 "#PWR06" H 3850 6650 50  0001 C CNN
F 1 "GND" H 3855 6727 50  0000 C CNN
F 2 "" H 3850 6900 50  0001 C CNN
F 3 "" H 3850 6900 50  0001 C CNN
	1    3850 6900
	1    0    0    -1  
$EndComp
$Comp
L power:GND #PWR01
U 1 1 5E30A5AF
P 2600 5900
F 0 "#PWR01" H 2600 5650 50  0001 C CNN
F 1 "GND" V 2605 5772 50  0000 R CNN
F 2 "" H 2600 5900 50  0001 C CNN
F 3 "" H 2600 5900 50  0001 C CNN
	1    2600 5900
	0    1    1    0   
$EndComp
Wire Wire Line
	2600 5900 2750 5900
Wire Wire Line
	3850 6900 3850 6800
Wire Wire Line
	3850 6800 3750 6800
$Comp
L power:+3.3V #PWR05
U 1 1 5E30A5BC
P 3850 5300
F 0 "#PWR05" H 3850 5150 50  0001 C CNN
F 1 "+3.3V" H 3865 5473 50  0000 C CNN
F 2 "" H 3850 5300 50  0001 C CNN
F 3 "" H 3850 5300 50  0001 C CNN
	1    3850 5300
	1    0    0    -1  
$EndComp
Wire Wire Line
	3850 5300 3850 5350
Wire Wire Line
	3850 5900 3750 5900
$Comp
L Device:C_Small C3
U 1 1 5E30A5CC
P 4050 5500
F 0 "C3" H 4142 5546 50  0000 L CNN
F 1 "0.1uF" H 4142 5455 50  0000 L CNN
F 2 "Capacitor_SMD:C_0603_1608Metric_Pad1.05x0.95mm_HandSolder" H 4050 5500 50  0001 C CNN
F 3 "~" H 4050 5500 50  0001 C CNN
F 4 "Condensateur céramique multicouches MLCC - CMS 50V 0.1uF 0603 X7R 10%" H 4050 5500 50  0001 C CNN "Description"
F 5 "Kemet" H 4050 5500 50  0001 C CNN "Manufacturer_Name"
F 6 "C0603X104K5RACTU" H 4050 5500 50  0001 C CNN "Manufacturer_Part_Number"
F 7 "80-C0603X104K5R" H 4050 5500 50  0001 C CNN "Mouser Part Number"
	1    4050 5500
	1    0    0    -1  
$EndComp
$Comp
L power:GND #PWR09
U 1 1 5E30A5D6
P 4050 5650
F 0 "#PWR09" H 4050 5400 50  0001 C CNN
F 1 "GND" H 4055 5477 50  0000 C CNN
F 2 "" H 4050 5650 50  0001 C CNN
F 3 "" H 4050 5650 50  0001 C CNN
	1    4050 5650
	1    0    0    -1  
$EndComp
Wire Wire Line
	4050 5600 4050 5650
Wire Wire Line
	4050 5400 4050 5350
Wire Wire Line
	4050 5350 3850 5350
Connection ~ 3850 5350
Wire Wire Line
	3850 5350 3850 5900
$Comp
L power:GND #PWR010
U 1 1 5E30A5E5
P 4900 7350
F 0 "#PWR010" H 4900 7100 50  0001 C CNN
F 1 "GND" H 4905 7177 50  0000 C CNN
F 2 "" H 4900 7350 50  0001 C CNN
F 3 "" H 4900 7350 50  0001 C CNN
	1    4900 7350
	1    0    0    -1  
$EndComp
Wire Wire Line
	4900 7350 4900 7300
Wire Wire Line
	4900 5500 5000 5500
Wire Wire Line
	5000 5700 4900 5700
Connection ~ 4900 5700
Wire Wire Line
	4900 5700 4900 5500
Wire Wire Line
	5000 5900 4900 5900
Connection ~ 4900 5900
Wire Wire Line
	4900 5900 4900 5700
Wire Wire Line
	5000 6100 4900 6100
Connection ~ 4900 6100
Wire Wire Line
	4900 6100 4900 5900
Wire Wire Line
	5000 6700 4900 6700
Connection ~ 4900 6700
Wire Wire Line
	4900 6700 4900 6100
Wire Wire Line
	5000 6900 4900 6900
Connection ~ 4900 6900
Wire Wire Line
	4900 6900 4900 6700
Wire Wire Line
	5000 7100 4900 7100
Connection ~ 4900 7100
Wire Wire Line
	4900 7100 4900 6900
Wire Wire Line
	5000 7300 4900 7300
Connection ~ 4900 7300
Wire Wire Line
	4900 7300 4900 7100
Wire Wire Line
	5000 6600 4800 6600
Wire Wire Line
	4800 6600 4800 6400
Wire Wire Line
	4800 6400 4550 6400
Wire Wire Line
	4550 6500 4750 6500
Wire Wire Line
	4750 6500 4750 6800
Wire Wire Line
	4750 6800 5000 6800
Wire Wire Line
	4550 6600 4700 6600
Wire Wire Line
	4700 6600 4700 7000
Wire Wire Line
	4700 7000 5000 7000
Wire Wire Line
	4550 6700 4650 6700
Wire Wire Line
	4650 6700 4650 7200
Wire Wire Line
	4650 7200 5000 7200
Wire Wire Line
	4550 6300 4800 6300
Wire Wire Line
	4800 6300 4800 6000
Wire Wire Line
	4800 6000 5000 6000
Wire Wire Line
	5000 5800 4750 5800
Wire Wire Line
	4750 5800 4750 6200
Wire Wire Line
	4750 6200 4550 6200
Wire Wire Line
	4550 6100 4700 6100
Wire Wire Line
	4700 6100 4700 5600
Wire Wire Line
	4700 5600 5000 5600
Wire Wire Line
	5000 5400 4650 5400
Wire Wire Line
	4650 5400 4650 6000
Wire Wire Line
	4650 6000 4550 6000
Wire Wire Line
	6000 5500 5900 5500
Wire Wire Line
	5900 5700 6000 5700
Connection ~ 6000 5700
Wire Wire Line
	6000 5700 6000 5500
Wire Wire Line
	5900 5900 6000 5900
Connection ~ 6000 5900
Wire Wire Line
	6000 5900 6000 5700
Wire Wire Line
	5900 6100 6000 6100
Connection ~ 6000 6100
Wire Wire Line
	6000 6100 6000 5900
Wire Wire Line
	5900 6700 6000 6700
Wire Wire Line
	6000 6100 6000 6700
Connection ~ 6000 6700
Wire Wire Line
	6000 6700 6000 6900
Wire Wire Line
	5900 6900 6000 6900
Connection ~ 6000 6900
Wire Wire Line
	6000 6900 6000 7100
Wire Wire Line
	5900 7100 6000 7100
Connection ~ 6000 7100
Wire Wire Line
	6000 7100 6000 7300
Wire Wire Line
	5900 7300 6000 7300
Connection ~ 6000 7300
Wire Wire Line
	6000 7300 6000 7350
$Comp
L Device:R_Network08 RN6
U 1 1 5E30A639
P 6300 4900
F 0 "RN6" H 6688 4946 50  0000 L CNN
F 1 "10k" H 6688 4855 50  0000 L CNN
F 2 "Resistor_THT:R_Array_SIP9" V 6775 4900 50  0001 C CNN
F 3 "https://www.bourns.com/pdfs/4600M.pdf" H 6300 4900 50  0001 C CNN
F 4 "Resistors array 8x10kOhms 2% SIP9" H 6300 4900 50  0001 C CNN "Description"
F 5 "Bourns" H 6300 4900 50  0001 C CNN "Manufacturer_Name"
F 6 "4609M-101-103LF" H 6300 4900 50  0001 C CNN "Manufacturer_Part_Number"
F 7 "652-4609M-1LF-10K" H 6300 4900 50  0001 C CNN "Mouser Part Number"
	1    6300 4900
	-1   0    0    -1  
$EndComp
Wire Wire Line
	5900 5400 6000 5400
Wire Wire Line
	6000 5400 6000 5100
Wire Wire Line
	6100 5100 6100 5500
Wire Wire Line
	6100 5600 5900 5600
Wire Wire Line
	5900 5800 6200 5800
Wire Wire Line
	6200 5800 6200 5600
Wire Wire Line
	5900 6000 6300 6000
Wire Wire Line
	6300 6000 6300 5700
Wire Wire Line
	6400 5100 6400 5800
Wire Wire Line
	6400 6600 5900 6600
Wire Wire Line
	5900 6800 6500 6800
Wire Wire Line
	6500 6800 6500 5900
Wire Wire Line
	6600 5100 6600 6000
Wire Wire Line
	6600 7000 5900 7000
Wire Wire Line
	5900 7200 6700 7200
Wire Wire Line
	6700 7200 6700 6100
Wire Wire Line
	7500 5400 6000 5400
Connection ~ 6000 5400
Wire Wire Line
	7500 5500 6100 5500
Connection ~ 6100 5500
Wire Wire Line
	6100 5500 6100 5600
Wire Wire Line
	7500 5600 6200 5600
Connection ~ 6200 5600
Wire Wire Line
	6200 5600 6200 5100
Wire Wire Line
	6300 5700 7500 5700
Connection ~ 6300 5700
Wire Wire Line
	6300 5700 6300 5100
Wire Wire Line
	7500 5800 6400 5800
Connection ~ 6400 5800
Wire Wire Line
	6400 5800 6400 6600
Wire Wire Line
	6500 5900 7500 5900
Connection ~ 6500 5900
Wire Wire Line
	6500 5900 6500 5100
Wire Wire Line
	7500 6000 6600 6000
Connection ~ 6600 6000
Wire Wire Line
	6600 6000 6600 7000
Wire Wire Line
	6700 6100 7500 6100
Connection ~ 6700 6100
Wire Wire Line
	6700 6100 6700 5100
Wire Wire Line
	6700 4500 6700 4700
Wire Wire Line
	8100 4600 8100 4500
Wire Wire Line
	8100 4500 7250 4500
Wire Wire Line
	7500 5100 7000 5100
Wire Wire Line
	7000 5100 7000 4500
Connection ~ 7000 4500
Wire Wire Line
	7000 4500 6700 4500
$Comp
L Device:C_Small C4
U 1 1 5E30A675
P 7250 4650
F 0 "C4" H 7342 4696 50  0000 L CNN
F 1 "0.1uF" H 7342 4605 50  0000 L CNN
F 2 "Capacitor_SMD:C_0603_1608Metric_Pad1.05x0.95mm_HandSolder" H 7250 4650 50  0001 C CNN
F 3 "~" H 7250 4650 50  0001 C CNN
F 4 "Condensateur céramique multicouches MLCC - CMS 50V 0.1uF 0603 X7R 10%" H 7250 4650 50  0001 C CNN "Description"
F 5 "Kemet" H 7250 4650 50  0001 C CNN "Manufacturer_Name"
F 6 "C0603X104K5RACTU" H 7250 4650 50  0001 C CNN "Manufacturer_Part_Number"
F 7 "80-C0603X104K5R" H 7250 4650 50  0001 C CNN "Mouser Part Number"
	1    7250 4650
	1    0    0    -1  
$EndComp
Wire Wire Line
	7250 4550 7250 4500
Connection ~ 7250 4500
Wire Wire Line
	7250 4500 7000 4500
Wire Wire Line
	7250 4750 7250 4800
$Comp
L Device:LED_Small D2
U 1 1 5E30A687
P 7350 6550
F 0 "D2" V 7350 6482 50  0000 R CNN
F 1 "~" V 7305 6482 50  0001 R CNN
F 2 "LED_SMD:LED_0805_2012Metric_Pad1.15x1.40mm_HandSolder" V 7350 6550 50  0001 C CNN
F 3 "~" V 7350 6550 50  0001 C CNN
F 4 "DEL standard CMS 0805 rouge 630nm 55mcd Vf=2V If=20mA" H 7350 6550 50  0001 C CNN "Description"
F 5 "Lite-On" H 7350 6550 50  0001 C CNN "Manufacturer_Name"
F 6 "LTST-C171KRKT" H 7350 6550 50  0001 C CNN "Manufacturer_Part_Number"
F 7 "859-LTST-C171KRKT" H 7350 6550 50  0001 C CNN "Mouser Part Number"
	1    7350 6550
	0    -1   -1   0   
$EndComp
Wire Wire Line
	7350 6700 7350 6650
Wire Wire Line
	7500 6400 7350 6400
Wire Wire Line
	7350 6400 7350 6450
Wire Wire Line
	8100 6950 8100 6900
Wire Wire Line
	8900 5400 8700 5400
Wire Wire Line
	8900 5500 8700 5500
Wire Wire Line
	8900 5600 8700 5600
Wire Wire Line
	8900 5700 8700 5700
Wire Wire Line
	8900 5800 8700 5800
Wire Wire Line
	8900 5900 8700 5900
Wire Wire Line
	8900 6000 8700 6000
$Comp
L power:+24V #PWR018
U 1 1 5E30A6C2
P 8100 4400
F 0 "#PWR018" H 8100 4250 50  0001 C CNN
F 1 "+24V" H 8115 4573 50  0000 C CNN
F 2 "" H 8100 4400 50  0001 C CNN
F 3 "" H 8100 4400 50  0001 C CNN
	1    8100 4400
	1    0    0    -1  
$EndComp
Wire Wire Line
	8100 4400 8100 4500
Connection ~ 8100 4500
Wire Wire Line
	8900 6100 8700 6100
Text GLabel 2100 6000 0    50   Input ~ 0
PP_OUT0
Text GLabel 2100 6100 0    50   Input ~ 0
PP_OUT1
Text GLabel 2100 6200 0    50   Input ~ 0
PP_OUT2
Text GLabel 2100 6300 0    50   Input ~ 0
PP_OUT3
Text GLabel 2100 6400 0    50   Input ~ 0
PP_OUT4
Text GLabel 2100 6500 0    50   Input ~ 0
PP_OUT5
Text GLabel 2100 6600 0    50   Input ~ 0
PP_OUT6
Text GLabel 2100 6700 0    50   Input ~ 0
PP_OUT7
Text GLabel 2100 6800 0    50   Input ~ 0
DIG_OUT_LATCH2
Text GLabel 8900 5500 2    50   Output ~ 0
DIG_OUT_CH10
Text GLabel 8900 5600 2    50   Output ~ 0
DIG_OUT_CH11
Text GLabel 8900 5700 2    50   Output ~ 0
DIG_OUT_CH12
Text GLabel 8900 5800 2    50   Output ~ 0
DIG_OUT_CH13
Text GLabel 8900 5900 2    50   Output ~ 0
DIG_OUT_CH14
Text GLabel 8900 6000 2    50   Output ~ 0
DIG_OUT_CH15
Text GLabel 8900 6100 2    50   Output ~ 0
DIG_OUT_CH16
Text GLabel 8900 5400 2    50   Output ~ 0
DIG_OUT_CH9
Wire Wire Line
	6850 9900 6850 9850
Connection ~ 6850 9650
Wire Wire Line
	6850 9650 6850 9550
Connection ~ 6850 9750
Wire Wire Line
	6850 9750 6850 9650
Connection ~ 6850 9850
Wire Wire Line
	6850 9850 6850 9750
$Comp
L power:GND #PWR0106
U 1 1 5E744179
P 3500 10500
F 0 "#PWR0106" H 3500 10250 50  0001 C CNN
F 1 "GND" H 3505 10327 50  0000 C CNN
F 2 "" H 3500 10500 50  0001 C CNN
F 3 "" H 3500 10500 50  0001 C CNN
	1    3500 10500
	1    0    0    -1  
$EndComp
$Comp
L power:GND #PWR0107
U 1 1 5E74474F
P 6850 9900
F 0 "#PWR0107" H 6850 9650 50  0001 C CNN
F 1 "GND" H 6855 9727 50  0000 C CNN
F 2 "" H 6850 9900 50  0001 C CNN
F 3 "" H 6850 9900 50  0001 C CNN
	1    6850 9900
	1    0    0    -1  
$EndComp
$Comp
L power:GND #PWR0108
U 1 1 5E744DC7
P 7600 9900
F 0 "#PWR0108" H 7600 9650 50  0001 C CNN
F 1 "GND" H 7605 9727 50  0000 C CNN
F 2 "" H 7600 9900 50  0001 C CNN
F 3 "" H 7600 9900 50  0001 C CNN
	1    7600 9900
	1    0    0    -1  
$EndComp
$Comp
L power:GND #PWR0109
U 1 1 5E7451F0
P 8100 6950
F 0 "#PWR0109" H 8100 6700 50  0001 C CNN
F 1 "GND" H 8105 6777 50  0000 C CNN
F 2 "" H 8100 6950 50  0001 C CNN
F 3 "" H 8100 6950 50  0001 C CNN
	1    8100 6950
	1    0    0    -1  
$EndComp
$Comp
L power:GND #PWR0110
U 1 1 5E745945
P 6000 7350
F 0 "#PWR0110" H 6000 7100 50  0001 C CNN
F 1 "GND" H 6005 7177 50  0000 C CNN
F 2 "" H 6000 7350 50  0001 C CNN
F 3 "" H 6000 7350 50  0001 C CNN
	1    6000 7350
	1    0    0    -1  
$EndComp
$Comp
L power:GND #PWR0112
U 1 1 5E745DFF
P 7350 6700
F 0 "#PWR0112" H 7350 6450 50  0001 C CNN
F 1 "GND" H 7355 6527 50  0000 C CNN
F 2 "" H 7350 6700 50  0001 C CNN
F 3 "" H 7350 6700 50  0001 C CNN
	1    7350 6700
	1    0    0    -1  
$EndComp
$Comp
L power:GND #PWR0113
U 1 1 5E74620C
P 7250 4800
F 0 "#PWR0113" H 7250 4550 50  0001 C CNN
F 1 "GND" H 7255 4627 50  0000 C CNN
F 2 "" H 7250 4800 50  0001 C CNN
F 3 "" H 7250 4800 50  0001 C CNN
	1    7250 4800
	1    0    0    -1  
$EndComp
$Comp
L power:GND #PWR0114
U 1 1 5E7468E0
P 6000 4050
F 0 "#PWR0114" H 6000 3800 50  0001 C CNN
F 1 "GND" H 6005 3877 50  0000 C CNN
F 2 "" H 6000 4050 50  0001 C CNN
F 3 "" H 6000 4050 50  0001 C CNN
	1    6000 4050
	1    0    0    -1  
$EndComp
$Comp
L power:GND #PWR0115
U 1 1 5E74727C
P 7350 3400
F 0 "#PWR0115" H 7350 3150 50  0001 C CNN
F 1 "GND" H 7355 3227 50  0000 C CNN
F 2 "" H 7350 3400 50  0001 C CNN
F 3 "" H 7350 3400 50  0001 C CNN
	1    7350 3400
	1    0    0    -1  
$EndComp
$Comp
L power:GND #PWR0116
U 1 1 5E74775F
P 8100 3650
F 0 "#PWR0116" H 8100 3400 50  0001 C CNN
F 1 "GND" H 8105 3477 50  0000 C CNN
F 2 "" H 8100 3650 50  0001 C CNN
F 3 "" H 8100 3650 50  0001 C CNN
	1    8100 3650
	1    0    0    -1  
$EndComp
$Comp
L power:GND #PWR0117
U 1 1 5E747ACF
P 10000 3150
F 0 "#PWR0117" H 10000 2900 50  0001 C CNN
F 1 "GND" H 10005 2977 50  0000 C CNN
F 2 "" H 10000 3150 50  0001 C CNN
F 3 "" H 10000 3150 50  0001 C CNN
	1    10000 3150
	1    0    0    -1  
$EndComp
$Comp
L power:GND #PWR0118
U 1 1 5E748007
P 7250 1500
F 0 "#PWR0118" H 7250 1250 50  0001 C CNN
F 1 "GND" H 7255 1327 50  0000 C CNN
F 2 "" H 7250 1500 50  0001 C CNN
F 3 "" H 7250 1500 50  0001 C CNN
	1    7250 1500
	1    0    0    -1  
$EndComp
$Comp
L EuroPress:EuroPress_OutputsBoard XA1
U 1 1 5E358A85
P 3400 9250
F 0 "XA1" H 4128 9271 50  0000 L CNN
F 1 "EuroPress_OutputsBoard" H 4128 9180 50  0000 L CNN
F 2 "EuroPress:EuroPress_OutputsBoard" V 3600 9250 50  0001 C CNN
F 3 "" H 3800 9750 50  0001 C CNN
	1    3400 9250
	1    0    0    -1  
$EndComp
Wire Wire Line
	3400 7850 3400 8050
NoConn ~ 2400 9750
NoConn ~ 2400 9850
NoConn ~ 2400 9950
NoConn ~ 10300 2500
NoConn ~ 10700 2500
NoConn ~ 10900 2500
NoConn ~ 10800 3100
Wire Wire Line
	8900 2500 8700 2500
$EndSCHEMATC
