G04 #@! TF.GenerationSoftware,KiCad,Pcbnew,(5.1.6)-1*
G04 #@! TF.CreationDate,2020-07-30T20:48:25+02:00*
G04 #@! TF.ProjectId,EuroPress_MainBoard,4575726f-5072-4657-9373-5f4d61696e42,2.3*
G04 #@! TF.SameCoordinates,PX3072580PY2455c20*
G04 #@! TF.FileFunction,Paste,Top*
G04 #@! TF.FilePolarity,Positive*
%FSLAX46Y46*%
G04 Gerber Fmt 4.6, Leading zero omitted, Abs format (unit mm)*
G04 Created by KiCad (PCBNEW (5.1.6)-1) date 2020-07-30 20:48:25*
%MOMM*%
%LPD*%
G01*
G04 APERTURE LIST*
%ADD10C,0.150000*%
%ADD11C,2.500000*%
%ADD12R,0.600000X0.600000*%
%ADD13R,1.200000X0.400000*%
%ADD14R,2.200000X1.500000*%
%ADD15R,0.600000X1.550000*%
%ADD16C,4.300000*%
%ADD17R,1.200000X2.200000*%
%ADD18R,2.750000X3.050000*%
%ADD19R,3.500000X0.600000*%
%ADD20R,1.940000X1.400000*%
%ADD21R,2.800000X3.000000*%
%ADD22R,0.400000X1.200000*%
%ADD23R,0.900000X0.250000*%
%ADD24R,1.300000X0.250000*%
%ADD25R,0.500000X0.250000*%
%ADD26R,0.250000X0.900000*%
%ADD27R,3.500000X2.300000*%
G04 APERTURE END LIST*
D10*
G36*
X129247631Y-119057175D02*
G01*
X128447631Y-119057175D01*
X128447631Y-117707175D01*
X129247631Y-117707175D01*
X129247631Y-119057175D01*
G37*
G36*
X126647631Y-117707175D02*
G01*
X127447631Y-117707175D01*
X127447631Y-119057175D01*
X126647631Y-119057175D01*
X126647631Y-117707175D01*
G37*
G36*
X152865253Y-117699555D02*
G01*
X153665253Y-117699555D01*
X153665253Y-119049555D01*
X152865253Y-119049555D01*
X152865253Y-117699555D01*
G37*
G36*
X155465253Y-119049555D02*
G01*
X154665253Y-119049555D01*
X154665253Y-117699555D01*
X155465253Y-117699555D01*
X155465253Y-119049555D01*
G37*
D11*
X24200000Y-6900000D03*
X154200000Y-6900000D03*
X14200000Y-116900000D03*
X184200000Y-116900000D03*
D12*
X139377631Y-117482175D03*
X139377631Y-115882175D03*
D13*
X139377631Y-116682175D03*
D12*
X165595253Y-117474555D03*
X165595253Y-115874555D03*
D13*
X165595253Y-116674555D03*
D14*
X175437800Y-40258600D03*
X175437800Y-33858600D03*
D15*
X8826500Y-51308000D03*
X10096500Y-51308000D03*
X11366500Y-51308000D03*
X12636500Y-51308000D03*
X12636500Y-56708000D03*
X11366500Y-56708000D03*
X10096500Y-56708000D03*
X8826500Y-56708000D03*
G36*
G01*
X187743001Y-98936500D02*
X182842999Y-98936500D01*
G75*
G02*
X182593000Y-98686501I0J249999D01*
G01*
X182593000Y-97211499D01*
G75*
G02*
X182842999Y-96961500I249999J0D01*
G01*
X187743001Y-96961500D01*
G75*
G02*
X187993000Y-97211499I0J-249999D01*
G01*
X187993000Y-98686501D01*
G75*
G02*
X187743001Y-98936500I-249999J0D01*
G01*
G37*
G36*
G01*
X187743001Y-104211500D02*
X182842999Y-104211500D01*
G75*
G02*
X182593000Y-103961501I0J249999D01*
G01*
X182593000Y-102486499D01*
G75*
G02*
X182842999Y-102236500I249999J0D01*
G01*
X187743001Y-102236500D01*
G75*
G02*
X187993000Y-102486499I0J-249999D01*
G01*
X187993000Y-103961501D01*
G75*
G02*
X187743001Y-104211500I-249999J0D01*
G01*
G37*
G36*
G01*
X187743001Y-88581500D02*
X182842999Y-88581500D01*
G75*
G02*
X182593000Y-88331501I0J249999D01*
G01*
X182593000Y-86856499D01*
G75*
G02*
X182842999Y-86606500I249999J0D01*
G01*
X187743001Y-86606500D01*
G75*
G02*
X187993000Y-86856499I0J-249999D01*
G01*
X187993000Y-88331501D01*
G75*
G02*
X187743001Y-88581500I-249999J0D01*
G01*
G37*
G36*
G01*
X187743001Y-93856500D02*
X182842999Y-93856500D01*
G75*
G02*
X182593000Y-93606501I0J249999D01*
G01*
X182593000Y-92131499D01*
G75*
G02*
X182842999Y-91881500I249999J0D01*
G01*
X187743001Y-91881500D01*
G75*
G02*
X187993000Y-92131499I0J-249999D01*
G01*
X187993000Y-93606501D01*
G75*
G02*
X187743001Y-93856500I-249999J0D01*
G01*
G37*
G36*
G01*
X41903000Y-116087001D02*
X41903000Y-114036999D01*
G75*
G02*
X42152999Y-113787000I249999J0D01*
G01*
X43903001Y-113787000D01*
G75*
G02*
X44153000Y-114036999I0J-249999D01*
G01*
X44153000Y-116087001D01*
G75*
G02*
X43903001Y-116337000I-249999J0D01*
G01*
X42152999Y-116337000D01*
G75*
G02*
X41903000Y-116087001I0J249999D01*
G01*
G37*
G36*
G01*
X48303000Y-116087001D02*
X48303000Y-114036999D01*
G75*
G02*
X48552999Y-113787000I249999J0D01*
G01*
X50303001Y-113787000D01*
G75*
G02*
X50553000Y-114036999I0J-249999D01*
G01*
X50553000Y-116087001D01*
G75*
G02*
X50303001Y-116337000I-249999J0D01*
G01*
X48552999Y-116337000D01*
G75*
G02*
X48303000Y-116087001I0J249999D01*
G01*
G37*
G36*
G01*
X163457753Y-110199554D02*
X163457753Y-111049556D01*
G75*
G02*
X163207754Y-111299555I-249999J0D01*
G01*
X162132752Y-111299555D01*
G75*
G02*
X161882753Y-111049556I0J249999D01*
G01*
X161882753Y-110199554D01*
G75*
G02*
X162132752Y-109949555I249999J0D01*
G01*
X163207754Y-109949555D01*
G75*
G02*
X163457753Y-110199554I0J-249999D01*
G01*
G37*
G36*
G01*
X166332753Y-110199554D02*
X166332753Y-111049556D01*
G75*
G02*
X166082754Y-111299555I-249999J0D01*
G01*
X165007752Y-111299555D01*
G75*
G02*
X164757753Y-111049556I0J249999D01*
G01*
X164757753Y-110199554D01*
G75*
G02*
X165007752Y-109949555I249999J0D01*
G01*
X166082754Y-109949555D01*
G75*
G02*
X166332753Y-110199554I0J-249999D01*
G01*
G37*
G36*
G01*
X137240131Y-110207174D02*
X137240131Y-111057176D01*
G75*
G02*
X136990132Y-111307175I-249999J0D01*
G01*
X135915130Y-111307175D01*
G75*
G02*
X135665131Y-111057176I0J249999D01*
G01*
X135665131Y-110207174D01*
G75*
G02*
X135915130Y-109957175I249999J0D01*
G01*
X136990132Y-109957175D01*
G75*
G02*
X137240131Y-110207174I0J-249999D01*
G01*
G37*
G36*
G01*
X140115131Y-110207174D02*
X140115131Y-111057176D01*
G75*
G02*
X139865132Y-111307175I-249999J0D01*
G01*
X138790130Y-111307175D01*
G75*
G02*
X138540131Y-111057176I0J249999D01*
G01*
X138540131Y-110207174D01*
G75*
G02*
X138790130Y-109957175I249999J0D01*
G01*
X139865132Y-109957175D01*
G75*
G02*
X140115131Y-110207174I0J-249999D01*
G01*
G37*
D16*
X10000000Y-108000000D03*
X15000000Y-8000000D03*
X192000000Y-24000000D03*
G36*
G01*
X66023500Y-59741967D02*
X65548500Y-59741967D01*
G75*
G02*
X65311000Y-59504467I0J237500D01*
G01*
X65311000Y-58929467D01*
G75*
G02*
X65548500Y-58691967I237500J0D01*
G01*
X66023500Y-58691967D01*
G75*
G02*
X66261000Y-58929467I0J-237500D01*
G01*
X66261000Y-59504467D01*
G75*
G02*
X66023500Y-59741967I-237500J0D01*
G01*
G37*
G36*
G01*
X66023500Y-61491967D02*
X65548500Y-61491967D01*
G75*
G02*
X65311000Y-61254467I0J237500D01*
G01*
X65311000Y-60679467D01*
G75*
G02*
X65548500Y-60441967I237500J0D01*
G01*
X66023500Y-60441967D01*
G75*
G02*
X66261000Y-60679467I0J-237500D01*
G01*
X66261000Y-61254467D01*
G75*
G02*
X66023500Y-61491967I-237500J0D01*
G01*
G37*
G36*
G01*
X64437004Y-72915967D02*
X64912004Y-72915967D01*
G75*
G02*
X65149504Y-73153467I0J-237500D01*
G01*
X65149504Y-73728467D01*
G75*
G02*
X64912004Y-73965967I-237500J0D01*
G01*
X64437004Y-73965967D01*
G75*
G02*
X64199504Y-73728467I0J237500D01*
G01*
X64199504Y-73153467D01*
G75*
G02*
X64437004Y-72915967I237500J0D01*
G01*
G37*
G36*
G01*
X64437004Y-74665967D02*
X64912004Y-74665967D01*
G75*
G02*
X65149504Y-74903467I0J-237500D01*
G01*
X65149504Y-75478467D01*
G75*
G02*
X64912004Y-75715967I-237500J0D01*
G01*
X64437004Y-75715967D01*
G75*
G02*
X64199504Y-75478467I0J237500D01*
G01*
X64199504Y-74903467D01*
G75*
G02*
X64437004Y-74665967I237500J0D01*
G01*
G37*
G36*
G01*
X60722500Y-58691967D02*
X61197500Y-58691967D01*
G75*
G02*
X61435000Y-58929467I0J-237500D01*
G01*
X61435000Y-59504467D01*
G75*
G02*
X61197500Y-59741967I-237500J0D01*
G01*
X60722500Y-59741967D01*
G75*
G02*
X60485000Y-59504467I0J237500D01*
G01*
X60485000Y-58929467D01*
G75*
G02*
X60722500Y-58691967I237500J0D01*
G01*
G37*
G36*
G01*
X60722500Y-60441967D02*
X61197500Y-60441967D01*
G75*
G02*
X61435000Y-60679467I0J-237500D01*
G01*
X61435000Y-61254467D01*
G75*
G02*
X61197500Y-61491967I-237500J0D01*
G01*
X60722500Y-61491967D01*
G75*
G02*
X60485000Y-61254467I0J237500D01*
G01*
X60485000Y-60679467D01*
G75*
G02*
X60722500Y-60441967I237500J0D01*
G01*
G37*
G36*
G01*
X63770500Y-58691967D02*
X64245500Y-58691967D01*
G75*
G02*
X64483000Y-58929467I0J-237500D01*
G01*
X64483000Y-59504467D01*
G75*
G02*
X64245500Y-59741967I-237500J0D01*
G01*
X63770500Y-59741967D01*
G75*
G02*
X63533000Y-59504467I0J237500D01*
G01*
X63533000Y-58929467D01*
G75*
G02*
X63770500Y-58691967I237500J0D01*
G01*
G37*
G36*
G01*
X63770500Y-60441967D02*
X64245500Y-60441967D01*
G75*
G02*
X64483000Y-60679467I0J-237500D01*
G01*
X64483000Y-61254467D01*
G75*
G02*
X64245500Y-61491967I-237500J0D01*
G01*
X63770500Y-61491967D01*
G75*
G02*
X63533000Y-61254467I0J237500D01*
G01*
X63533000Y-60679467D01*
G75*
G02*
X63770500Y-60441967I237500J0D01*
G01*
G37*
G36*
G01*
X58944500Y-58691967D02*
X59419500Y-58691967D01*
G75*
G02*
X59657000Y-58929467I0J-237500D01*
G01*
X59657000Y-59504467D01*
G75*
G02*
X59419500Y-59741967I-237500J0D01*
G01*
X58944500Y-59741967D01*
G75*
G02*
X58707000Y-59504467I0J237500D01*
G01*
X58707000Y-58929467D01*
G75*
G02*
X58944500Y-58691967I237500J0D01*
G01*
G37*
G36*
G01*
X58944500Y-60441967D02*
X59419500Y-60441967D01*
G75*
G02*
X59657000Y-60679467I0J-237500D01*
G01*
X59657000Y-61254467D01*
G75*
G02*
X59419500Y-61491967I-237500J0D01*
G01*
X58944500Y-61491967D01*
G75*
G02*
X58707000Y-61254467I0J237500D01*
G01*
X58707000Y-60679467D01*
G75*
G02*
X58944500Y-60441967I237500J0D01*
G01*
G37*
G36*
G01*
X10841500Y-59419500D02*
X10841500Y-58944500D01*
G75*
G02*
X11079000Y-58707000I237500J0D01*
G01*
X11654000Y-58707000D01*
G75*
G02*
X11891500Y-58944500I0J-237500D01*
G01*
X11891500Y-59419500D01*
G75*
G02*
X11654000Y-59657000I-237500J0D01*
G01*
X11079000Y-59657000D01*
G75*
G02*
X10841500Y-59419500I0J237500D01*
G01*
G37*
G36*
G01*
X12591500Y-59419500D02*
X12591500Y-58944500D01*
G75*
G02*
X12829000Y-58707000I237500J0D01*
G01*
X13404000Y-58707000D01*
G75*
G02*
X13641500Y-58944500I0J-237500D01*
G01*
X13641500Y-59419500D01*
G75*
G02*
X13404000Y-59657000I-237500J0D01*
G01*
X12829000Y-59657000D01*
G75*
G02*
X12591500Y-59419500I0J237500D01*
G01*
G37*
G36*
G01*
X132377631Y-112082175D02*
X132377631Y-109182175D01*
G75*
G02*
X132627631Y-108932175I250000J0D01*
G01*
X133427631Y-108932175D01*
G75*
G02*
X133677631Y-109182175I0J-250000D01*
G01*
X133677631Y-112082175D01*
G75*
G02*
X133427631Y-112332175I-250000J0D01*
G01*
X132627631Y-112332175D01*
G75*
G02*
X132377631Y-112082175I0J250000D01*
G01*
G37*
G36*
G01*
X127927631Y-112082175D02*
X127927631Y-109182175D01*
G75*
G02*
X128177631Y-108932175I250000J0D01*
G01*
X128977631Y-108932175D01*
G75*
G02*
X129227631Y-109182175I0J-250000D01*
G01*
X129227631Y-112082175D01*
G75*
G02*
X128977631Y-112332175I-250000J0D01*
G01*
X128177631Y-112332175D01*
G75*
G02*
X127927631Y-112082175I0J250000D01*
G01*
G37*
G36*
G01*
X154145253Y-112074555D02*
X154145253Y-109174555D01*
G75*
G02*
X154395253Y-108924555I250000J0D01*
G01*
X155195253Y-108924555D01*
G75*
G02*
X155445253Y-109174555I0J-250000D01*
G01*
X155445253Y-112074555D01*
G75*
G02*
X155195253Y-112324555I-250000J0D01*
G01*
X154395253Y-112324555D01*
G75*
G02*
X154145253Y-112074555I0J250000D01*
G01*
G37*
G36*
G01*
X158595253Y-112074555D02*
X158595253Y-109174555D01*
G75*
G02*
X158845253Y-108924555I250000J0D01*
G01*
X159645253Y-108924555D01*
G75*
G02*
X159895253Y-109174555I0J-250000D01*
G01*
X159895253Y-112074555D01*
G75*
G02*
X159645253Y-112324555I-250000J0D01*
G01*
X158845253Y-112324555D01*
G75*
G02*
X158595253Y-112074555I0J250000D01*
G01*
G37*
G36*
G01*
X128052631Y-105789675D02*
X128052631Y-105314675D01*
G75*
G02*
X128290131Y-105077175I237500J0D01*
G01*
X128865131Y-105077175D01*
G75*
G02*
X129102631Y-105314675I0J-237500D01*
G01*
X129102631Y-105789675D01*
G75*
G02*
X128865131Y-106027175I-237500J0D01*
G01*
X128290131Y-106027175D01*
G75*
G02*
X128052631Y-105789675I0J237500D01*
G01*
G37*
G36*
G01*
X129802631Y-105789675D02*
X129802631Y-105314675D01*
G75*
G02*
X130040131Y-105077175I237500J0D01*
G01*
X130615131Y-105077175D01*
G75*
G02*
X130852631Y-105314675I0J-237500D01*
G01*
X130852631Y-105789675D01*
G75*
G02*
X130615131Y-106027175I-237500J0D01*
G01*
X130040131Y-106027175D01*
G75*
G02*
X129802631Y-105789675I0J237500D01*
G01*
G37*
G36*
G01*
X156020253Y-105782055D02*
X156020253Y-105307055D01*
G75*
G02*
X156257753Y-105069555I237500J0D01*
G01*
X156832753Y-105069555D01*
G75*
G02*
X157070253Y-105307055I0J-237500D01*
G01*
X157070253Y-105782055D01*
G75*
G02*
X156832753Y-106019555I-237500J0D01*
G01*
X156257753Y-106019555D01*
G75*
G02*
X156020253Y-105782055I0J237500D01*
G01*
G37*
G36*
G01*
X154270253Y-105782055D02*
X154270253Y-105307055D01*
G75*
G02*
X154507753Y-105069555I237500J0D01*
G01*
X155082753Y-105069555D01*
G75*
G02*
X155320253Y-105307055I0J-237500D01*
G01*
X155320253Y-105782055D01*
G75*
G02*
X155082753Y-106019555I-237500J0D01*
G01*
X154507753Y-106019555D01*
G75*
G02*
X154270253Y-105782055I0J237500D01*
G01*
G37*
G36*
G01*
X134102631Y-116207175D02*
X131952631Y-116207175D01*
G75*
G02*
X131702631Y-115957175I0J250000D01*
G01*
X131702631Y-115032175D01*
G75*
G02*
X131952631Y-114782175I250000J0D01*
G01*
X134102631Y-114782175D01*
G75*
G02*
X134352631Y-115032175I0J-250000D01*
G01*
X134352631Y-115957175D01*
G75*
G02*
X134102631Y-116207175I-250000J0D01*
G01*
G37*
G36*
G01*
X134102631Y-119182175D02*
X131952631Y-119182175D01*
G75*
G02*
X131702631Y-118932175I0J250000D01*
G01*
X131702631Y-118007175D01*
G75*
G02*
X131952631Y-117757175I250000J0D01*
G01*
X134102631Y-117757175D01*
G75*
G02*
X134352631Y-118007175I0J-250000D01*
G01*
X134352631Y-118932175D01*
G75*
G02*
X134102631Y-119182175I-250000J0D01*
G01*
G37*
G36*
G01*
X160320253Y-119174555D02*
X158170253Y-119174555D01*
G75*
G02*
X157920253Y-118924555I0J250000D01*
G01*
X157920253Y-117999555D01*
G75*
G02*
X158170253Y-117749555I250000J0D01*
G01*
X160320253Y-117749555D01*
G75*
G02*
X160570253Y-117999555I0J-250000D01*
G01*
X160570253Y-118924555D01*
G75*
G02*
X160320253Y-119174555I-250000J0D01*
G01*
G37*
G36*
G01*
X160320253Y-116199555D02*
X158170253Y-116199555D01*
G75*
G02*
X157920253Y-115949555I0J250000D01*
G01*
X157920253Y-115024555D01*
G75*
G02*
X158170253Y-114774555I250000J0D01*
G01*
X160320253Y-114774555D01*
G75*
G02*
X160570253Y-115024555I0J-250000D01*
G01*
X160570253Y-115949555D01*
G75*
G02*
X160320253Y-116199555I-250000J0D01*
G01*
G37*
G36*
G01*
X142950131Y-114407175D02*
X143425131Y-114407175D01*
G75*
G02*
X143662631Y-114644675I0J-237500D01*
G01*
X143662631Y-115219675D01*
G75*
G02*
X143425131Y-115457175I-237500J0D01*
G01*
X142950131Y-115457175D01*
G75*
G02*
X142712631Y-115219675I0J237500D01*
G01*
X142712631Y-114644675D01*
G75*
G02*
X142950131Y-114407175I237500J0D01*
G01*
G37*
G36*
G01*
X142950131Y-116157175D02*
X143425131Y-116157175D01*
G75*
G02*
X143662631Y-116394675I0J-237500D01*
G01*
X143662631Y-116969675D01*
G75*
G02*
X143425131Y-117207175I-237500J0D01*
G01*
X142950131Y-117207175D01*
G75*
G02*
X142712631Y-116969675I0J237500D01*
G01*
X142712631Y-116394675D01*
G75*
G02*
X142950131Y-116157175I237500J0D01*
G01*
G37*
G36*
G01*
X169167753Y-116149555D02*
X169642753Y-116149555D01*
G75*
G02*
X169880253Y-116387055I0J-237500D01*
G01*
X169880253Y-116962055D01*
G75*
G02*
X169642753Y-117199555I-237500J0D01*
G01*
X169167753Y-117199555D01*
G75*
G02*
X168930253Y-116962055I0J237500D01*
G01*
X168930253Y-116387055D01*
G75*
G02*
X169167753Y-116149555I237500J0D01*
G01*
G37*
G36*
G01*
X169167753Y-114399555D02*
X169642753Y-114399555D01*
G75*
G02*
X169880253Y-114637055I0J-237500D01*
G01*
X169880253Y-115212055D01*
G75*
G02*
X169642753Y-115449555I-237500J0D01*
G01*
X169167753Y-115449555D01*
G75*
G02*
X168930253Y-115212055I0J237500D01*
G01*
X168930253Y-114637055D01*
G75*
G02*
X169167753Y-114399555I237500J0D01*
G01*
G37*
D17*
X166287800Y-33044600D03*
X164007800Y-33044600D03*
X161727800Y-33044600D03*
D18*
X162482800Y-41019600D03*
X165532800Y-37669600D03*
X165532800Y-41019600D03*
X162482800Y-37669600D03*
X185342800Y-37769600D03*
X188392800Y-41119600D03*
X188392800Y-37769600D03*
X185342800Y-41119600D03*
D17*
X184587800Y-33144600D03*
X186867800Y-33144600D03*
X189147800Y-33144600D03*
D19*
X139377631Y-116682175D03*
D20*
X139377631Y-114882175D03*
X139377631Y-118482175D03*
X165595253Y-118474555D03*
X165595253Y-114874555D03*
D19*
X165595253Y-116674555D03*
D21*
X175437800Y-31908600D03*
X175437800Y-42208600D03*
G36*
G01*
X125170131Y-110107175D02*
X125645131Y-110107175D01*
G75*
G02*
X125882631Y-110344675I0J-237500D01*
G01*
X125882631Y-110919675D01*
G75*
G02*
X125645131Y-111157175I-237500J0D01*
G01*
X125170131Y-111157175D01*
G75*
G02*
X124932631Y-110919675I0J237500D01*
G01*
X124932631Y-110344675D01*
G75*
G02*
X125170131Y-110107175I237500J0D01*
G01*
G37*
G36*
G01*
X125170131Y-111857175D02*
X125645131Y-111857175D01*
G75*
G02*
X125882631Y-112094675I0J-237500D01*
G01*
X125882631Y-112669675D01*
G75*
G02*
X125645131Y-112907175I-237500J0D01*
G01*
X125170131Y-112907175D01*
G75*
G02*
X124932631Y-112669675I0J237500D01*
G01*
X124932631Y-112094675D01*
G75*
G02*
X125170131Y-111857175I237500J0D01*
G01*
G37*
G36*
G01*
X151387753Y-111849555D02*
X151862753Y-111849555D01*
G75*
G02*
X152100253Y-112087055I0J-237500D01*
G01*
X152100253Y-112662055D01*
G75*
G02*
X151862753Y-112899555I-237500J0D01*
G01*
X151387753Y-112899555D01*
G75*
G02*
X151150253Y-112662055I0J237500D01*
G01*
X151150253Y-112087055D01*
G75*
G02*
X151387753Y-111849555I237500J0D01*
G01*
G37*
G36*
G01*
X151387753Y-110099555D02*
X151862753Y-110099555D01*
G75*
G02*
X152100253Y-110337055I0J-237500D01*
G01*
X152100253Y-110912055D01*
G75*
G02*
X151862753Y-111149555I-237500J0D01*
G01*
X151387753Y-111149555D01*
G75*
G02*
X151150253Y-110912055I0J237500D01*
G01*
X151150253Y-110337055D01*
G75*
G02*
X151387753Y-110099555I237500J0D01*
G01*
G37*
G36*
G01*
X123900131Y-113917175D02*
X124375131Y-113917175D01*
G75*
G02*
X124612631Y-114154675I0J-237500D01*
G01*
X124612631Y-114729675D01*
G75*
G02*
X124375131Y-114967175I-237500J0D01*
G01*
X123900131Y-114967175D01*
G75*
G02*
X123662631Y-114729675I0J237500D01*
G01*
X123662631Y-114154675D01*
G75*
G02*
X123900131Y-113917175I237500J0D01*
G01*
G37*
G36*
G01*
X123900131Y-115667175D02*
X124375131Y-115667175D01*
G75*
G02*
X124612631Y-115904675I0J-237500D01*
G01*
X124612631Y-116479675D01*
G75*
G02*
X124375131Y-116717175I-237500J0D01*
G01*
X123900131Y-116717175D01*
G75*
G02*
X123662631Y-116479675I0J237500D01*
G01*
X123662631Y-115904675D01*
G75*
G02*
X123900131Y-115667175I237500J0D01*
G01*
G37*
G36*
G01*
X123900131Y-119477175D02*
X124375131Y-119477175D01*
G75*
G02*
X124612631Y-119714675I0J-237500D01*
G01*
X124612631Y-120289675D01*
G75*
G02*
X124375131Y-120527175I-237500J0D01*
G01*
X123900131Y-120527175D01*
G75*
G02*
X123662631Y-120289675I0J237500D01*
G01*
X123662631Y-119714675D01*
G75*
G02*
X123900131Y-119477175I237500J0D01*
G01*
G37*
G36*
G01*
X123900131Y-117727175D02*
X124375131Y-117727175D01*
G75*
G02*
X124612631Y-117964675I0J-237500D01*
G01*
X124612631Y-118539675D01*
G75*
G02*
X124375131Y-118777175I-237500J0D01*
G01*
X123900131Y-118777175D01*
G75*
G02*
X123662631Y-118539675I0J237500D01*
G01*
X123662631Y-117964675D01*
G75*
G02*
X123900131Y-117727175I237500J0D01*
G01*
G37*
G36*
G01*
X150117753Y-113909555D02*
X150592753Y-113909555D01*
G75*
G02*
X150830253Y-114147055I0J-237500D01*
G01*
X150830253Y-114722055D01*
G75*
G02*
X150592753Y-114959555I-237500J0D01*
G01*
X150117753Y-114959555D01*
G75*
G02*
X149880253Y-114722055I0J237500D01*
G01*
X149880253Y-114147055D01*
G75*
G02*
X150117753Y-113909555I237500J0D01*
G01*
G37*
G36*
G01*
X150117753Y-115659555D02*
X150592753Y-115659555D01*
G75*
G02*
X150830253Y-115897055I0J-237500D01*
G01*
X150830253Y-116472055D01*
G75*
G02*
X150592753Y-116709555I-237500J0D01*
G01*
X150117753Y-116709555D01*
G75*
G02*
X149880253Y-116472055I0J237500D01*
G01*
X149880253Y-115897055D01*
G75*
G02*
X150117753Y-115659555I237500J0D01*
G01*
G37*
G36*
G01*
X150117753Y-119469555D02*
X150592753Y-119469555D01*
G75*
G02*
X150830253Y-119707055I0J-237500D01*
G01*
X150830253Y-120282055D01*
G75*
G02*
X150592753Y-120519555I-237500J0D01*
G01*
X150117753Y-120519555D01*
G75*
G02*
X149880253Y-120282055I0J237500D01*
G01*
X149880253Y-119707055D01*
G75*
G02*
X150117753Y-119469555I237500J0D01*
G01*
G37*
G36*
G01*
X150117753Y-117719555D02*
X150592753Y-117719555D01*
G75*
G02*
X150830253Y-117957055I0J-237500D01*
G01*
X150830253Y-118532055D01*
G75*
G02*
X150592753Y-118769555I-237500J0D01*
G01*
X150117753Y-118769555D01*
G75*
G02*
X149880253Y-118532055I0J237500D01*
G01*
X149880253Y-117957055D01*
G75*
G02*
X150117753Y-117719555I237500J0D01*
G01*
G37*
D22*
X64130104Y-63689167D03*
X63480104Y-63689167D03*
X62830104Y-63689167D03*
X62180104Y-63689167D03*
X61530104Y-63689167D03*
X60880104Y-63689167D03*
X60230104Y-63689167D03*
X59580104Y-63689167D03*
X59580104Y-70589167D03*
X60230104Y-70589167D03*
X60880104Y-70589167D03*
X61530104Y-70589167D03*
X62180104Y-70589167D03*
X62830104Y-70589167D03*
X63480104Y-70589167D03*
X64130104Y-70589167D03*
D23*
X126597631Y-114782175D03*
X126597631Y-115282175D03*
X126597631Y-115782175D03*
X126597631Y-116282175D03*
D24*
X126797631Y-116782175D03*
X126797631Y-117582175D03*
D25*
X126397631Y-118382175D03*
D24*
X126797631Y-119182175D03*
X129097631Y-119182175D03*
D25*
X129497631Y-118382175D03*
D24*
X129097631Y-117582175D03*
X129097631Y-116782175D03*
D23*
X129297631Y-116282175D03*
X129297631Y-115282175D03*
X129297631Y-114782175D03*
D26*
X127772631Y-114632175D03*
X153990253Y-114624555D03*
D23*
X155515253Y-114774555D03*
X155515253Y-115274555D03*
X155515253Y-116274555D03*
D24*
X155315253Y-116774555D03*
X155315253Y-117574555D03*
D25*
X155715253Y-118374555D03*
D24*
X155315253Y-119174555D03*
X153015253Y-119174555D03*
D25*
X152615253Y-118374555D03*
D24*
X153015253Y-117574555D03*
X153015253Y-116774555D03*
D23*
X152815253Y-116274555D03*
X152815253Y-115774555D03*
X152815253Y-115274555D03*
X152815253Y-114774555D03*
D16*
X192000000Y-110000000D03*
G36*
G01*
X144849000Y-122021001D02*
X144849000Y-121120999D01*
G75*
G02*
X145098999Y-120871000I249999J0D01*
G01*
X145749001Y-120871000D01*
G75*
G02*
X145999000Y-121120999I0J-249999D01*
G01*
X145999000Y-122021001D01*
G75*
G02*
X145749001Y-122271000I-249999J0D01*
G01*
X145098999Y-122271000D01*
G75*
G02*
X144849000Y-122021001I0J249999D01*
G01*
G37*
G36*
G01*
X142799000Y-122021001D02*
X142799000Y-121120999D01*
G75*
G02*
X143048999Y-120871000I249999J0D01*
G01*
X143699001Y-120871000D01*
G75*
G02*
X143949000Y-121120999I0J-249999D01*
G01*
X143949000Y-122021001D01*
G75*
G02*
X143699001Y-122271000I-249999J0D01*
G01*
X143048999Y-122271000D01*
G75*
G02*
X142799000Y-122021001I0J249999D01*
G01*
G37*
G36*
G01*
X171265000Y-122021001D02*
X171265000Y-121120999D01*
G75*
G02*
X171514999Y-120871000I249999J0D01*
G01*
X172165001Y-120871000D01*
G75*
G02*
X172415000Y-121120999I0J-249999D01*
G01*
X172415000Y-122021001D01*
G75*
G02*
X172165001Y-122271000I-249999J0D01*
G01*
X171514999Y-122271000D01*
G75*
G02*
X171265000Y-122021001I0J249999D01*
G01*
G37*
G36*
G01*
X169215000Y-122021001D02*
X169215000Y-121120999D01*
G75*
G02*
X169464999Y-120871000I249999J0D01*
G01*
X170115001Y-120871000D01*
G75*
G02*
X170365000Y-121120999I0J-249999D01*
G01*
X170365000Y-122021001D01*
G75*
G02*
X170115001Y-122271000I-249999J0D01*
G01*
X169464999Y-122271000D01*
G75*
G02*
X169215000Y-122021001I0J249999D01*
G01*
G37*
G36*
G01*
X58719000Y-15002500D02*
X58719000Y-15477500D01*
G75*
G02*
X58481500Y-15715000I-237500J0D01*
G01*
X57906500Y-15715000D01*
G75*
G02*
X57669000Y-15477500I0J237500D01*
G01*
X57669000Y-15002500D01*
G75*
G02*
X57906500Y-14765000I237500J0D01*
G01*
X58481500Y-14765000D01*
G75*
G02*
X58719000Y-15002500I0J-237500D01*
G01*
G37*
G36*
G01*
X60469000Y-15002500D02*
X60469000Y-15477500D01*
G75*
G02*
X60231500Y-15715000I-237500J0D01*
G01*
X59656500Y-15715000D01*
G75*
G02*
X59419000Y-15477500I0J237500D01*
G01*
X59419000Y-15002500D01*
G75*
G02*
X59656500Y-14765000I237500J0D01*
G01*
X60231500Y-14765000D01*
G75*
G02*
X60469000Y-15002500I0J-237500D01*
G01*
G37*
G36*
G01*
X58719000Y-16780500D02*
X58719000Y-17255500D01*
G75*
G02*
X58481500Y-17493000I-237500J0D01*
G01*
X57906500Y-17493000D01*
G75*
G02*
X57669000Y-17255500I0J237500D01*
G01*
X57669000Y-16780500D01*
G75*
G02*
X57906500Y-16543000I237500J0D01*
G01*
X58481500Y-16543000D01*
G75*
G02*
X58719000Y-16780500I0J-237500D01*
G01*
G37*
G36*
G01*
X60469000Y-16780500D02*
X60469000Y-17255500D01*
G75*
G02*
X60231500Y-17493000I-237500J0D01*
G01*
X59656500Y-17493000D01*
G75*
G02*
X59419000Y-17255500I0J237500D01*
G01*
X59419000Y-16780500D01*
G75*
G02*
X59656500Y-16543000I237500J0D01*
G01*
X60231500Y-16543000D01*
G75*
G02*
X60469000Y-16780500I0J-237500D01*
G01*
G37*
G36*
G01*
X139096000Y-121333500D02*
X139096000Y-121808500D01*
G75*
G02*
X138858500Y-122046000I-237500J0D01*
G01*
X138283500Y-122046000D01*
G75*
G02*
X138046000Y-121808500I0J237500D01*
G01*
X138046000Y-121333500D01*
G75*
G02*
X138283500Y-121096000I237500J0D01*
G01*
X138858500Y-121096000D01*
G75*
G02*
X139096000Y-121333500I0J-237500D01*
G01*
G37*
G36*
G01*
X140846000Y-121333500D02*
X140846000Y-121808500D01*
G75*
G02*
X140608500Y-122046000I-237500J0D01*
G01*
X140033500Y-122046000D01*
G75*
G02*
X139796000Y-121808500I0J237500D01*
G01*
X139796000Y-121333500D01*
G75*
G02*
X140033500Y-121096000I237500J0D01*
G01*
X140608500Y-121096000D01*
G75*
G02*
X140846000Y-121333500I0J-237500D01*
G01*
G37*
G36*
G01*
X167008000Y-121333500D02*
X167008000Y-121808500D01*
G75*
G02*
X166770500Y-122046000I-237500J0D01*
G01*
X166195500Y-122046000D01*
G75*
G02*
X165958000Y-121808500I0J237500D01*
G01*
X165958000Y-121333500D01*
G75*
G02*
X166195500Y-121096000I237500J0D01*
G01*
X166770500Y-121096000D01*
G75*
G02*
X167008000Y-121333500I0J-237500D01*
G01*
G37*
G36*
G01*
X165258000Y-121333500D02*
X165258000Y-121808500D01*
G75*
G02*
X165020500Y-122046000I-237500J0D01*
G01*
X164445500Y-122046000D01*
G75*
G02*
X164208000Y-121808500I0J237500D01*
G01*
X164208000Y-121333500D01*
G75*
G02*
X164445500Y-121096000I237500J0D01*
G01*
X165020500Y-121096000D01*
G75*
G02*
X165258000Y-121333500I0J-237500D01*
G01*
G37*
D27*
X13302000Y-65205103D03*
X18702000Y-65205103D03*
G36*
G01*
X186695000Y-72787000D02*
X186695000Y-70787000D01*
G75*
G02*
X186945000Y-70537000I250000J0D01*
G01*
X189945000Y-70537000D01*
G75*
G02*
X190195000Y-70787000I0J-250000D01*
G01*
X190195000Y-72787000D01*
G75*
G02*
X189945000Y-73037000I-250000J0D01*
G01*
X186945000Y-73037000D01*
G75*
G02*
X186695000Y-72787000I0J250000D01*
G01*
G37*
G36*
G01*
X193195000Y-72787000D02*
X193195000Y-70787000D01*
G75*
G02*
X193445000Y-70537000I250000J0D01*
G01*
X196445000Y-70537000D01*
G75*
G02*
X196695000Y-70787000I0J-250000D01*
G01*
X196695000Y-72787000D01*
G75*
G02*
X196445000Y-73037000I-250000J0D01*
G01*
X193445000Y-73037000D01*
G75*
G02*
X193195000Y-72787000I0J250000D01*
G01*
G37*
G36*
G01*
X162957000Y-48356000D02*
X164957000Y-48356000D01*
G75*
G02*
X165207000Y-48606000I0J-250000D01*
G01*
X165207000Y-52106000D01*
G75*
G02*
X164957000Y-52356000I-250000J0D01*
G01*
X162957000Y-52356000D01*
G75*
G02*
X162707000Y-52106000I0J250000D01*
G01*
X162707000Y-48606000D01*
G75*
G02*
X162957000Y-48356000I250000J0D01*
G01*
G37*
G36*
G01*
X162957000Y-56356000D02*
X164957000Y-56356000D01*
G75*
G02*
X165207000Y-56606000I0J-250000D01*
G01*
X165207000Y-60106000D01*
G75*
G02*
X164957000Y-60356000I-250000J0D01*
G01*
X162957000Y-60356000D01*
G75*
G02*
X162707000Y-60106000I0J250000D01*
G01*
X162707000Y-56606000D01*
G75*
G02*
X162957000Y-56356000I250000J0D01*
G01*
G37*
G36*
G01*
X185817000Y-56388000D02*
X187817000Y-56388000D01*
G75*
G02*
X188067000Y-56638000I0J-250000D01*
G01*
X188067000Y-60138000D01*
G75*
G02*
X187817000Y-60388000I-250000J0D01*
G01*
X185817000Y-60388000D01*
G75*
G02*
X185567000Y-60138000I0J250000D01*
G01*
X185567000Y-56638000D01*
G75*
G02*
X185817000Y-56388000I250000J0D01*
G01*
G37*
G36*
G01*
X185817000Y-48388000D02*
X187817000Y-48388000D01*
G75*
G02*
X188067000Y-48638000I0J-250000D01*
G01*
X188067000Y-52138000D01*
G75*
G02*
X187817000Y-52388000I-250000J0D01*
G01*
X185817000Y-52388000D01*
G75*
G02*
X185567000Y-52138000I0J250000D01*
G01*
X185567000Y-48638000D01*
G75*
G02*
X185817000Y-48388000I250000J0D01*
G01*
G37*
G36*
G01*
X174387000Y-48356000D02*
X176387000Y-48356000D01*
G75*
G02*
X176637000Y-48606000I0J-250000D01*
G01*
X176637000Y-52106000D01*
G75*
G02*
X176387000Y-52356000I-250000J0D01*
G01*
X174387000Y-52356000D01*
G75*
G02*
X174137000Y-52106000I0J250000D01*
G01*
X174137000Y-48606000D01*
G75*
G02*
X174387000Y-48356000I250000J0D01*
G01*
G37*
G36*
G01*
X174387000Y-56356000D02*
X176387000Y-56356000D01*
G75*
G02*
X176637000Y-56606000I0J-250000D01*
G01*
X176637000Y-60106000D01*
G75*
G02*
X176387000Y-60356000I-250000J0D01*
G01*
X174387000Y-60356000D01*
G75*
G02*
X174137000Y-60106000I0J250000D01*
G01*
X174137000Y-56606000D01*
G75*
G02*
X174387000Y-56356000I250000J0D01*
G01*
G37*
M02*
