G04 #@! TF.GenerationSoftware,KiCad,Pcbnew,(5.1.6)-1*
G04 #@! TF.CreationDate,2020-07-30T20:48:25+02:00*
G04 #@! TF.ProjectId,EuroPress_MainBoard,4575726f-5072-4657-9373-5f4d61696e42,2.3*
G04 #@! TF.SameCoordinates,PX3072580PY2455c20*
G04 #@! TF.FileFunction,Legend,Bot*
G04 #@! TF.FilePolarity,Positive*
%FSLAX46Y46*%
G04 Gerber Fmt 4.6, Leading zero omitted, Abs format (unit mm)*
G04 Created by KiCad (PCBNEW (5.1.6)-1) date 2020-07-30 20:48:25*
%MOMM*%
%LPD*%
G01*
G04 APERTURE LIST*
%ADD10C,0.200000*%
%ADD11C,0.120000*%
G04 APERTURE END LIST*
D10*
X25154000Y-54102095D02*
X25106380Y-54006857D01*
X25106380Y-53864000D01*
X25154000Y-53721142D01*
X25249238Y-53625904D01*
X25344476Y-53578285D01*
X25534952Y-53530666D01*
X25677809Y-53530666D01*
X25868285Y-53578285D01*
X25963523Y-53625904D01*
X26058761Y-53721142D01*
X26106380Y-53864000D01*
X26106380Y-53959238D01*
X26058761Y-54102095D01*
X26011142Y-54149714D01*
X25677809Y-54149714D01*
X25677809Y-53959238D01*
X26106380Y-54578285D02*
X25106380Y-54578285D01*
X26106380Y-55149714D01*
X25106380Y-55149714D01*
X26106380Y-55625904D02*
X25106380Y-55625904D01*
X25106380Y-55864000D01*
X25154000Y-56006857D01*
X25249238Y-56102095D01*
X25344476Y-56149714D01*
X25534952Y-56197333D01*
X25677809Y-56197333D01*
X25868285Y-56149714D01*
X25963523Y-56102095D01*
X26058761Y-56006857D01*
X26106380Y-55864000D01*
X26106380Y-55625904D01*
X23772761Y-53578285D02*
X23820380Y-53721142D01*
X23820380Y-53959238D01*
X23772761Y-54054476D01*
X23725142Y-54102095D01*
X23629904Y-54149714D01*
X23534666Y-54149714D01*
X23439428Y-54102095D01*
X23391809Y-54054476D01*
X23344190Y-53959238D01*
X23296571Y-53768761D01*
X23248952Y-53673523D01*
X23201333Y-53625904D01*
X23106095Y-53578285D01*
X23010857Y-53578285D01*
X22915619Y-53625904D01*
X22868000Y-53673523D01*
X22820380Y-53768761D01*
X22820380Y-54006857D01*
X22868000Y-54149714D01*
X23725142Y-55149714D02*
X23772761Y-55102095D01*
X23820380Y-54959238D01*
X23820380Y-54864000D01*
X23772761Y-54721142D01*
X23677523Y-54625904D01*
X23582285Y-54578285D01*
X23391809Y-54530666D01*
X23248952Y-54530666D01*
X23058476Y-54578285D01*
X22963238Y-54625904D01*
X22868000Y-54721142D01*
X22820380Y-54864000D01*
X22820380Y-54959238D01*
X22868000Y-55102095D01*
X22915619Y-55149714D01*
X23820380Y-55578285D02*
X22820380Y-55578285D01*
X23820380Y-56149714D02*
X23248952Y-55721142D01*
X22820380Y-56149714D02*
X23391809Y-55578285D01*
X21026380Y-53292571D02*
X20026380Y-53292571D01*
X20740666Y-53625904D01*
X20026380Y-53959238D01*
X21026380Y-53959238D01*
X20026380Y-54625904D02*
X20026380Y-54816380D01*
X20074000Y-54911619D01*
X20169238Y-55006857D01*
X20359714Y-55054476D01*
X20693047Y-55054476D01*
X20883523Y-55006857D01*
X20978761Y-54911619D01*
X21026380Y-54816380D01*
X21026380Y-54625904D01*
X20978761Y-54530666D01*
X20883523Y-54435428D01*
X20693047Y-54387809D01*
X20359714Y-54387809D01*
X20169238Y-54435428D01*
X20074000Y-54530666D01*
X20026380Y-54625904D01*
X20978761Y-55435428D02*
X21026380Y-55578285D01*
X21026380Y-55816380D01*
X20978761Y-55911619D01*
X20931142Y-55959238D01*
X20835904Y-56006857D01*
X20740666Y-56006857D01*
X20645428Y-55959238D01*
X20597809Y-55911619D01*
X20550190Y-55816380D01*
X20502571Y-55625904D01*
X20454952Y-55530666D01*
X20407333Y-55483047D01*
X20312095Y-55435428D01*
X20216857Y-55435428D01*
X20121619Y-55483047D01*
X20074000Y-55530666D01*
X20026380Y-55625904D01*
X20026380Y-55864000D01*
X20074000Y-56006857D01*
X21026380Y-56435428D02*
X20026380Y-56435428D01*
X18486380Y-53292571D02*
X17486380Y-53292571D01*
X18200666Y-53625904D01*
X17486380Y-53959238D01*
X18486380Y-53959238D01*
X18486380Y-54435428D02*
X17486380Y-54435428D01*
X18438761Y-54864000D02*
X18486380Y-55006857D01*
X18486380Y-55244952D01*
X18438761Y-55340190D01*
X18391142Y-55387809D01*
X18295904Y-55435428D01*
X18200666Y-55435428D01*
X18105428Y-55387809D01*
X18057809Y-55340190D01*
X18010190Y-55244952D01*
X17962571Y-55054476D01*
X17914952Y-54959238D01*
X17867333Y-54911619D01*
X17772095Y-54864000D01*
X17676857Y-54864000D01*
X17581619Y-54911619D01*
X17534000Y-54959238D01*
X17486380Y-55054476D01*
X17486380Y-55292571D01*
X17534000Y-55435428D01*
X17486380Y-56054476D02*
X17486380Y-56244952D01*
X17534000Y-56340190D01*
X17629238Y-56435428D01*
X17819714Y-56483047D01*
X18153047Y-56483047D01*
X18343523Y-56435428D01*
X18438761Y-56340190D01*
X18486380Y-56244952D01*
X18486380Y-56054476D01*
X18438761Y-55959238D01*
X18343523Y-55864000D01*
X18153047Y-55816380D01*
X17819714Y-55816380D01*
X17629238Y-55864000D01*
X17534000Y-55959238D01*
X17486380Y-56054476D01*
D11*
X16704000Y-57598000D02*
X16704000Y-58928000D01*
X18034000Y-57598000D02*
X16704000Y-57598000D01*
X19304000Y-57598000D02*
X19304000Y-60258000D01*
X19304000Y-60258000D02*
X26984000Y-60258000D01*
X19304000Y-57598000D02*
X26984000Y-57598000D01*
X26984000Y-57598000D02*
X26984000Y-60258000D01*
D10*
X15156380Y-58594666D02*
X15870666Y-58594666D01*
X16013523Y-58547047D01*
X16108761Y-58451809D01*
X16156380Y-58308952D01*
X16156380Y-58213714D01*
X15156380Y-59547047D02*
X15156380Y-59070857D01*
X15632571Y-59023238D01*
X15584952Y-59070857D01*
X15537333Y-59166095D01*
X15537333Y-59404190D01*
X15584952Y-59499428D01*
X15632571Y-59547047D01*
X15727809Y-59594666D01*
X15965904Y-59594666D01*
X16061142Y-59547047D01*
X16108761Y-59499428D01*
X16156380Y-59404190D01*
X16156380Y-59166095D01*
X16108761Y-59070857D01*
X16061142Y-59023238D01*
X28388761Y-57904190D02*
X28436380Y-58047047D01*
X28436380Y-58285142D01*
X28388761Y-58380380D01*
X28341142Y-58428000D01*
X28245904Y-58475619D01*
X28150666Y-58475619D01*
X28055428Y-58428000D01*
X28007809Y-58380380D01*
X27960190Y-58285142D01*
X27912571Y-58094666D01*
X27864952Y-57999428D01*
X27817333Y-57951809D01*
X27722095Y-57904190D01*
X27626857Y-57904190D01*
X27531619Y-57951809D01*
X27484000Y-57999428D01*
X27436380Y-58094666D01*
X27436380Y-58332761D01*
X27484000Y-58475619D01*
X28436380Y-58904190D02*
X27436380Y-58904190D01*
X27436380Y-59285142D01*
X27484000Y-59380380D01*
X27531619Y-59428000D01*
X27626857Y-59475619D01*
X27769714Y-59475619D01*
X27864952Y-59428000D01*
X27912571Y-59380380D01*
X27960190Y-59285142D01*
X27960190Y-58904190D01*
X28436380Y-59904190D02*
X27436380Y-59904190D01*
M02*
