EESchema Schematic File Version 4
EELAYER 30 0
EELAYER END
$Descr A4 11693 8268
encoding utf-8
Sheet 1 1
Title ""
Date ""
Rev ""
Comp ""
Comment1 ""
Comment2 ""
Comment3 ""
Comment4 ""
$EndDescr
$Comp
L Connector_Generic:Conn_02x04_Odd_Even J1
U 1 1 5D59061F
P 2700 3150
F 0 "J1" H 2750 3467 50  0000 C CNN
F 1 "Encoder" H 2750 3376 50  0000 C CNN
F 2 "Connector_PinHeader_2.54mm:PinHeader_2x04_P2.54mm_Vertical" H 2700 3150 50  0001 C CNN
F 3 "~" H 2700 3150 50  0001 C CNN
F 4 "Yes" H -6400 -750 50  0001 C CNN "Sample"
F 5 "Samtec" H -6400 -750 50  0001 C CNN "Supplier"
F 6 "Samtec" H -6400 -750 50  0001 C CNN "Manufacturer_Name"
F 7 "---" H 2700 3150 50  0001 C CNN "LCSC"
	1    2700 3150
	1    0    0    -1  
$EndComp
Text GLabel 2300 3450 0    50   Input ~ 0
ENCODER_A
Text GLabel 2300 3150 0    50   Input ~ 0
ENCODER_B
Text GLabel 2300 3300 0    50   Input ~ 0
ENCODER_~A
Text GLabel 2300 3000 0    50   Input ~ 0
ENCODER_~B
Wire Wire Line
	2500 3150 2300 3150
Wire Wire Line
	2300 3000 2400 3000
Wire Wire Line
	2400 3000 2400 3050
Wire Wire Line
	2400 3050 2500 3050
Wire Wire Line
	2300 3300 2400 3300
Wire Wire Line
	2500 3350 2450 3350
Wire Wire Line
	2450 3350 2450 3450
Wire Wire Line
	2450 3450 2300 3450
Wire Wire Line
	2400 3250 2500 3250
Wire Wire Line
	2400 3300 2400 3250
$Comp
L power:GND #PWR014
U 1 1 5D5A3E2F
P 3100 3400
F 0 "#PWR014" H 3100 3150 50  0001 C CNN
F 1 "GND" H 3105 3227 50  0000 C CNN
F 2 "" H 3100 3400 50  0001 C CNN
F 3 "" H 3100 3400 50  0001 C CNN
	1    3100 3400
	1    0    0    -1  
$EndComp
Wire Wire Line
	3000 3250 3100 3250
Wire Wire Line
	3100 3250 3100 3350
Wire Wire Line
	3000 3350 3100 3350
Connection ~ 3100 3350
Wire Wire Line
	3100 3350 3100 3400
$Comp
L power:+24V #PWR011
U 1 1 5D5A7958
P 3100 3000
F 0 "#PWR011" H 3100 2850 50  0001 C CNN
F 1 "+24V" H 3115 3173 50  0000 C CNN
F 2 "" H 3100 3000 50  0001 C CNN
F 3 "" H 3100 3000 50  0001 C CNN
	1    3100 3000
	1    0    0    -1  
$EndComp
Wire Wire Line
	3000 3150 3100 3150
Wire Wire Line
	3100 3150 3100 3050
Wire Wire Line
	3000 3050 3100 3050
Connection ~ 3100 3050
Wire Wire Line
	3100 3050 3100 3000
Text Label 3800 5550 2    50   ~ 0
QDEC_A
Text Label 3800 5650 2    50   ~ 0
QDEC_B
$Comp
L power:+3V3 #PWR023
U 1 1 5D5C0B77
P 2600 4750
F 0 "#PWR023" H 2600 4600 50  0001 C CNN
F 1 "+3V3" H 2615 4923 50  0000 C CNN
F 2 "" H 2600 4750 50  0001 C CNN
F 3 "" H 2600 4750 50  0001 C CNN
	1    2600 4750
	1    0    0    -1  
$EndComp
$Comp
L power:+24V #PWR022
U 1 1 5D5C1AEA
P 2300 4750
F 0 "#PWR022" H 2300 4600 50  0001 C CNN
F 1 "+24V" H 2315 4923 50  0000 C CNN
F 2 "" H 2300 4750 50  0001 C CNN
F 3 "" H 2300 4750 50  0001 C CNN
	1    2300 4750
	1    0    0    -1  
$EndComp
$Comp
L power:GND #PWR027
U 1 1 5D5C1F1E
P 2450 6550
F 0 "#PWR027" H 2450 6300 50  0001 C CNN
F 1 "GND" H 2455 6377 50  0000 C CNN
F 2 "" H 2450 6550 50  0001 C CNN
F 3 "" H 2450 6550 50  0001 C CNN
	1    2450 6550
	1    0    0    -1  
$EndComp
$Comp
L EuroPress:EuroPress_EncoderBoard XA1
U 1 1 5D5E7042
P 2450 5600
F 0 "XA1" H 1800 6150 50  0000 L CNN
F 1 "EuroPress_EncoderBoard" H 2750 6150 50  0000 L CNN
F 2 "EuroPress:EuroPress_EncoderBoard" H 2450 5300 50  0001 C CNN
F 3 "" H 2450 5600 50  0001 C CNN
F 4 "N/A" H 400 -100 50  0001 C CNN "Manufacturer_Name"
F 5 "N/A" H 400 -100 50  0001 C CNN "Manufacturer_Part_Number"
F 6 "N/A" H 400 -100 50  0001 C CNN "Mouser Part Number"
F 7 "N/A" H 400 -100 50  0001 C CNN "Supplier"
F 8 "N/A" H 400 -100 50  0001 C CNN "SupplierRef"
F 9 "---" H 2450 5600 50  0001 C CNN "LCSC"
	1    2450 5600
	1    0    0    -1  
$EndComp
Wire Wire Line
	2400 6450 2400 6500
Wire Wire Line
	2400 6500 2450 6500
Wire Wire Line
	2500 6500 2500 6450
Wire Wire Line
	2450 6550 2450 6500
Connection ~ 2450 6500
Wire Wire Line
	2450 6500 2500 6500
Wire Wire Line
	2300 4750 2300 4800
Wire Wire Line
	2600 4750 2600 4800
Wire Wire Line
	3800 5550 3450 5550
Wire Wire Line
	3800 5650 3450 5650
Text GLabel 5050 2200 0    50   Input ~ 0
ENCODER_A
Text GLabel 5050 4350 0    50   Input ~ 0
ENCODER_B
Text GLabel 5050 2800 0    50   Input ~ 0
ENCODER_~A
Text GLabel 5050 4950 0    50   Input ~ 0
ENCODER_~B
$Comp
L Device:R_Small R1
U 1 1 6151F67D
P 5300 2200
F 0 "R1" V 5104 2200 50  0000 C CNN
F 1 "20k" V 5195 2200 50  0000 C CNN
F 2 "Resistor_SMD:R_0805_2012Metric" H 5300 2200 50  0001 C CNN
F 3 "" H 5300 2200 50  0001 C CNN
F 4 "C4328" H 5300 2200 50  0001 C CNN "LCSC"
F 5 "UNI-ROYAL(Uniroyal Elec)" H 5300 2200 50  0001 C CNN "Manufacturer_Name"
F 6 "0805W8F2002T5E" H 5300 2200 50  0001 C CNN "Manufacturer_Part_Number"
	1    5300 2200
	0    1    1    0   
$EndComp
$Comp
L Device:R_Small R2
U 1 1 615204AE
P 5300 2800
F 0 "R2" V 5104 2800 50  0000 C CNN
F 1 "20k" V 5195 2800 50  0000 C CNN
F 2 "Resistor_SMD:R_0805_2012Metric" H 5300 2800 50  0001 C CNN
F 3 "" H 5300 2800 50  0001 C CNN
F 4 "C4328" H 5300 2800 50  0001 C CNN "LCSC"
F 5 "UNI-ROYAL(Uniroyal Elec)" H 5300 2800 50  0001 C CNN "Manufacturer_Name"
F 6 "0805W8F2002T5E" H 5300 2800 50  0001 C CNN "Manufacturer_Part_Number"
	1    5300 2800
	0    1    1    0   
$EndComp
$Comp
L Device:R_Small R3
U 1 1 61520906
P 5300 4350
F 0 "R3" V 5104 4350 50  0000 C CNN
F 1 "20k" V 5195 4350 50  0000 C CNN
F 2 "Resistor_SMD:R_0805_2012Metric" H 5300 4350 50  0001 C CNN
F 3 "" H 5300 4350 50  0001 C CNN
F 4 "C4328" H 5300 4350 50  0001 C CNN "LCSC"
F 5 "UNI-ROYAL(Uniroyal Elec)" H 5300 4350 50  0001 C CNN "Manufacturer_Name"
F 6 "0805W8F2002T5E" H 5300 4350 50  0001 C CNN "Manufacturer_Part_Number"
	1    5300 4350
	0    1    1    0   
$EndComp
$Comp
L Device:R_Small R4
U 1 1 61520D9E
P 5300 4950
F 0 "R4" V 5104 4950 50  0000 C CNN
F 1 "20k" V 5195 4950 50  0000 C CNN
F 2 "Resistor_SMD:R_0805_2012Metric" H 5300 4950 50  0001 C CNN
F 3 "" H 5300 4950 50  0001 C CNN
F 4 "C4328" H 5300 4950 50  0001 C CNN "LCSC"
F 5 "UNI-ROYAL(Uniroyal Elec)" H 5300 4950 50  0001 C CNN "Manufacturer_Name"
F 6 "0805W8F2002T5E" H 5300 4950 50  0001 C CNN "Manufacturer_Part_Number"
	1    5300 4950
	0    1    1    0   
$EndComp
$Comp
L power:GND #PWR012
U 1 1 61522ABF
P 5600 3050
F 0 "#PWR012" H 5600 2800 50  0001 C CNN
F 1 "GND" H 5605 2877 50  0000 C CNN
F 2 "" H 5600 3050 50  0001 C CNN
F 3 "" H 5600 3050 50  0001 C CNN
	1    5600 3050
	1    0    0    -1  
$EndComp
$Comp
L power:GND #PWR021
U 1 1 61523D61
P 5650 4550
F 0 "#PWR021" H 5650 4300 50  0001 C CNN
F 1 "GND" H 5655 4377 50  0000 C CNN
F 2 "" H 5650 4550 50  0001 C CNN
F 3 "" H 5650 4550 50  0001 C CNN
	1    5650 4550
	0    1    1    0   
$EndComp
$Comp
L power:GND #PWR025
U 1 1 6152432A
P 5600 5200
F 0 "#PWR025" H 5600 4950 50  0001 C CNN
F 1 "GND" H 5605 5027 50  0000 C CNN
F 2 "" H 5600 5200 50  0001 C CNN
F 3 "" H 5600 5200 50  0001 C CNN
	1    5600 5200
	1    0    0    -1  
$EndComp
Wire Wire Line
	5050 2200 5200 2200
Wire Wire Line
	5400 2200 5650 2200
Wire Wire Line
	5050 2800 5200 2800
Wire Wire Line
	5400 2800 5650 2800
Wire Wire Line
	5050 4350 5200 4350
Wire Wire Line
	5400 4350 5650 4350
Wire Wire Line
	5650 4950 5400 4950
Wire Wire Line
	5200 4950 5050 4950
$Comp
L power:GND #PWR013
U 1 1 6154470A
P 6300 3050
F 0 "#PWR013" H 6300 2800 50  0001 C CNN
F 1 "GND" H 6305 2877 50  0000 C CNN
F 2 "" H 6300 3050 50  0001 C CNN
F 3 "" H 6300 3050 50  0001 C CNN
	1    6300 3050
	1    0    0    -1  
$EndComp
$Comp
L power:GND #PWR026
U 1 1 61545497
P 6300 5200
F 0 "#PWR026" H 6300 4950 50  0001 C CNN
F 1 "GND" H 6305 5027 50  0000 C CNN
F 2 "" H 6300 5200 50  0001 C CNN
F 3 "" H 6300 5200 50  0001 C CNN
	1    6300 5200
	1    0    0    -1  
$EndComp
Wire Wire Line
	6250 5150 6300 5150
Wire Wire Line
	6300 5150 6300 5200
Wire Wire Line
	6250 3000 6300 3000
Wire Wire Line
	6300 3000 6300 3050
Wire Wire Line
	5600 3050 5600 3000
Wire Wire Line
	5600 3000 5650 3000
Wire Wire Line
	5600 5200 5600 5150
Wire Wire Line
	5600 5150 5650 5150
$Comp
L power:+3V3 #PWR02
U 1 1 615BE938
P 8400 1450
F 0 "#PWR02" H 8400 1300 50  0001 C CNN
F 1 "+3V3" H 8415 1623 50  0000 C CNN
F 2 "" H 8400 1450 50  0001 C CNN
F 3 "" H 8400 1450 50  0001 C CNN
	1    8400 1450
	1    0    0    -1  
$EndComp
$Comp
L Device:C_Small C1
U 1 1 615BF6E0
P 8400 1550
F 0 "C1" H 8492 1596 50  0000 L CNN
F 1 "0.1u" H 8492 1505 50  0000 L CNN
F 2 "Capacitor_SMD:C_0402_1005Metric" H 8400 1550 50  0001 C CNN
F 3 "~" H 8400 1550 50  0001 C CNN
F 4 "C1525" H 8400 1550 50  0001 C CNN "LCSC"
F 5 "Samsung Electro-Mechanics" H 8400 1550 50  0001 C CNN "Manufacturer_Name"
	1    8400 1550
	1    0    0    -1  
$EndComp
$Comp
L power:GND #PWR04
U 1 1 615BFFE9
P 8400 1650
F 0 "#PWR04" H 8400 1400 50  0001 C CNN
F 1 "GND" H 8405 1477 50  0000 C CNN
F 2 "" H 8400 1650 50  0001 C CNN
F 3 "" H 8400 1650 50  0001 C CNN
	1    8400 1650
	1    0    0    -1  
$EndComp
$Comp
L power:+3V3 #PWR03
U 1 1 61528563
P 8350 3750
F 0 "#PWR03" H 8350 3600 50  0001 C CNN
F 1 "+3V3" H 8365 3923 50  0000 C CNN
F 2 "" H 8350 3750 50  0001 C CNN
F 3 "" H 8350 3750 50  0001 C CNN
	1    8350 3750
	1    0    0    -1  
$EndComp
$Comp
L Device:C_Small C2
U 1 1 61528A3D
P 8350 3850
F 0 "C2" H 8442 3896 50  0000 L CNN
F 1 "0.1u" H 8442 3805 50  0000 L CNN
F 2 "Capacitor_SMD:C_0402_1005Metric" H 8350 3850 50  0001 C CNN
F 3 "~" H 8350 3850 50  0001 C CNN
F 4 "C1525" H 8350 3850 50  0001 C CNN "LCSC"
F 5 "Samsung Electro-Mechanics" H 8350 3850 50  0001 C CNN "Manufacturer_Name"
	1    8350 3850
	1    0    0    -1  
$EndComp
$Comp
L power:GND #PWR05
U 1 1 61528A47
P 8350 3950
F 0 "#PWR05" H 8350 3700 50  0001 C CNN
F 1 "GND" H 8355 3777 50  0000 C CNN
F 2 "" H 8350 3950 50  0001 C CNN
F 3 "" H 8350 3950 50  0001 C CNN
	1    8350 3950
	1    0    0    -1  
$EndComp
NoConn ~ 1500 5450
NoConn ~ 1500 5550
NoConn ~ 1500 5650
NoConn ~ 1500 5750
NoConn ~ 2450 4800
Wire Wire Line
	6500 2700 6500 2800
Connection ~ 6500 2800
$Comp
L power:+3V3 #PWR01
U 1 1 6163E298
P 6950 900
F 0 "#PWR01" H 6950 750 50  0001 C CNN
F 1 "+3V3" H 6965 1073 50  0000 C CNN
F 2 "" H 6950 900 50  0001 C CNN
F 3 "" H 6950 900 50  0001 C CNN
	1    6950 900 
	1    0    0    -1  
$EndComp
Wire Wire Line
	6500 2100 6500 2200
Connection ~ 6500 2200
Wire Wire Line
	6250 4350 6450 4350
Wire Wire Line
	6500 4850 6500 4950
Wire Wire Line
	6500 4950 7150 4950
Wire Wire Line
	6450 4250 6450 4350
Connection ~ 6450 4350
Wire Wire Line
	6450 4350 7150 4350
Wire Wire Line
	7150 4550 7150 4350
Text Notes 1500 2100 0    50   ~ 0
Sensor POSIMAG PMIS3-50-50-50KHZ-HTL-Z0-2M-S\n=> max pulse : 50kHz\n=> Max output current : 50mA
$Comp
L Isolator:TLP290-4 U1
U 1 1 6151FD15
P 5950 2300
F 0 "U1" H 5950 2625 50  0000 C CNN
F 1 "TLP290-4" H 5950 2534 50  0000 C CNN
F 2 "Package_SO:SOP-16_4.55x10.3mm_P1.27mm" H 5100 2100 50  0001 L CIN
F 3 "https://toshiba.semicon-storage.com/info/docget.jsp?did=12855&prodName=TLP290-4" H 5975 2300 50  0001 L CNN
F 4 "C39031" H 5950 2300 50  0001 C CNN "LCSC"
F 5 "0;0;-90" H 5950 2300 50  0001 C CNN "JLCPCB_CORRECTION"
F 6 "Toshiba" H 5950 2300 50  0001 C CNN "Manufacturer_Name"
	1    5950 2300
	1    0    0    -1  
$EndComp
$Comp
L Isolator:TLP290-4 U1
U 2 1 61521342
P 5950 2900
F 0 "U1" H 5950 3225 50  0000 C CNN
F 1 "TLP290-4" H 5950 3134 50  0000 C CNN
F 2 "Package_SO:SOP-16_4.55x10.3mm_P1.27mm" H 5100 2700 50  0001 L CIN
F 3 "https://toshiba.semicon-storage.com/info/docget.jsp?did=12855&prodName=TLP290-4" H 5975 2900 50  0001 L CNN
F 4 "Toshiba" H 5950 2900 50  0001 C CNN "Manufacturer_Name"
F 5 "0;0;-90" H 5950 2900 50  0001 C CNN "JLCPCB_CORRECTION"
F 6 "C39031" H 5950 2900 50  0001 C CNN "LCSC"
	2    5950 2900
	1    0    0    -1  
$EndComp
$Comp
L Isolator:TLP290-4 U1
U 3 1 61522D4C
P 5950 4450
F 0 "U1" H 5950 4775 50  0000 C CNN
F 1 "TLP290-4" H 5950 4684 50  0000 C CNN
F 2 "Package_SO:SOP-16_4.55x10.3mm_P1.27mm" H 5100 4250 50  0001 L CIN
F 3 "https://toshiba.semicon-storage.com/info/docget.jsp?did=12855&prodName=TLP290-4" H 5975 4450 50  0001 L CNN
F 4 "Toshiba" H 5950 4450 50  0001 C CNN "Manufacturer_Name"
F 5 "0;0;-90" H 5950 4450 50  0001 C CNN "JLCPCB_CORRECTION"
F 6 "C39031" H 5950 4450 50  0001 C CNN "LCSC"
	3    5950 4450
	1    0    0    -1  
$EndComp
Wire Wire Line
	7150 4750 7150 4950
Wire Wire Line
	7600 4400 7650 4400
Wire Wire Line
	7600 4350 7600 4400
$Comp
L power:+3V3 #PWR020
U 1 1 615AC4FC
P 7600 4350
F 0 "#PWR020" H 7600 4200 50  0001 C CNN
F 1 "+3V3" H 7615 4523 50  0000 C CNN
F 2 "" H 7600 4350 50  0001 C CNN
F 3 "" H 7600 4350 50  0001 C CNN
	1    7600 4350
	1    0    0    -1  
$EndComp
Wire Wire Line
	8600 4650 8250 4650
Wire Wire Line
	7650 4750 7150 4750
Wire Wire Line
	7150 4550 7650 4550
$Comp
L power:+3V3 #PWR019
U 1 1 6152619F
P 7950 4250
F 0 "#PWR019" H 7950 4100 50  0001 C CNN
F 1 "+3V3" H 7965 4423 50  0000 C CNN
F 2 "" H 7950 4250 50  0001 C CNN
F 3 "" H 7950 4250 50  0001 C CNN
	1    7950 4250
	1    0    0    -1  
$EndComp
$Comp
L power:GND #PWR024
U 1 1 615165EA
P 7950 5050
F 0 "#PWR024" H 7950 4800 50  0001 C CNN
F 1 "GND" H 7955 4877 50  0000 C CNN
F 2 "" H 7950 5050 50  0001 C CNN
F 3 "" H 7950 5050 50  0001 C CNN
	1    7950 5050
	1    0    0    -1  
$EndComp
Text Label 8600 4650 2    50   ~ 0
QDEC_B
Wire Wire Line
	6250 4950 6500 4950
$Comp
L Isolator:TLP290-4 U1
U 4 1 61524694
P 5950 5050
F 0 "U1" H 5950 5375 50  0000 C CNN
F 1 "TLP290-4" H 5950 5284 50  0000 C CNN
F 2 "Package_SO:SOP-16_4.55x10.3mm_P1.27mm" H 5100 4850 50  0001 L CIN
F 3 "https://toshiba.semicon-storage.com/info/docget.jsp?did=12855&prodName=TLP290-4" H 5975 5050 50  0001 L CNN
F 4 "Toshiba" H 5950 5050 50  0001 C CNN "Manufacturer_Name"
F 5 "0;0;-90" H 5950 5050 50  0001 C CNN "JLCPCB_CORRECTION"
F 6 "C39031" H 5950 5050 50  0001 C CNN "LCSC"
	4    5950 5050
	1    0    0    -1  
$EndComp
$Comp
L power:GND #PWR09
U 1 1 6156E7AC
P 6300 2450
F 0 "#PWR09" H 6300 2200 50  0001 C CNN
F 1 "GND" H 6305 2277 50  0000 C CNN
F 2 "" H 6300 2450 50  0001 C CNN
F 3 "" H 6300 2450 50  0001 C CNN
	1    6300 2450
	1    0    0    -1  
$EndComp
Wire Wire Line
	6300 2450 6300 2400
Wire Wire Line
	6300 2400 6250 2400
$Comp
L power:GND #PWR08
U 1 1 61570D6F
P 5600 2450
F 0 "#PWR08" H 5600 2200 50  0001 C CNN
F 1 "GND" H 5605 2277 50  0000 C CNN
F 2 "" H 5600 2450 50  0001 C CNN
F 3 "" H 5600 2450 50  0001 C CNN
	1    5600 2450
	1    0    0    -1  
$EndComp
Wire Wire Line
	5600 2450 5600 2400
Wire Wire Line
	5600 2400 5650 2400
Connection ~ 6500 4950
Text Notes 8850 3050 0    50   ~ 0
MAX3284E input current max = 250µA\nMAX3284E input current = Ic TLP290\nPour Ic = 300µA, il faut If > 400µA (Fig 11.9 datasheet)\n\nOn choisit If = 1mA\nVf ~~1V @ If = 1mA (Fig 11.4 datasheet)\nR = (24 - 1) / 0.001\n=> R = 23k\n\nOn prend R = 20k \nP = R*I² = 20000 * 0.00115²\n=> P = 27mW
Text Label 8600 2500 2    50   ~ 0
QDEC_A
Wire Wire Line
	6250 2800 6500 2800
Wire Wire Line
	6250 2200 6500 2200
Wire Wire Line
	7200 2600 7200 2800
Wire Wire Line
	7200 2200 7200 2400
Wire Wire Line
	6500 2200 7200 2200
Wire Wire Line
	6500 2800 7200 2800
Wire Wire Line
	7200 2400 7600 2400
Wire Wire Line
	7200 2600 7600 2600
Wire Wire Line
	7550 2250 7600 2250
Wire Wire Line
	7550 2200 7550 2250
$Comp
L power:+3V3 #PWR07
U 1 1 615B21B3
P 7550 2200
F 0 "#PWR07" H 7550 2050 50  0001 C CNN
F 1 "+3V3" H 7565 2373 50  0000 C CNN
F 2 "" H 7550 2200 50  0001 C CNN
F 3 "" H 7550 2200 50  0001 C CNN
	1    7550 2200
	1    0    0    -1  
$EndComp
Wire Wire Line
	8600 2500 8200 2500
$Comp
L power:+3V3 #PWR06
U 1 1 61525A76
P 7900 2100
F 0 "#PWR06" H 7900 1950 50  0001 C CNN
F 1 "+3V3" H 7915 2273 50  0000 C CNN
F 2 "" H 7900 2100 50  0001 C CNN
F 3 "" H 7900 2100 50  0001 C CNN
	1    7900 2100
	1    0    0    -1  
$EndComp
$Comp
L power:GND #PWR010
U 1 1 61515D6C
P 7900 2900
F 0 "#PWR010" H 7900 2650 50  0001 C CNN
F 1 "GND" H 7905 2727 50  0000 C CNN
F 2 "" H 7900 2900 50  0001 C CNN
F 3 "" H 7900 2900 50  0001 C CNN
	1    7900 2900
	1    0    0    -1  
$EndComp
$Comp
L EuroPress:MAX3283E U2
U 1 1 6151321F
P 7900 2500
F 0 "U2" H 8000 2850 50  0000 L CNN
F 1 "MAX3283E" H 7950 2150 50  0000 L CNN
F 2 "Package_TO_SOT_SMD:SOT-23-6" H 7900 1800 50  0001 C CNN
F 3 "https://datasheets.maximintegrated.com/en/ds/MAX3280E-MAX3284E.pdf" H 7890 2450 50  0001 C CNN
F 4 "C122570" H 7900 2500 50  0001 C CNN "LCSC"
F 5 "Maxim" H 7900 2500 50  0001 C CNN "Manufacturer_Name"
F 6 "MAX3283EAUT+T" H 7900 2500 50  0001 C CNN "Manufacturer_Part_Number"
	1    7900 2500
	1    0    0    -1  
$EndComp
$Comp
L Device:R_Network04 RN1
U 1 1 615BDCAB
P 6750 1100
F 0 "RN1" H 6470 1146 50  0000 R CNN
F 1 "1k" H 6470 1055 50  0000 R CNN
F 2 "Resistor_THT:R_Array_SIP5" V 7025 1100 50  0001 C CNN
F 3 "" H 6750 1100 50  0001 C CNN
F 4 "---" H 6750 1100 50  0001 C CNN "LCSC"
F 5 "Bourns" H 6750 1100 50  0001 C CNN "Manufacturer_Name"
F 6 "4605X-101-102LF" H 6750 1100 50  0001 C CNN "Manufacturer_Part_Number"
	1    6750 1100
	-1   0    0    -1  
$EndComp
Wire Wire Line
	6650 1700 6650 1300
Wire Wire Line
	6750 1700 6750 1300
Wire Wire Line
	6850 1700 6850 1300
Wire Wire Line
	6950 1700 6950 1300
Text Label 6650 1700 1    50   ~ 0
PULLUP_A
Text Label 6750 1700 1    50   ~ 0
PULLUP_~A
Text Label 6850 1700 1    50   ~ 0
PULLUP_B
Text Label 6950 1700 1    50   ~ 0
PULLUP_~B
Text Label 6500 2100 0    50   ~ 0
PULLUP_A
Text Label 6500 2700 0    50   ~ 0
PULLUP_~A
Text Label 6450 4250 0    50   ~ 0
PULLUP_B
Text Label 6500 4850 0    50   ~ 0
PULLUP_~B
$Comp
L EuroPress:MAX3283E U3
U 1 1 61515316
P 7950 4650
F 0 "U3" H 8050 5000 50  0000 L CNN
F 1 "MAX3283E" H 8000 4300 50  0000 L CNN
F 2 "Package_TO_SOT_SMD:SOT-23-6" H 7950 3950 50  0001 C CNN
F 3 "https://datasheets.maximintegrated.com/en/ds/MAX3280E-MAX3284E.pdf" H 7940 4600 50  0001 C CNN
F 4 "C122570" H 7950 4650 50  0001 C CNN "LCSC"
F 5 "Maxim" H 7950 4650 50  0001 C CNN "Manufacturer_Name"
F 6 "MAX3283EAUT+T" H 7950 4650 50  0001 C CNN "Manufacturer_Part_Number"
	1    7950 4650
	1    0    0    -1  
$EndComp
$EndSCHEMATC
