(module ACH3212 (layer F.Cu) (tedit 5C4E2A21)
  (fp_text reference REF** (at 0 -1.9) (layer F.SilkS)
    (effects (font (size 1 1) (thickness 0.15)))
  )
  (fp_text value ACH3212 (at 0 2.1) (layer F.Fab) hide
    (effects (font (size 1 1) (thickness 0.15)))
  )
  (fp_line (start -1.7 1) (end -1.7 -1) (layer F.SilkS) (width 0.15))
  (fp_line (start -1.7 1) (end 1.7 1) (layer F.SilkS) (width 0.15))
  (fp_line (start -1.7 -1) (end 1.7 -1) (layer F.SilkS) (width 0.15))
  (fp_line (start 1.7 1) (end 1.7 -1) (layer F.SilkS) (width 0.15))
  (pad 1 smd rect (at -1.8 0) (size 1.4 1.94) (layers F.Cu F.Paste F.Mask))
  (pad 3 smd rect (at 1.8 0) (size 1.4 1.94) (layers F.Cu F.Paste F.Mask))
  (pad 2 smd rect (at 0 0) (size 0.6 3.5) (layers F.Cu F.Paste F.Mask))
)
